


                     eT 1.6 - an electronic structure program

  ------------------------------------------------------------------------
   Author list in alphabetical order:
  ------------------------------------------------------------------------
   J. H. Andersen, A. Balbi, S. Coriani, S. D. Folkestad, T. Giovannini, 
   L. Goletto, T. S. Haugland, A. Hutcheson, I-M. Høyvik, E. F. Kjønstad, 
   H. Koch, R. Matveeva, T. Moitra, R. H. Myhre, A. C. Paul, S. Roet, 
   M. Scavino, A. K. Schnack-Petersen, A. S. Skeidsvoll, Å. H. Tveten
  ------------------------------------------------------------------------
   J. Chem. Phys. 152, 184103 (2020); https://doi.org/10.1063/5.0004713


   This is eT 1.6.0 Galaxy
  ------------------------------------------------------------
  Configuration date: 2022-02-01 15:59:21 UTC +01:00
  Git branch:         release-v1.6.0
  Git hash:           2abe95f42f8b4eabde880c038dd204ec81d587da
  Fortran compiler:   GNU 10.3.0
  C compiler:         GNU 10.3.0
  C++ compiler:       GNU 10.3.0
  LAPACK type:        SYSTEM_NATIVE
  BLAS type:          SYSTEM_NATIVE
  64-bit integers:    OFF
  OpenMP:             ON
  PCM:                OFF
  Forced batching:    OFF
  Runtime checks:     OFF
  ------------------------------------------------------------

  Calculation started: 2022-02-01 16:08:06 UTC +01:00


  :: Input file
  ================

     Note: geometry section is excluded from this print

     system
        name: H2O He
        charge: 0
     end system

     do
        restart
        response
     end do

     memory
        available: 8
     end memory

     cc response
        eom
        dipole length
        transition moments
     end cc response

     solver cholesky
        threshold: 1.0d-12
     end solver cholesky

     solver scf
        algorithm:          scf-diis
        energy threshold:   1.0d-11
        gradient threshold: 1.0d-11
     end solver scf

     method
        hf
        ccsd
     end method

     solver cc gs
        omega threshold:  1.0d-11
        energy threshold: 1.0d-11
     end solver cc gs

     solver cc multipliers
        threshold: 1.0d-12
     end solver cc multipliers

     solver cc es
        singlet states:     1
        residual threshold: 1.0d-11
        energy threshold:   1.0d-11
     end solver cc es


  Running on 2 OMP threads
  Memory available for calculation: 8.000000 GB


  :: RHF wavefunction
  ======================

     ==============================================================================
                                     Geometry (angstrom)
     ==============================================================================
        Atom           X                  Y                  Z         # in input
     ==============================================================================
        Basis: cc-pvdz
        1  H     0.866810000000     0.601440000000     5.000000000000        1
        2  H    -0.866810000000     0.601440000000     5.000000000000        2
        3  O     0.000000000000    -0.075790000000     5.000000000000        3
        4 He     0.100000000000    -0.020000000000     7.530000000000        4
     ==============================================================================

     ==============================================================================
                                     Geometry (a.u.)
     ==============================================================================
        Atom           X                  Y                  Z         # in input
     ==============================================================================
        Basis: cc-pvdz
        1  H     1.638033502034     1.136556880358     9.448630622825        1
        2  H    -1.638033502034     1.136556880358     9.448630622825        2
        3  O     0.000000000000    -0.143222342981     9.448630622825        3
        4 He     0.188972612457    -0.037794522491    14.229637717975        4
     ==============================================================================

  - Cholesky decomposition of AO overlap to get linearly independent AOs:

     Linear dependence threshold:             0.10E-05
     Number of atomic orbitals:               29
     Number of orthonormal atomic orbitals:   29

  - Molecular orbital details:

     Number of occupied orbitals:         6
     Number of virtual orbitals:         23
     Number of molecular orbitals:       29


  :: Hartree-Fock engine
  =========================

  Drives the calculation of the Hartree-Fock state.

  This is a RHF ground state calculation.
  The following tasks will be performed:

     1) Calculation of reference state (SCF-DIIS algorithm)


  1) Calculation of reference state (SCF-DIIS algorithm)

  - Requested restart. Reading orbitals from file

  - Screening and integral thresholds:

     Coulomb screening threshold:    0.1000E-16
     Exchange screening threshold:   0.1000E-14
     ERI cutoff:                     0.1000E-16
     One-electron integral  cutoff:  0.1000E-21
     Cumulative Fock threshold:      0.1000E+01

  - SCF solver settings:

     Maximum iterations:                   100
     Acceleration type:                   diis

  - Convergence thresholds

     Residual threshold:            0.1000E-10
     Energy threshold:              0.1000E-10

  - DIIS tool settings:

     DIIS dimension:   8

     Storage (solver scf_errors): memory
     Storage (solver scf_parameters): memory

  Iteration       Energy (a.u.)      Max(grad.)    Delta E (a.u.)
  ---------------------------------------------------------------
     1           -78.843851693631     0.5181E-11     0.7884E+02
  ---------------------------------------------------------------
  Convergence criterion met in 1 iterations!

  - Summary of RHF wavefunction energetics (a.u.):

     HOMO-LUMO gap:                  0.645629080245
     Nuclear repulsion energy:      12.116100574587
     Electronic energy:            -90.959952268218
     Total energy:                 -78.843851693631

  - Timings for the RHF ground state calculation

     Total wall time (sec):              0.04800
     Total cpu time (sec):               0.06682


  :: CCSD wavefunction
  =======================

     Bath orbital(s):         False

   - Number of orbitals:

     Occupied orbitals:    6
     Virtual orbitals:     23
     Molecular orbitals:   29
     Atomic orbitals:      29

   - Number of ground state amplitudes:

     Single excitation amplitudes:  138
     Double excitation amplitudes:  9591


  :: Coupled cluster response engine
  =====================================

  Calculates dipole transition moments and oscillator strengths between 

  the ground state and the excited states.

  This is a CCSD response calculation.
  The following tasks will be performed:

     1) Cholesky decomposition of the electron repulsion integrals
     2) Preparation of MO basis and integrals
     3) Calculation of the ground state (diis algorithm)
     4) Calculation of the multipliers (davidson algorithm)
     5) Calculation of the excited states (davidson algorithm)
     6) Calculation of excited state properties (EOM)


  1) Cholesky decomposition of the electron repulsion integrals

   - Cholesky decomposition of electronic repulsion integrals solver
  ---------------------------------------------------------------------

  Performs a Cholesky decomposition of the two-electron electronic repulsion 
  integrals in the atomic orbital basis,

  (ab|cd) = sum_J L_ab^J L_cd^J.

  Once the Cholesky basis has been determined, the vectors L^J are constructed 
  and stored to disk. These may either be used directly, or be transformed 
  to the MO basis for use in post-HF calculations. For more information, 
  see S. D. Folkestad, E. F. Kjønstad and H. Koch, JCP, 150(19), (2019)

  - Cholesky decomposition settings:

     Target threshold is:   0.10E-11
     Span factor:           0.10E-01
     Max qual:                  1000

  - Cholesky decomposition ao details:

     Total number of AOs:                    29
     Total number of shell pairs:           120
     Total number of AO pairs:              435

     Significant shell pairs:               118
     Significant AO pairs:                  431

     Construct shell pairs:                 120
     Construct AO pairs:                    435

  Iter.  #Sign. ao pairs / shell pairs   Max diagonal    #Qualified    #Cholesky    Cholesky array size
  -------------------------------------------------------------------------------------------------------
     1               406 /     108       0.47383E+01         147             42             17052
     2               319 /      93       0.47165E-01         234            111             35409
     3               250 /      76       0.46944E-03         178            183             45750
     4               187 /      55       0.38270E-05         145            265             49555
     5                87 /      25       0.38106E-07          78            324             28188
     6                21 /       3       0.37202E-09          43            349              7329
     7                 0 /       0       0.36652E-11           7            354                 0
  -------------------------------------------------------------------------------------------------------

  - Summary of Cholesky decomposition of electronic repulsion integrals:

     Final number of Cholesky vectors: 354

 - Testing the Cholesky decomposition decomposition electronic repulsion integrals:

     Maximal difference between approximate and actual diagonal:              0.7161E-12
     Minimal element of difference between approximate and actual diagonal:  -0.1238E-14

  - Settings for integral handling:

     Cholesky vectors in memory: True
     ERI matrix in memory:       True

  - Finished decomposing the ERIs.

     Total wall time (sec):              0.54800
     Total cpu time (sec):               0.80601


  2) Preparation of MO basis and integrals


  3) Calculation of the ground state (diis algorithm)

   - DIIS coupled cluster ground state solver
  ----------------------------------------------

  A DIIS CC ground state amplitude equations solver. It uses an extrapolation 
  of previous quasi-Newton perturbation theory estimates of the next amplitudes. 
  See Helgaker et al., Molecular Electronic Structure Theory, Chapter 
  13.

  - CC ground state solver settings:

  - Convergence thresholds

     Residual threshold:            0.1000E-10
     Energy threshold:              0.1000E-10
     Max number of iterations:      100

  Requested restart. Reading in solution from file.

  - DIIS tool settings:

     DIIS dimension:   8

     Storage (cc_gs_diis_errors): file
     Storage (cc_gs_diis_parameters): file

  Iteration    Energy (a.u.)        |omega|       Delta E (a.u.)
  ---------------------------------------------------------------
    1           -79.100383481556     0.7516E-11     0.7910E+02
  ---------------------------------------------------------------
  Convergence criterion met in 1 iterations!

  - Ground state summary:

     Final ground state energy (a.u.):   -79.100383481556

     Correlation energy (a.u.):           -0.256531787925

     Largest single amplitudes:
     -----------------------------------
        a       i         t(a,i)
     -----------------------------------
        1      5        0.014740597522
       14      4       -0.009546856220
        7      4        0.008284826483
       15      5       -0.006124828873
        4      5        0.005606072698
        6      2        0.005476844297
        2      4        0.005318591702
       13      5        0.005269818337
        5      6        0.004933006903
       11      6       -0.003454309399
     ------------------------------------

     Largest double amplitudes:
     --------------------------------------------------
        a      i       b      j         t(ai,bj)
     --------------------------------------------------
        2      4       2      4       -0.047351708919
        5      6       5      6       -0.046240574404
        9      3       9      3       -0.041367012249
        3      4       3      4       -0.036659067517
        6      5       6      5       -0.034554012170
        1      5       1      5       -0.034177347751
       16      3      16      3       -0.032108235347
       17      3      17      3       -0.032052553603
       18      3      18      3       -0.031351828684
        2      4       3      4       -0.029701270698
     --------------------------------------------------

  - Finished solving the CCSD ground state equations

     Total wall time (sec):              0.03200
     Total cpu time (sec):               0.05174


  4) Calculation of the multipliers (davidson algorithm)

   - Davidson coupled cluster multipliers solver
  -------------------------------------------------

  A Davidson solver that solves the multiplier equation: t-bar^T A = -η. 
  This linear equation is solved in a reduced space. A description of 
  the algorithm can be found in E. R. Davidson, J. Comput. Phys. 17, 87 
  (1975).

   - Davidson tool settings:

     Number of parameters:                 9729
     Number of requested solutions:           1
     Max reduced space dimension:            50

     Storage (multipliers_davidson_trials): file
     Storage (multipliers_davidson_transforms): file

  - Davidson solver settings

     Residual threshold:              0.10E-11
     Max number of iterations:             100

   Iteration       Residual norm
  -------------------------------
     1               0.3520E-01
     2               0.6901E-02
     3               0.1186E-02
     4               0.6190E-03
     5               0.1749E-03
     6               0.4640E-04
     7               0.1050E-04
     8               0.3165E-05
     9               0.1472E-05
    10               0.6431E-06
    11               0.2184E-06
    12               0.5525E-07
    13               0.1279E-07
    14               0.2938E-08
    15               0.7460E-09
    16               0.2189E-09
    17               0.7578E-10
    18               0.3361E-10
    19               0.1167E-10
    20               0.4058E-11
    21               0.1156E-11
    22               0.2910E-12
  -------------------------------
  Convergence criterion met in 22 iterations!

  - Davidson CC multipliers solver summary:

     Largest single amplitudes:
     -----------------------------------
        a       i         tbar(a,i)
     -----------------------------------
        1      5        0.022790118892
       14      4       -0.015907507090
        7      4        0.014297181947
        4      5        0.011712306722
       15      5       -0.010007216961
        6      2        0.009083547622
       13      5        0.008770531160
        2      4        0.006954460297
        5      6        0.006820250273
        3      4        0.006765159555
     ------------------------------------

     Largest double amplitudes:
     --------------------------------------------------
        a      i       b      j         tbar(ai,bj)
     --------------------------------------------------
        5      6       5      6       -0.092500754790
        2      4       2      4       -0.092085328213
        6      5       5      6        0.089666625590
        2      4       5      6       -0.083792278099
        9      3       9      3       -0.082167759499
        2      4       6      5        0.077164163663
        2      4       1      5       -0.076342716082
        7      4       5      6        0.071424572152
        3      4       3      4       -0.071282985174
        6      5       6      5       -0.068075967748
     --------------------------------------------------

  - Finished solving the CCSD multipliers equations

     Total wall time (sec):               0.80900
     Total cpu time (sec):                0.81105


  5) Calculation of the excited states (davidson algorithm)
     Calculating right vectors

   - Davidson coupled cluster excited state solver
  ---------------------------------------------------

  A Davidson solver that calculates the lowest eigenvalues and the right 
  or left eigenvectors of the Jacobian matrix, A. The eigenvalue problem 
  is solved in a reduced space, the dimension of which is expanded until 
  the convergence criteria are met.

  A complete description of the algorithm can be found in E. R. Davidson, 
  J. Comput. Phys. 17, 87 (1975).

  - Settings for coupled cluster excited state solver (Davidson):

     Calculation type:    valence
     Excitation vectors:  right

  - Convergence thresholds

     Residual threshold:            0.1000E-10
     Energy threshold:              0.1000E-10

     Number of singlet states:               1
     Max number of iterations:             100

   - Davidson tool settings:

     Number of parameters:                 9729
     Number of requested solutions:           1
     Max reduced space dimension:           100

     Storage (cc_es_davidson_trials): file
     Storage (cc_es_davidson_transforms): file
     Restarting right vector 1 from file l_001.

  Iteration:                  1
  Reduced space dimension:    1

   Root  Eigenvalue (Re)   Eigenvalue (Im)    |residual|   Delta E (Re)
  ------------------------------------------------------------------------
     1   0.240922444897    0.000000000000     0.6229E-01   0.6272E-02
  ------------------------------------------------------------------------

  Iteration:                  2
  Reduced space dimension:    2

   Root  Eigenvalue (Re)   Eigenvalue (Im)    |residual|   Delta E (Re)
  ------------------------------------------------------------------------
     1   0.246586479249    0.000000000000     0.1445E-01   0.5664E-02
  ------------------------------------------------------------------------

  Iteration:                  3
  Reduced space dimension:    3

   Root  Eigenvalue (Re)   Eigenvalue (Im)    |residual|   Delta E (Re)
  ------------------------------------------------------------------------
     1   0.247103312585    0.000000000000     0.4980E-02   0.5168E-03
  ------------------------------------------------------------------------

  Iteration:                  4
  Reduced space dimension:    4

   Root  Eigenvalue (Re)   Eigenvalue (Im)    |residual|   Delta E (Re)
  ------------------------------------------------------------------------
     1   0.247195945077    0.000000000000     0.1387E-02   0.9263E-04
  ------------------------------------------------------------------------

  Iteration:                  5
  Reduced space dimension:    5

   Root  Eigenvalue (Re)   Eigenvalue (Im)    |residual|   Delta E (Re)
  ------------------------------------------------------------------------
     1   0.247200242549    0.000000000000     0.4915E-03   0.4297E-05
  ------------------------------------------------------------------------

  Iteration:                  6
  Reduced space dimension:    6

   Root  Eigenvalue (Re)   Eigenvalue (Im)    |residual|   Delta E (Re)
  ------------------------------------------------------------------------
     1   0.247193874128    0.000000000000     0.1602E-03   0.6368E-05
  ------------------------------------------------------------------------

  Iteration:                  7
  Reduced space dimension:    7

   Root  Eigenvalue (Re)   Eigenvalue (Im)    |residual|   Delta E (Re)
  ------------------------------------------------------------------------
     1   0.247193616029    0.000000000000     0.5092E-04   0.2581E-06
  ------------------------------------------------------------------------

  Iteration:                  8
  Reduced space dimension:    8

   Root  Eigenvalue (Re)   Eigenvalue (Im)    |residual|   Delta E (Re)
  ------------------------------------------------------------------------
     1   0.247194315393    0.000000000000     0.2351E-04   0.6994E-06
  ------------------------------------------------------------------------

  Iteration:                  9
  Reduced space dimension:    9

   Root  Eigenvalue (Re)   Eigenvalue (Im)    |residual|   Delta E (Re)
  ------------------------------------------------------------------------
     1   0.247194404442    0.000000000000     0.2073E-04   0.8905E-07
  ------------------------------------------------------------------------

  Iteration:                 10
  Reduced space dimension:   10

   Root  Eigenvalue (Re)   Eigenvalue (Im)    |residual|   Delta E (Re)
  ------------------------------------------------------------------------
     1   0.247194322685    0.000000000000     0.8608E-05   0.8176E-07
  ------------------------------------------------------------------------

  Iteration:                 11
  Reduced space dimension:   11

   Root  Eigenvalue (Re)   Eigenvalue (Im)    |residual|   Delta E (Re)
  ------------------------------------------------------------------------
     1   0.247194275978    0.000000000000     0.2006E-05   0.4671E-07
  ------------------------------------------------------------------------

  Iteration:                 12
  Reduced space dimension:   12

   Root  Eigenvalue (Re)   Eigenvalue (Im)    |residual|   Delta E (Re)
  ------------------------------------------------------------------------
     1   0.247194260164    0.000000000000     0.4548E-06   0.1581E-07
  ------------------------------------------------------------------------

  Iteration:                 13
  Reduced space dimension:   13

   Root  Eigenvalue (Re)   Eigenvalue (Im)    |residual|   Delta E (Re)
  ------------------------------------------------------------------------
     1   0.247194256821    0.000000000000     0.1326E-06   0.3343E-08
  ------------------------------------------------------------------------

  Iteration:                 14
  Reduced space dimension:   14

   Root  Eigenvalue (Re)   Eigenvalue (Im)    |residual|   Delta E (Re)
  ------------------------------------------------------------------------
     1   0.247194255660    0.000000000000     0.5178E-07   0.1162E-08
  ------------------------------------------------------------------------

  Iteration:                 15
  Reduced space dimension:   15

   Root  Eigenvalue (Re)   Eigenvalue (Im)    |residual|   Delta E (Re)
  ------------------------------------------------------------------------
     1   0.247194255498    0.000000000000     0.2369E-07   0.1617E-09
  ------------------------------------------------------------------------

  Iteration:                 16
  Reduced space dimension:   16

   Root  Eigenvalue (Re)   Eigenvalue (Im)    |residual|   Delta E (Re)
  ------------------------------------------------------------------------
     1   0.247194255571    0.000000000000     0.1840E-07   0.7283E-10
  ------------------------------------------------------------------------

  Iteration:                 17
  Reduced space dimension:   17

   Root  Eigenvalue (Re)   Eigenvalue (Im)    |residual|   Delta E (Re)
  ------------------------------------------------------------------------
     1   0.247194255543    0.000000000000     0.1743E-07   0.2785E-10
  ------------------------------------------------------------------------

  Iteration:                 18
  Reduced space dimension:   18

   Root  Eigenvalue (Re)   Eigenvalue (Im)    |residual|   Delta E (Re)
  ------------------------------------------------------------------------
     1   0.247194255518    0.000000000000     0.7390E-08   0.2479E-10
  ------------------------------------------------------------------------

  Iteration:                 19
  Reduced space dimension:   19

   Root  Eigenvalue (Re)   Eigenvalue (Im)    |residual|   Delta E (Re)
  ------------------------------------------------------------------------
     1   0.247194255565    0.000000000000     0.2520E-08   0.4719E-10
  ------------------------------------------------------------------------

  Iteration:                 20
  Reduced space dimension:   20

   Root  Eigenvalue (Re)   Eigenvalue (Im)    |residual|   Delta E (Re)
  ------------------------------------------------------------------------
     1   0.247194255578    0.000000000000     0.1108E-08   0.1242E-10
  ------------------------------------------------------------------------

  Iteration:                 21
  Reduced space dimension:   21

   Root  Eigenvalue (Re)   Eigenvalue (Im)    |residual|   Delta E (Re)
  ------------------------------------------------------------------------
     1   0.247194255576    0.000000000000     0.5417E-09   0.1147E-11
  ------------------------------------------------------------------------

  Iteration:                 22
  Reduced space dimension:   22

   Root  Eigenvalue (Re)   Eigenvalue (Im)    |residual|   Delta E (Re)
  ------------------------------------------------------------------------
     1   0.247194255574    0.000000000000     0.2239E-09   0.2955E-11
  ------------------------------------------------------------------------

  Iteration:                 23
  Reduced space dimension:   23

   Root  Eigenvalue (Re)   Eigenvalue (Im)    |residual|   Delta E (Re)
  ------------------------------------------------------------------------
     1   0.247194255572    0.000000000000     0.8427E-10   0.1575E-11
  ------------------------------------------------------------------------

  Iteration:                 24
  Reduced space dimension:   24

   Root  Eigenvalue (Re)   Eigenvalue (Im)    |residual|   Delta E (Re)
  ------------------------------------------------------------------------
     1   0.247194255572    0.000000000000     0.3789E-10   0.2601E-13
  ------------------------------------------------------------------------

  Iteration:                 25
  Reduced space dimension:   25

   Root  Eigenvalue (Re)   Eigenvalue (Im)    |residual|   Delta E (Re)
  ------------------------------------------------------------------------
     1   0.247194255572    0.000000000000     0.1461E-10   0.1858E-12
  ------------------------------------------------------------------------

  Iteration:                 26
  Reduced space dimension:   26

   Root  Eigenvalue (Re)   Eigenvalue (Im)    |residual|   Delta E (Re)
  ------------------------------------------------------------------------
     1   0.247194255572    0.000000000000     0.5329E-11   0.1212E-12
  ------------------------------------------------------------------------
  Convergence criterion met in 26 iterations!

  - Excitation vector amplitudes:

     Electronic state nr. 1

     Energy (Hartree):                  0.247194255572
     Fraction singles (|R1|/|R|):       0.973397678083

     Largest single amplitudes:
     -----------------------------------
        a       i         R(a,i)
     -----------------------------------
        1      6       -0.964249868485
        4      6       -0.121847295823
        6      6        0.036249387511
       13      6        0.030061485952
        1      3        0.011074241438
       22      6       -0.008603353606
       19      5        0.007863834135
        1      5       -0.007857920552
       10      6       -0.007675079118
        9      6        0.007427820492
     ------------------------------------

     Largest double amplitudes:
     --------------------------------------------------
        a      i       b      j         R(ai,bj)
     --------------------------------------------------
        2      4       1      6        0.100746791318
        1      5       1      6        0.085612058155
        1      6       5      6        0.066933008112
        1      2       1      6        0.063267573162
        1      4       2      6        0.061512599150
        3      4       1      6        0.054854109240
        6      5       1      6       -0.046260935197
        4      5       1      6        0.038260256937
        7      4       1      6       -0.032958804244
        4      4       2      6        0.032734134559
     --------------------------------------------------

     - Electronic excitation energies:

                                      Excitation energy
                          ------------------------------------------
      State                (Hartree)             (eV)
     ---------------------------------------------------------------
        1                  0.247194255572        6.726498310303
     ---------------------------------------------------------------
     eV/Hartree (CODATA 2014): 27.21138602

  - Finished solving the CCSD excited state equations (right)

     Total wall time (sec):              0.90900
     Total cpu time (sec):               0.89444


  5) Calculation of the excited states (davidson algorithm)
     Calculating left vectors

   - Davidson coupled cluster excited state solver
  ---------------------------------------------------

  A Davidson solver that calculates the lowest eigenvalues and the right 
  or left eigenvectors of the Jacobian matrix, A. The eigenvalue problem 
  is solved in a reduced space, the dimension of which is expanded until 
  the convergence criteria are met.

  A complete description of the algorithm can be found in E. R. Davidson, 
  J. Comput. Phys. 17, 87 (1975).

  - Settings for coupled cluster excited state solver (Davidson):

     Calculation type:    valence
     Excitation vectors:  left

  - Convergence thresholds

     Residual threshold:            0.1000E-10
     Energy threshold:              0.1000E-10

     Number of singlet states:               1
     Max number of iterations:             100

   - Davidson tool settings:

     Number of parameters:                 9729
     Number of requested solutions:           1
     Max reduced space dimension:           100

     Storage (cc_es_davidson_trials): file
     Storage (cc_es_davidson_transforms): file
     Restarting left vector 1 from file l_001.

  Iteration:                  1
  Reduced space dimension:    1

   Root  Eigenvalue (Re)   Eigenvalue (Im)    |residual|   Delta E (Re)
  ------------------------------------------------------------------------
     1   0.247194255572    0.000000000000     0.9080E-11   0.9104E-14
  ------------------------------------------------------------------------
  Convergence criterion met in 1 iterations!

  - Excitation vector amplitudes:

     Electronic state nr. 1

     Energy (Hartree):                  0.247194255572
     Fraction singles (|L1|/|L|):       0.942536368057

     Largest single amplitudes:
     -----------------------------------
        a       i         L(a,i)
     -----------------------------------
        1      6        0.934321066335
        4      6        0.114002382604
        6      6       -0.032814400825
       13      6       -0.027947643734
        1      3       -0.010930020791
        1      5        0.007879253292
       22      6        0.007408446952
       10      6        0.006944886702
       19      5       -0.006882560536
        9      6       -0.006676723237
     ------------------------------------

     Largest double amplitudes:
     --------------------------------------------------
        a      i       b      j         L(ai,bj)
     --------------------------------------------------
        2      4       1      6       -0.171079645373
        6      5       1      6        0.100212340583
        3      4       1      6       -0.099658455491
        1      5       1      6       -0.089486547887
        4      5       1      6       -0.079266906022
        1      6       5      6       -0.071510175860
        7      4       1      6        0.068318341917
        1      2       1      6       -0.065029437021
        4      4       2      6       -0.055727685952
        3      5       2      6       -0.042559408816
     --------------------------------------------------

     - Electronic excitation energies:

                                      Excitation energy
                          ------------------------------------------
      State                (Hartree)             (eV)
     ---------------------------------------------------------------
        1                  0.247194255572        6.726498310303
     ---------------------------------------------------------------
     eV/Hartree (CODATA 2014): 27.21138602

  - Finished solving the CCSD excited state equations (left)

     Total wall time (sec):              0.06200
     Total cpu time (sec):               0.05772


  6) Calculation of excited state properties (EOM)

  :: EOM properties calculation

  - Summary of EOM transition properties calculation:

     States m = 0 and n = 1:
     -------------------------
     Calculation type:                             EOM
     Excitation energy [E_h]:           0.247194255572
     Excitation energy [eV]:            6.726498310303
     Hartree-to-eV (CODATA 2014):          27.21138602

                   Transition moments [a.u.]         Transition strength [a.u.]
     --------------------------------------------------------------------------
     Comp. q     < n |q| m >       < m |q| n >        < n |q| m > < m |q| n >
     --------------------------------------------------------------------------
     X          -0.0004665158     -0.0008903044            0.0000004153
     Y          -0.0027022345     -0.0052703759            0.0000142418
     Z           0.2024326697      0.3970439121            0.0803746591
     --------------------------------------------------------------------------
     Oscillator strength:      0.013247851457

  - Timings for the CCSD response calculation

     Total wall time (sec):              2.38800
     Total cpu time (sec):               2.66200

  ------------------------------------------------------------

  Peak memory usage during the execution of eT: 14.596752 MB

  Total wall time in eT (sec):              2.51900
  Total cpu time in eT (sec):               2.80554

  Calculation ended: 2022-02-01 16:08:09 UTC +01:00

  - Implementation references:

     eT: https://doi.org/10.1063/5.0004713
     Cholesky decomposition of ERIs: https://doi.org/10.1063/1.5083802

  eT terminated successfully!
