
  - Alpha molecular orbital energies

  --------------------------------------------------------------------------
   1     -20.752916092551  11       0.973240407149  21       2.092439468960
   2      -1.505967568668  12       1.041500223671  22       2.516282976312
   3      -0.925405252202  13       1.154068819760  23       2.517654154797
   4      -0.768794025169  14       1.387252930389  24       2.530028247074
   5      -0.754147914709  15       1.395473311381  25       2.967019020989
   6      -0.732654435136  16       1.422359499428  26       3.008850066836
   7      -0.196899725142  17       1.606231286657  27       3.179774830240
   8       0.132692393154  18       1.754984153533  28       3.541739626620
   9       0.650419395301  19       1.760255080430  29       3.854512525202
  10       0.657530502157  20       2.073728873895
  --------------------------------------------------------------------------


  - Alpha molecular orbital coefficients

    AO    Center  l m_l           1           2           3           4           5
  ---------------------------------------------------------------------------------------
     1    1 H     s           0.000455    0.103460   -0.002152    0.261226   -0.000587
     2    1 H     s           0.000533   -0.003417    0.007658    0.096689   -0.001901
     3    1 H     p x         0.000016   -0.021746    0.000343   -0.019356    0.000335
     4    1 H     p y         0.000067   -0.015161   -0.000000   -0.028501    0.000059
     5    1 H     p z         0.000002    0.000051    0.001599    0.000041    0.014083
     6    2 H     s           0.000454    0.103296   -0.004110   -0.261469   -0.001236
     7    2 H     s           0.000533   -0.003346    0.006330   -0.096886   -0.001746
     8    2 H     p x        -0.000016    0.021728   -0.000491   -0.019455   -0.000370
     9    2 H     p y         0.000067   -0.015143    0.000253    0.028441    0.000114
    10    2 H     p z         0.000002    0.000048    0.001326   -0.000085    0.014072
    11    3 O     s           1.001173    0.013297   -0.001202   -0.000062   -0.000169
    12    3 O     s           0.002122    0.518334   -0.011526    0.000066    0.001665
    13    3 O     s          -0.004170    0.455674   -0.010404    0.000514    0.004510
    14    3 O     p x         0.000003   -0.000071    0.001879    0.526625    0.000735
    15    3 O     p y         0.000869    0.088309   -0.006401   -0.001402   -0.006135
    16    3 O     p z         0.000006   -0.000147    0.047557   -0.001009    0.703659
    17    3 O     p x        -0.000001    0.000050    0.000942    0.278495    0.000424
    18    3 O     p y        -0.000840    0.012162   -0.003916   -0.000768   -0.002961
    19    3 O     p z        -0.000007    0.000001    0.033019   -0.000696    0.429298
    20    3 O     d -2       -0.000001   -0.000002    0.000059    0.020107    0.000031
    21    3 O     d -1       -0.000003   -0.000019    0.000991   -0.000021    0.014547
    22    3 O     d  0        0.000442    0.014333    0.000961   -0.000004    0.000008
    23    3 O     d  1        0.000000    0.000010    0.000066    0.000061    0.000012
    24    3 O     d  2       -0.000248   -0.002859    0.000165    0.000048    0.000114
    25    4 He    s          -0.000036    0.003136    0.590403   -0.002988   -0.058468
    26    4 He    s           0.000039    0.004908    0.509295   -0.002707   -0.050075
    27    4 He    p x        -0.000001   -0.000021   -0.000043    0.000312   -0.000105
    28    4 He    p y        -0.000003    0.000004   -0.000009    0.000003   -0.000051
    29    4 He    p z        -0.000002   -0.000622   -0.000847   -0.000081   -0.002293
  ---------------------------------------------------------------------------------------

    AO    Center  l m_l           6           7           8           9          10
  ---------------------------------------------------------------------------------------
     1    1 H     s           0.157219    0.231867    0.156794   -0.918928    0.849602
     2    1 H     s           0.026586    0.642938    1.083036    0.945247   -0.766602
     3    1 H     p x        -0.026543    0.010490    0.004697   -0.028364    0.167829
     4    1 H     p y        -0.002230    0.002137    0.003512   -0.092612    0.039546
     5    1 H     p z         0.000157    0.000110    0.000046   -0.000065   -0.000433
     6    2 H     s           0.155873    0.232813   -0.155364    0.951861    0.812776
     7    2 H     s           0.026034    0.648045   -1.079092   -0.974679   -0.728811
     8    2 H     p x         0.026410   -0.010524    0.004653   -0.035023   -0.166723
     9    2 H     p y        -0.002093    0.002202   -0.003517    0.094148    0.036012
    10    2 H     p z         0.000153    0.000195   -0.000011    0.000113   -0.000350
    11    3 O     s           0.006497    0.007341    0.000117   -0.001841   -0.091666
    12    3 O     s          -0.101179   -0.158909   -0.000228   -0.004733   -0.236625
    13    3 O     s          -0.235295   -0.696431   -0.002332    0.009808    0.493302
    14    3 O     p x         0.000960    0.001011   -0.364783    0.247728   -0.004660
    15    3 O     p y         0.622590   -0.259168   -0.000789   -0.006436   -0.324280
    16    3 O     p z         0.006930    0.003845    0.000467    0.000688   -0.001283
    17    3 O     p x         0.000492    0.001274   -0.585976    0.177018   -0.003933
    18    3 O     p y         0.366862   -0.281016   -0.001039    0.002538    0.121083
    19    3 O     p z         0.004811   -0.001377   -0.000097   -0.000691    0.001489
    20    3 O     d -2        0.000070    0.000004   -0.001603   -0.095889    0.001884
    21    3 O     d -1        0.000211    0.000065    0.000006    0.000004   -0.000010
    22    3 O     d  0       -0.014056   -0.011091   -0.000048   -0.001532   -0.076882
    23    3 O     d  1       -0.000001   -0.000020   -0.000017   -0.000006   -0.000016
    24    3 O     d  2       -0.010020    0.011525    0.000026    0.000835    0.041919
    25    4 He    s           0.004539   -0.029649   -0.001846   -0.002780    0.093819
    26    4 He    s          -0.000048   -0.045087   -0.004644   -0.001941   -0.017737
    27    4 He    p x         0.000023   -0.000016    0.002706    0.008150    0.000104
    28    4 He    p y         0.000411    0.000837    0.000150    0.000183   -0.003906
    29    4 He    p z         0.000455   -0.002333   -0.000201   -0.000995    0.013758
  ---------------------------------------------------------------------------------------

    AO    Center  l m_l          11          12          13          14          15
  ---------------------------------------------------------------------------------------
     1    1 H     s           0.012825    0.408932   -0.287050   -0.002803    0.213174
     2    1 H     s          -0.036981    0.041624   -0.664823    0.023359   -0.221656
     3    1 H     p x         0.009986   -0.020711    0.295161   -0.000190   -0.363622
     4    1 H     p y         0.003085   -0.253294    0.094650   -0.006976    0.477695
     5    1 H     p z         0.079447    0.000003   -0.000852   -0.647446   -0.025308
     6    2 H     s           0.013427    0.409524    0.286999   -0.001677    0.213150
     7    2 H     s          -0.030466    0.042670    0.662114    0.022538   -0.220657
     8    2 H     p x        -0.008620    0.021264    0.294004    0.001777    0.362793
     9    2 H     p y         0.002059   -0.253223   -0.094278   -0.006641    0.476682
    10    2 H     p z         0.077077    0.000002   -0.001238    0.691539    0.002807
    11    3 O     s          -0.014506   -0.046062   -0.000539    0.018381   -0.286883
    12    3 O     s          -0.033455   -0.208798   -0.001134    0.042133   -0.701458
    13    3 O     s           0.060161   -0.279992    0.002767   -0.065165    0.775102
    14    3 O     p x        -0.002697   -0.000675   -0.789772   -0.000305   -0.000196
    15    3 O     p y        -0.007511    0.749041   -0.001050    0.002191    0.184828
    16    3 O     p z        -0.873842    0.000519    0.004143   -0.021764    0.009393
    17    3 O     p x         0.004958    0.001339    1.620092    0.001145    0.000568
    18    3 O     p y         0.018212   -1.157046    0.002089   -0.010281   -0.560945
    19    3 O     p z         0.959467   -0.000400   -0.004588    0.018030   -0.006872
    20    3 O     d -2        0.000094   -0.000015   -0.013589   -0.000130    0.000042
    21    3 O     d -1        0.001703   -0.000009   -0.000108    0.003984   -0.002059
    22    3 O     d  0       -0.000069   -0.024384    0.000038   -0.000970   -0.038928
    23    3 O     d  1        0.000330   -0.000001    0.000076   -0.169392   -0.003552
    24    3 O     d  2        0.001652    0.032810    0.000091    0.000907   -0.155175
    25    4 He    s          -0.271500   -0.001145   -0.005892    0.109789   -0.036330
    26    4 He    s           0.219952    0.000214    0.007261   -0.115394    0.050274
    27    4 He    p x        -0.001552    0.000154   -0.001924   -0.000410   -0.000171
    28    4 He    p y        -0.000932   -0.005181   -0.000570    0.000224   -0.007972
    29    4 He    p z        -0.034145    0.001575   -0.000912   -0.001176    0.003303
  ---------------------------------------------------------------------------------------

    AO    Center  l m_l          16          17          18          19          20
  ---------------------------------------------------------------------------------------
     1    1 H     s          -0.028263   -0.067443   -0.546737    0.392152    0.080819
     2    1 H     s          -0.183295   -0.100064   -0.227959    0.114819    0.373162
     3    1 H     p x         0.079767    0.045172    0.274605    0.356455   -0.654302
     4    1 H     p y        -0.031273   -0.017954   -0.238879   -0.652994   -0.501993
     5    1 H     p z        -0.330604    0.674121   -0.063799    0.009927   -0.000731
     6    2 H     s          -0.039754   -0.069394   -0.624325   -0.243662   -0.075115
     7    2 H     s          -0.170458   -0.093357   -0.253694   -0.056972   -0.365987
     8    2 H     p x        -0.091705   -0.052315   -0.172938    0.412661   -0.637510
     9    2 H     p y        -0.035425   -0.022605   -0.069598    0.692579    0.490035
    10    2 H     p z        -0.189608    0.684900   -0.068177    0.010503   -0.000650
    11    3 O     s          -0.129934   -0.123095   -0.688418    0.086196    0.000028
    12    3 O     s          -0.288197   -0.275394   -1.541806    0.193039   -0.001712
    13    3 O     s           0.505782    0.433223    2.265462   -0.283088   -0.012084
    14    3 O     p x         0.001265   -0.001492    0.019222    0.140761   -0.612683
    15    3 O     p y        -0.060403   -0.038854   -0.191874    0.024008   -0.005555
    16    3 O     p z         0.173184    0.212804   -0.054158    0.008567   -0.001041
    17    3 O     p x        -0.006265    0.002015   -0.106522   -0.845008   -0.178123
    18    3 O     p y         0.225861    0.166214    0.888426   -0.111446   -0.003112
    19    3 O     p z        -0.099570   -0.684283    0.118474   -0.018662    0.002090
    20    3 O     d -2        0.001257    0.000492    0.003184    0.029601    0.138965
    21    3 O     d -1       -0.050821    0.186993   -0.023593    0.003693   -0.000445
    22    3 O     d  0        0.019843    0.022374    0.154689   -0.019539   -0.002681
    23    3 O     d  1       -0.017628   -0.001333    0.000489   -0.000066   -0.000017
    24    3 O     d  2        0.023523    0.013375    0.070588   -0.008988    0.000511
    25    4 He    s          -1.017082   -0.358659    0.272740   -0.043643    0.006405
    26    4 He    s           1.072003    0.413145   -0.300057    0.048900   -0.009228
    27    4 He    p x        -0.000134    0.002165   -0.003205   -0.006235    0.025497
    28    4 He    p y        -0.001360    0.000982    0.001950    0.000029    0.001559
    29    4 He    p z         0.009341    0.052279   -0.041109    0.008574   -0.004860
  ---------------------------------------------------------------------------------------

    AO    Center  l m_l          21          22          23          24          25
  ---------------------------------------------------------------------------------------
     1    1 H     s          -0.356634    0.003437    0.015041   -0.036572   -0.004211
     2    1 H     s          -0.261418   -0.012353   -0.054356    0.058781    0.009380
     3    1 H     p x         0.730489    0.005763    0.026105   -0.021249   -0.003615
     4    1 H     p y         0.482687    0.007756    0.013030   -0.020692   -0.002475
     5    1 H     p z         0.000053   -0.002721   -0.001399   -0.025266   -0.324335
     6    2 H     s          -0.358337    0.005570   -0.016118   -0.029399   -0.003446
     7    2 H     s          -0.270253   -0.016094    0.050850    0.042488    0.007319
     8    2 H     p x        -0.745509   -0.008625    0.023478    0.010839    0.002662
     9    2 H     p y         0.494194    0.007828   -0.011269   -0.018749   -0.002230
    10    2 H     p z         0.000020   -0.002736   -0.000932   -0.025927   -0.324486
    11    3 O     s          -0.084297   -0.006553   -0.001768   -0.009456   -0.000747
    12    3 O     s          -0.038174   -0.013376   -0.003764   -0.026522   -0.002474
    13    3 O     s           1.269974    0.033349    0.007308   -0.017110   -0.005296
    14    3 O     p x        -0.006985   -0.001344    0.013461   -0.004430   -0.000376
    15    3 O     p y         0.455381    0.010046    0.000931   -0.008751   -0.000784
    16    3 O     p z         0.000065   -0.005339   -0.002387   -0.059161   -0.063419
    17    3 O     p x        -0.002129    0.001247    0.013653    0.002341    0.000129
    18    3 O     p y         0.359115   -0.006189    0.000794    0.002594   -0.001918
    19    3 O     p z         0.000137    0.009726    0.004318    0.105938    0.250239
    20    3 O     d -2        0.001687   -0.000729   -0.002518   -0.001230   -0.000179
    21    3 O     d -1       -0.000026   -0.006385   -0.002872   -0.067455    1.004021
    22    3 O     d  0        0.265455   -0.000586    0.002190    0.029345    0.005211
    23    3 O     d  1        0.000010   -0.000059   -0.000278    0.000171    0.000291
    24    3 O     d  2       -0.039072   -0.005745   -0.000513    0.004334    0.001791
    25    4 He    s           0.014335    0.000348    0.000425    0.034314    0.032375
    26    4 He    s          -0.004330    0.000201   -0.000279   -0.047270   -0.048027
    27    4 He    p x        -0.001238   -0.081564    0.996426    0.009093    0.002638
    28    4 He    p y        -0.009520    0.993486    0.082008   -0.078215    0.001163
    29    4 He    p z         0.002256    0.078275   -0.002976    0.993079    0.060390
  ---------------------------------------------------------------------------------------

    AO    Center  l m_l          26          27          28          29
  ---------------------------------------------------------------------------------------
     1    1 H     s           0.000048    0.220711    0.850591   -0.699818
     2    1 H     s           0.000044    0.031139    0.195107   -0.264425
     3    1 H     p x        -0.000057   -0.323281   -0.592600    0.519646
     4    1 H     p y         0.000005    0.238973   -0.437971    0.454971
     5    1 H     p z        -0.304727    0.001380    0.001772   -0.000101
     6    2 H     s          -0.000021    0.220594    0.850399    0.699635
     7    2 H     s           0.000002    0.031431    0.195694    0.264723
     8    2 H     p x         0.000026    0.323465    0.592887    0.519744
     9    2 H     p y         0.000031    0.238987   -0.438091   -0.455092
    10    2 H     p z         0.304941    0.001346    0.001832   -0.000094
    11    3 O     s          -0.000000    0.086425    0.295980   -0.000017
    12    3 O     s          -0.000011    0.160167    0.494341   -0.000045
    13    3 O     s          -0.000045   -0.438124   -1.896435   -0.000067
    14    3 O     p x        -0.000019    0.000047    0.000114    0.201945
    15    3 O     p y         0.000000    0.041688   -0.189204   -0.000026
    16    3 O     p z        -0.000006    0.001136    0.002179   -0.000134
    17    3 O     p x        -0.000090   -0.000035   -0.000006    0.976124
    18    3 O     p y        -0.000047   -0.427916   -0.830341   -0.000009
    19    3 O     p z        -0.000058   -0.002590   -0.004751    0.000283
    20    3 O     d -2       -0.000030    0.000027    0.000006    1.239490
    21    3 O     d -1       -0.000242   -0.002346   -0.001886    0.000070
    22    3 O     d  0        0.000044    0.359376    1.017779    0.000000
    23    3 O     d  1        1.020579   -0.000110   -0.000015    0.000026
    24    3 O     d  2        0.000097    0.964459   -0.418744   -0.000011
    25    4 He    s           0.000194   -0.004225   -0.014891    0.000824
    26    4 He    s          -0.000225    0.005696    0.015602   -0.000865
    27    4 He    p x         0.000204   -0.000653   -0.001730    0.001352
    28    4 He    p y         0.000082    0.006285    0.002169    0.000755
    29    4 He    p z        -0.000104   -0.010994   -0.020730    0.001545
  ---------------------------------------------------------------------------------------


  ===================================================================================


  - Beta molecular orbital energies

  --------------------------------------------------------------------------
   1     -20.695648048990  11       1.092093651832  21       2.176153209181
   2      -1.300367748267  12       1.180113398532  22       2.516827618501
   3      -0.921911256736  13       1.188316188823  23       2.518204307055
   4      -0.724043740355  14       1.425358826625  24       2.532369773884
   5      -0.644654139351  15       1.434932856623  25       3.097845698501
   6       0.054427109016  16       1.447392734599  26       3.121242083109
   7       0.165852945936  17       1.654480058253  27       3.230171728853
   8       0.223123095620  18       1.785934096435  28       3.641256751635
   9       0.682643025682  19       1.834190744767  29       3.888537932121
  10       0.746729876109  20       2.102860228294
  --------------------------------------------------------------------------


  - Beta molecular orbital coefficients

    AO    Center  l m_l           1           2           3           4           5
  ---------------------------------------------------------------------------------------
     1    1 H     s           0.000210    0.141656   -0.004526    0.256022    0.180680
     2    1 H     s           0.000385    0.006134    0.005138    0.054554    0.034582
     3    1 H     p x         0.000141   -0.030902    0.000414   -0.028552   -0.033108
     4    1 H     p y         0.000174   -0.019545    0.000113   -0.035126   -0.005413
     5    1 H     p z         0.000001    0.000032    0.000787    0.000070    0.000040
     6    2 H     s           0.000209    0.141356   -0.005876   -0.255378    0.180673
     7    2 H     s           0.000385    0.006133    0.004307   -0.054429    0.034324
     8    2 H     p x        -0.000140    0.030890   -0.000583   -0.028587    0.033132
     9    2 H     p y         0.000173   -0.019529    0.000347    0.035104   -0.005494
    10    2 H     p z         0.000001    0.000029    0.000542   -0.000070    0.000036
    11    3 O     s           1.000383   -0.001286   -0.000619    0.000002   -0.003557
    12    3 O     s          -0.000820    0.467159   -0.013017   -0.000274   -0.119003
    13    3 O     s          -0.003077    0.458632   -0.013066   -0.000473   -0.222835
    14    3 O     p x         0.000003    0.000160    0.001349    0.536449   -0.000560
    15    3 O     p y         0.000617    0.030786   -0.001798    0.000321    0.578798
    16    3 O     p z         0.000007    0.000387    0.003943   -0.000094   -0.000120
    17    3 O     p x        -0.000001    0.000088    0.000693    0.299272   -0.000420
    18    3 O     p y        -0.000481   -0.011431   -0.001512    0.000208    0.386273
    19    3 O     p z        -0.000005    0.000274    0.008132   -0.000109   -0.000062
    20    3 O     d -2        0.000000    0.000014    0.000028    0.016029    0.000019
    21    3 O     d -1        0.000000    0.000035    0.000068   -0.000002    0.000091
    22    3 O     d  0       -0.000870   -0.022148    0.001521   -0.000017   -0.002901
    23    3 O     d  1       -0.000000   -0.000006    0.000055    0.000089    0.000000
    24    3 O     d  2        0.000048    0.003866   -0.000131    0.000023   -0.005847
    25    4 He    s          -0.000023    0.007232    0.591837   -0.002351    0.001463
    26    4 He    s           0.000027    0.007136    0.512612   -0.002036   -0.001719
    27    4 He    p x        -0.000000   -0.000023   -0.000046    0.000384    0.000021
    28    4 He    p y        -0.000002   -0.000008    0.000042    0.000004    0.000513
    29    4 He    p z        -0.000001   -0.000663   -0.001067   -0.000095    0.000375
  ---------------------------------------------------------------------------------------

    AO    Center  l m_l           6           7           8           9          10
  ---------------------------------------------------------------------------------------
     1    1 H     s          -0.000303    0.114192    0.134391   -0.948055    0.866012
     2    1 H     s          -0.015686    0.760234    1.138561    0.901732   -0.633769
     3    1 H     p x         0.000843   -0.009611   -0.013261   -0.020242    0.178646
     4    1 H     p y         0.000622   -0.011114   -0.007400   -0.086854    0.029623
     5    1 H     p z         0.027170    0.000780    0.000130    0.000032   -0.000226
     6    2 H     s          -0.000589    0.112873   -0.134189    0.944802    0.870342
     7    2 H     s          -0.012936    0.753903   -1.143060   -0.898417   -0.636545
     8    2 H     p x        -0.000737    0.009706   -0.013551   -0.019605   -0.178591
     9    2 H     p y         0.000538   -0.011204    0.007560    0.086600    0.030086
    10    2 H     p z         0.027070    0.000838   -0.000003    0.000086   -0.000069
    11    3 O     s          -0.001148    0.036734   -0.000045    0.000152   -0.072561
    12    3 O     s           0.000376   -0.109129    0.000424    0.000410   -0.240007
    13    3 O     s           0.016224   -0.841136    0.002214   -0.001018    0.306013
    14    3 O     p x         0.000282   -0.001119   -0.321938    0.252572    0.000781
    15    3 O     p y         0.003015   -0.207357    0.000263    0.000636   -0.339604
    16    3 O     p z         0.501505    0.010704    0.000762    0.000438    0.001916
    17    3 O     p x         0.000680   -0.001883   -0.597660    0.228455    0.000589
    18    3 O     p y         0.006548   -0.354122    0.000767   -0.000051    0.013464
    19    3 O     p z         0.631855    0.009843    0.000493   -0.000176    0.000493
    20    3 O     d -2        0.000029    0.000019    0.000856   -0.100255   -0.000255
    21    3 O     d -1        0.007278    0.000072    0.000006    0.000004   -0.000050
    22    3 O     d  0       -0.000138    0.006927   -0.000054    0.000114   -0.066782
    23    3 O     d  1        0.000031   -0.000010   -0.000048    0.000043   -0.000022
    24    3 O     d  2        0.000048    0.001148   -0.000006   -0.000056    0.041675
    25    4 He    s          -0.045241   -0.037960   -0.001942   -0.004943    0.100015
    26    4 He    s          -0.007749   -0.043369   -0.004455   -0.001186   -0.034672
    27    4 He    p x        -0.000369   -0.000036    0.003579    0.008189    0.000312
    28    4 He    p y        -0.000223    0.001451    0.000178    0.000257   -0.004050
    29    4 He    p z        -0.008048   -0.004711   -0.000282   -0.001337    0.014075
  ---------------------------------------------------------------------------------------

    AO    Center  l m_l          11          12          13          14          15
  ---------------------------------------------------------------------------------------
     1    1 H     s           0.374168   -0.006336   -0.275218   -0.242532   -0.015050
     2    1 H     s           0.041634   -0.133533   -0.649272    0.194436    0.059808
     3    1 H     p x        -0.030770    0.048421    0.291910    0.362892    0.002478
     4    1 H     p y        -0.260092    0.015899    0.105073   -0.488278   -0.024937
     5    1 H     p z         0.000112    0.072162   -0.007766   -0.001028   -0.584711
     6    2 H     s           0.374524    0.043816    0.271085   -0.244375   -0.012057
     7    2 H     s           0.043151    0.002326    0.659451    0.195235    0.056522
     8    2 H     p x         0.031516    0.007748    0.294723   -0.363291    0.001059
     9    2 H     p y        -0.259971   -0.005938   -0.105561   -0.487386   -0.023865
    10    2 H     p z         0.000014    0.064985   -0.007455   -0.036944    0.718606
    11    3 O     s          -0.055671   -0.028464    0.002273    0.250163    0.043107
    12    3 O     s          -0.227628   -0.064514    0.005299    0.625664    0.100046
    13    3 O     s          -0.248828    0.122358   -0.009125   -0.644171   -0.152841
    14    3 O     p x        -0.000921   -0.079097   -0.797001    0.000412   -0.000517
    15    3 O     p y         0.775701   -0.022969    0.001028   -0.198755    0.004807
    16    3 O     p z        -0.005077   -0.940288    0.094793    0.030941   -0.101172
    17    3 O     p x         0.001565    0.158444    1.610120   -0.001721    0.002055
    18    3 O     p y        -1.131684    0.049279   -0.002436    0.614304   -0.014485
    19    3 O     p z         0.003979    0.783196   -0.079290   -0.022595    0.071183
    20    3 O     d -2        0.000028   -0.000125   -0.005132    0.000140   -0.000339
    21    3 O     d -1        0.000021    0.008775   -0.000972   -0.003138    0.011307
    22    3 O     d  0       -0.003708    0.000610   -0.000018    0.028377   -0.001621
    23    3 O     d  1        0.000014    0.000820   -0.000067    0.004044   -0.146339
    24    3 O     d  2        0.039775    0.003303   -0.000290    0.161619    0.004732
    25    4 He    s          -0.011411   -0.438497    0.036851   -0.094204    0.269410
    26    4 He    s           0.009784    0.408193   -0.032673    0.087554   -0.286546
    27    4 He    p x         0.000132   -0.001826   -0.001814    0.000168   -0.000545
    28    4 He    p y        -0.005372   -0.001438   -0.000456    0.008262    0.000806
    29    4 He    p z         0.001049   -0.033911    0.002320   -0.002135   -0.005664
  ---------------------------------------------------------------------------------------

    AO    Center  l m_l          16          17          18          19          20
  ---------------------------------------------------------------------------------------
     1    1 H     s           0.025540    0.038763    0.311652   -0.609031    0.060975
     2    1 H     s          -0.190507    0.086896    0.081058   -0.271332    0.363478
     3    1 H     p x         0.028103   -0.034252    0.391019    0.258869   -0.650435
     4    1 H     p y         0.039066    0.003185   -0.680132   -0.108901   -0.495827
     5    1 H     p z        -0.440800   -0.683608    0.001832   -0.043630   -0.000745
     6    2 H     s           0.014953    0.040039   -0.325138   -0.599683   -0.059534
     7    2 H     s          -0.178205    0.080258   -0.090444   -0.272668   -0.360100
     8    2 H     p x        -0.039257    0.041792    0.384744   -0.264527   -0.643544
     9    2 H     p y         0.035427    0.008422    0.678472   -0.125609    0.490567
    10    2 H     p z        -0.063864   -0.694470    0.001725   -0.046752   -0.000667
    11    3 O     s          -0.129121    0.090374   -0.009204   -0.717760   -0.000572
    12    3 O     s          -0.294978    0.202600   -0.020602   -1.604143   -0.002153
    13    3 O     s           0.480567   -0.326072    0.031375    2.406805   -0.003612
    14    3 O     p x         0.001361    0.001568    0.130572   -0.000173   -0.611377
    15    3 O     p y        -0.036436    0.031490   -0.002723   -0.209966   -0.002600
    16    3 O     p z         0.327021   -0.273451    0.001712   -0.049125   -0.001213
    17    3 O     p x        -0.005905   -0.002597   -0.837966    0.009709   -0.163903
    18    3 O     p y         0.113791   -0.119206    0.011557    0.930917   -0.000837
    19    3 O     p z        -0.212218    0.726380   -0.003235    0.090439    0.002139
    20    3 O     d -2        0.001125   -0.000444    0.030341   -0.000816    0.138420
    21    3 O     d -1       -0.043487   -0.165136    0.000530   -0.014627   -0.000376
    22    3 O     d  0        0.009083   -0.014402    0.001802    0.154152   -0.000688
    23    3 O     d  1       -0.042089    0.001215   -0.000002    0.000303   -0.000035
    24    3 O     d  2       -0.000597   -0.007632    0.000520    0.061338    0.000210
    25    4 He    s          -0.942358    0.339522   -0.006295    0.214256    0.006243
    26    4 He    s           1.002373   -0.396015    0.007825   -0.236235   -0.008947
    27    4 He    p x         0.000155   -0.002572   -0.006762   -0.002580    0.027212
    28    4 He    p y        -0.002342   -0.001001    0.000300    0.001584    0.001575
    29    4 He    p z         0.018418   -0.061150    0.003003   -0.043116   -0.005221
  ---------------------------------------------------------------------------------------

    AO    Center  l m_l          21          22          23          24          25
  ---------------------------------------------------------------------------------------
     1    1 H     s          -0.385401    0.003413    0.014982   -0.043648   -0.003699
     2    1 H     s          -0.248981   -0.012688   -0.056071    0.057642    0.007927
     3    1 H     p x         0.755836    0.006252    0.028139   -0.016019   -0.002828
     4    1 H     p y         0.489564    0.008388    0.014200   -0.019340   -0.002018
     5    1 H     p z         0.000243   -0.003509   -0.001742   -0.034536   -0.308140
     6    2 H     s          -0.385727    0.005758   -0.016997   -0.036324   -0.003119
     7    2 H     s          -0.252594   -0.016945    0.051520    0.041408    0.006151
     8    2 H     p x        -0.762115   -0.009412    0.023922    0.005344    0.002017
     9    2 H     p y         0.494256    0.008582   -0.011547   -0.017342   -0.001769
    10    2 H     p z         0.000226   -0.003523   -0.001137   -0.035236   -0.307106
    11    3 O     s          -0.058507   -0.006566   -0.002029   -0.013023   -0.000677
    12    3 O     s           0.046309   -0.013189   -0.004120   -0.033149   -0.002115
    13    3 O     s           1.247625    0.034583    0.009364    0.000611   -0.004039
    14    3 O     p x        -0.002847   -0.001464    0.014445   -0.004613   -0.000308
    15    3 O     p y         0.482885    0.011042    0.001285   -0.008864   -0.000749
    16    3 O     p z         0.000073   -0.006226   -0.002635   -0.071050   -0.047604
    17    3 O     p x        -0.000761    0.001244    0.013795    0.002530    0.000044
    18    3 O     p y         0.379122   -0.006487    0.001467    0.011060   -0.001357
    19    3 O     p z        -0.000397    0.010651    0.004484    0.119784    0.229939
    20    3 O     d -2        0.000781   -0.000680   -0.002603   -0.001167   -0.000189
    21    3 O     d -1        0.000227   -0.004495   -0.001980   -0.051225    1.009315
    22    3 O     d  0        0.217140   -0.000289    0.001958    0.027131    0.004245
    23    3 O     d  1       -0.000002   -0.000048   -0.000183    0.000131    0.002362
    24    3 O     d  2       -0.041319   -0.005478   -0.000612    0.003110    0.001366
    25    4 He    s           0.011030    0.000279    0.000379    0.037710    0.028729
    26    4 He    s          -0.001741    0.000238   -0.000201   -0.051293   -0.042988
    27    4 He    p x        -0.001802   -0.086156    0.995948    0.012841    0.001950
    28    4 He    p y        -0.010448    0.993406    0.086846   -0.073743    0.000723
    29    4 He    p z         0.001308    0.074174   -0.006683    0.993540    0.044651
  ---------------------------------------------------------------------------------------

    AO    Center  l m_l          26          27          28          29
  ---------------------------------------------------------------------------------------
     1    1 H     s          -0.000071    0.127021    0.834288   -0.699323
     2    1 H     s          -0.000013    0.008340    0.186930   -0.261664
     3    1 H     p x         0.000088   -0.253536   -0.586788    0.518110
     4    1 H     p y         0.000021    0.286794   -0.399813    0.454360
     5    1 H     p z        -0.292168    0.000934    0.001706   -0.000075
     6    2 H     s           0.000022    0.126913    0.833810    0.699518
     7    2 H     s           0.000032    0.008513    0.187369    0.262035
     8    2 H     p x         0.000038    0.253686    0.586848    0.518499
     9    2 H     p y        -0.000061    0.286915   -0.399748   -0.454667
    10    2 H     p z         0.293664    0.000984    0.001765   -0.000130
    11    3 O     s          -0.000007    0.052567    0.299065    0.000030
    12    3 O     s          -0.000009    0.104971    0.518454    0.000015
    13    3 O     s           0.000033   -0.220088   -1.850224   -0.000451
    14    3 O     p x        -0.000076   -0.000008    0.000086    0.210677
    15    3 O     p y        -0.000002    0.051884   -0.179630   -0.000100
    16    3 O     p z         0.000042    0.000711    0.002047   -0.000136
    17    3 O     p x         0.000078   -0.000045   -0.000227    0.970173
    18    3 O     p y         0.000033   -0.326942   -0.826945   -0.000176
    19    3 O     p z        -0.000496   -0.001683   -0.004489    0.000285
    20    3 O     d -2        0.000147    0.000019   -0.000263    1.239317
    21    3 O     d -1       -0.002286   -0.001839   -0.001953    0.000101
    22    3 O     d  0       -0.000022    0.269433    1.058186    0.000226
    23    3 O     d  1        1.023421    0.000065   -0.000008   -0.000117
    24    3 O     d  2       -0.000068    0.998625   -0.328206   -0.000073
    25    4 He    s           0.000159   -0.002022   -0.014056    0.000815
    26    4 He    s          -0.000174    0.003294    0.014852   -0.000862
    27    4 He    p x         0.000107   -0.000345   -0.001577    0.001287
    28    4 He    p y         0.000060    0.005454    0.002274    0.000736
    29    4 He    p z        -0.000159   -0.007025   -0.019176    0.001511
  ---------------------------------------------------------------------------------------
