


                     eT 1.6 - an electronic structure program

  ------------------------------------------------------------------------
   Author list in alphabetical order:
  ------------------------------------------------------------------------
   J. H. Andersen, A. Balbi, S. Coriani, S. D. Folkestad, T. Giovannini, 
   L. Goletto, T. S. Haugland, A. Hutcheson, I-M. Høyvik, E. F. Kjønstad, 
   H. Koch, R. Matveeva, T. Moitra, R. H. Myhre, A. C. Paul, S. Roet, 
   M. Scavino, A. K. Schnack-Petersen, A. S. Skeidsvoll, Å. H. Tveten
  ------------------------------------------------------------------------
   J. Chem. Phys. 152, 184103 (2020); https://doi.org/10.1063/5.0004713


   This is eT 1.6.0 Galaxy
  ------------------------------------------------------------
  Configuration date: 2022-02-01 15:59:21 UTC +01:00
  Git branch:         release-v1.6.0
  Git hash:           2abe95f42f8b4eabde880c038dd204ec81d587da
  Fortran compiler:   GNU 10.3.0
  C compiler:         GNU 10.3.0
  C++ compiler:       GNU 10.3.0
  LAPACK type:        SYSTEM_NATIVE
  BLAS type:          SYSTEM_NATIVE
  64-bit integers:    OFF
  OpenMP:             ON
  PCM:                OFF
  Forced batching:    OFF
  Runtime checks:     OFF
  ------------------------------------------------------------

  Calculation started: 2022-02-01 16:07:44 UTC +01:00


  :: Input file
  ================

     Note: geometry section is excluded from this print

     system
        name: HOF He
        charge: 0
     end system

     do
        excited state
     end do

     memory
        available: 8
     end memory

     method
        hf
        ccs
     end method

     frozen orbitals
        core
     end frozen orbitals

     solver scf
        energy threshold:   1.0d-11
        gradient threshold: 1.0d-11
     end solver scf

     solver cholesky
        threshold: 1.0d-11
     end solver cholesky

     solver cc gs
        energy threshold: 1.0d-11
        omega threshold:  1.0d-11
     end solver cc gs

     solver cc es
        singlet states: 2
        residual threshold: 1.0d-11
        right eigenvectors
     end solver cc es


  Running on 2 OMP threads
  Memory available for calculation: 8.000000 GB


  :: RHF wavefunction
  ======================

     ==============================================================================
                                     Geometry (angstrom)
     ==============================================================================
        Atom           X                  Y                  Z         # in input
     ==============================================================================
        Basis: cc-pvdz
        1  H     0.866810000000     0.601440000000     5.000000000000        1
        2  F    -0.866810000000     0.601440000000     5.000000000000        2
        3  O     0.000000000000    -0.075790000000     5.000000000000        3
        4 He     0.000000000000     0.000000000000     7.500000000000        4
     ==============================================================================

     ==============================================================================
                                     Geometry (a.u.)
     ==============================================================================
        Atom           X                  Y                  Z         # in input
     ==============================================================================
        Basis: cc-pvdz
        1  H     1.638033502034     1.136556880358     9.448630622825        1
        2  F    -1.638033502034     1.136556880358     9.448630622825        2
        3  O     0.000000000000    -0.143222342981     9.448630622825        3
        4 He     0.000000000000     0.000000000000    14.172945934238        4
     ==============================================================================

  - Cholesky decomposition of AO overlap to get linearly independent AOs:

     Linear dependence threshold:             0.10E-05
     Number of atomic orbitals:               38
     Number of orthonormal atomic orbitals:   38

  - Molecular orbital details:

     Number of occupied orbitals:        10
     Number of virtual orbitals:         28
     Number of molecular orbitals:       38


  :: Hartree-Fock engine
  =========================

  Drives the calculation of the Hartree-Fock state.

  This is a RHF ground state calculation.
  The following tasks will be performed:

     1) Generate initial SAD density
     2) Calculation of reference state (SCF-DIIS algorithm)


  1) Generate initial SAD density


  2) Calculation of reference state (SCF-DIIS algorithm)

  - Setting initial AO density to sad

     Energy of initial guess:              -178.316362504257
     Number of electrons in guess:           20.000000000000

  - Screening and integral thresholds:

     Coulomb screening threshold:    0.1000E-16
     Exchange screening threshold:   0.1000E-14
     ERI cutoff:                     0.1000E-16
     One-electron integral  cutoff:  0.1000E-21
     Cumulative Fock threshold:      0.1000E+01

  - SCF solver settings:

     Maximum iterations:                   100
     Acceleration type:                   diis

  - Convergence thresholds

     Residual threshold:            0.1000E-10
     Energy threshold:              0.1000E-10

  - DIIS tool settings:

     DIIS dimension:   8

     Storage (solver scf_errors): memory
     Storage (solver scf_parameters): memory

  Iteration       Energy (a.u.)      Max(grad.)    Delta E (a.u.)
  ---------------------------------------------------------------
     1          -177.452442672057     0.7565E-01     0.1775E+03
     2          -177.479038695767     0.1129E-01     0.2660E-01
     3          -177.480033265333     0.4145E-02     0.9946E-03
     4          -177.480160935731     0.1388E-02     0.1277E-03
     5          -177.480174929178     0.4311E-03     0.1399E-04
     6          -177.480176282849     0.8270E-04     0.1354E-05
     7          -177.480176366015     0.2291E-04     0.8317E-07
     8          -177.480176376348     0.4810E-05     0.1033E-07
     9          -177.480176377178     0.1046E-05     0.8308E-09
    10          -177.480176377209     0.2394E-06     0.3092E-10
    11          -177.480176377210     0.5253E-07     0.8242E-12
    12          -177.480176377210     0.9777E-08     0.2558E-12
    13          -177.480176377210     0.2792E-08     0.0000E+00
    14          -177.480176377210     0.1441E-08     0.8527E-13
    15          -177.480176377210     0.6293E-09     0.1137E-12
    16          -177.480176377210     0.1436E-09     0.3126E-12
    17          -177.480176377210     0.4658E-10     0.2274E-12
    18          -177.480176377210     0.7429E-11     0.1705E-12
  ---------------------------------------------------------------
  Convergence criterion met in 18 iterations!

  - Summary of RHF wavefunction energetics (a.u.):

     HOMO-LUMO gap:                  0.600136348385
     Nuclear repulsion energy:      48.518317619727
     Electronic energy:           -225.998493996937
     Total energy:                -177.480176377210

  - Timings for the RHF ground state calculation

     Total wall time (sec):              3.85500
     Total cpu time (sec):               5.74971

  - Preparation for frozen core approximation

     There are 2 frozen core orbitals.


  :: CCS wavefunction
  ======================

     Bath orbital(s):         False

   - Number of orbitals:

     Occupied orbitals:    8
     Virtual orbitals:     28
     Molecular orbitals:   36
     Atomic orbitals:      38

   - Number of ground state amplitudes:

     Single excitation amplitudes:  224


  :: Excited state coupled cluster engine
  ==========================================

  Calculates the coupled cluster excitation vectors and excitation energies

  This is a CCS excited state calculation.
  The following tasks will be performed:

     1) Cholesky decomposition of the electron repulsion integrals
     2) Preparation of MO basis and integrals
     3) Calculation of the ground state (diis algorithm)
     4) Calculation of the excited state (davidson algorithm)


  1) Cholesky decomposition of the electron repulsion integrals

   - Cholesky decomposition of electronic repulsion integrals solver
  ---------------------------------------------------------------------

  Performs a Cholesky decomposition of the two-electron electronic repulsion 
  integrals in the atomic orbital basis,

  (ab|cd) = sum_J L_ab^J L_cd^J.

  Once the Cholesky basis has been determined, the vectors L^J are constructed 
  and stored to disk. These may either be used directly, or be transformed 
  to the MO basis for use in post-HF calculations. For more information, 
  see S. D. Folkestad, E. F. Kjønstad and H. Koch, JCP, 150(19), (2019)

  - Cholesky decomposition settings:

     Target threshold is:   0.10E-10
     Span factor:           0.10E-01
     Max qual:                  1000

  - Cholesky decomposition ao details:

     Total number of AOs:                    38
     Total number of shell pairs:           171
     Total number of AO pairs:              741

     Significant shell pairs:               161
     Significant AO pairs:                  697

     Construct shell pairs:                 171
     Construct AO pairs:                    741

  Iter.  #Sign. ao pairs / shell pairs   Max diagonal    #Qualified    #Cholesky    Cholesky array size
  -------------------------------------------------------------------------------------------------------
     1               671 /     150       0.53537E+01         194             49             32879
     2               524 /     128       0.52717E-01         398            155             81220
     3               484 /     114       0.52418E-03         303            243            117612
     4               362 /      92       0.51440E-05         311            363            131406
     5               218 /      52       0.49587E-07         221            476            103768
     6                 0 /       0       0.48539E-09         121            550                 0
  -------------------------------------------------------------------------------------------------------

  - Summary of Cholesky decomposition of electronic repulsion integrals:

     Final number of Cholesky vectors: 550

 - Testing the Cholesky decomposition decomposition electronic repulsion integrals:

     Maximal difference between approximate and actual diagonal:              0.9691E-11
     Minimal element of difference between approximate and actual diagonal:  -0.1084E-14

  - Settings for integral handling:

     Cholesky vectors in memory: True
     ERI matrix in memory:       False

  - Finished decomposing the ERIs.

     Total wall time (sec):              1.60200
     Total cpu time (sec):               2.40733


  2) Preparation of MO basis and integrals


  3) Calculation of the ground state (diis algorithm)

   - DIIS coupled cluster ground state solver
  ----------------------------------------------

  A DIIS CC ground state amplitude equations solver. It uses an extrapolation 
  of previous quasi-Newton perturbation theory estimates of the next amplitudes. 
  See Helgaker et al., Molecular Electronic Structure Theory, Chapter 
  13.

  - CC ground state solver settings:

  - Convergence thresholds

     Residual threshold:            0.1000E-10
     Energy threshold:              0.1000E-10
     Max number of iterations:      100

  - DIIS tool settings:

     DIIS dimension:   8

     Storage (cc_gs_diis_errors): file
     Storage (cc_gs_diis_parameters): file

  Iteration    Energy (a.u.)        |omega|       Delta E (a.u.)
  ---------------------------------------------------------------
    1          -177.480176377210     0.2696E-10     0.1775E+03
    2          -177.480176377210     0.9441E-11     0.0000E+00
  ---------------------------------------------------------------
  Convergence criterion met in 2 iterations!

  - Ground state summary:

     Final ground state energy (a.u.):  -177.480176377210

     Correlation energy (a.u.):            0.000000000000

     Largest single amplitudes:
     -----------------------------------
        a       i         t(a,i)
     -----------------------------------
        1      8       -0.000000000010
        2      7       -0.000000000008
        1      6       -0.000000000008
        4      8        0.000000000005
        5      7        0.000000000004
        2      8        0.000000000003
        1      4       -0.000000000003
        2      2       -0.000000000003
        3      8       -0.000000000003
        5      8       -0.000000000003
     ------------------------------------

  - Finished solving the CCS ground state equations

     Total wall time (sec):              0.02200
     Total cpu time (sec):               0.02715


  4) Calculation of the excited state (davidson algorithm)
     Calculating right vectors

   - Davidson coupled cluster excited state solver
  ---------------------------------------------------

  A Davidson solver that calculates the lowest eigenvalues and the right 
  or left eigenvectors of the Jacobian matrix, A. The eigenvalue problem 
  is solved in a reduced space, the dimension of which is expanded until 
  the convergence criteria are met.

  A complete description of the algorithm can be found in E. R. Davidson, 
  J. Comput. Phys. 17, 87 (1975).

  - Settings for coupled cluster excited state solver (Davidson):

     Calculation type:    valence
     Excitation vectors:  right

  - Convergence thresholds

     Residual threshold:            0.1000E-10

     Number of singlet states:               2
     Max number of iterations:             100

   - Davidson tool settings:

     Number of parameters:                  224
     Number of requested solutions:           2
     Max reduced space dimension:           100

     Storage (cc_es_davidson_trials): file
     Storage (cc_es_davidson_transforms): file

  Iteration:                  1
  Reduced space dimension:    2

   Root  Eigenvalue (Re)   Eigenvalue (Im)    |residual|   Delta E (Re)
  ------------------------------------------------------------------------
     1   0.277245263862    0.000000000000     0.1342E+00   0.2772E+00
     2   0.381941971988    0.000000000000     0.1523E+00   0.3819E+00
  ------------------------------------------------------------------------

  Iteration:                  2
  Reduced space dimension:    4

   Root  Eigenvalue (Re)   Eigenvalue (Im)    |residual|   Delta E (Re)
  ------------------------------------------------------------------------
     1   0.250083446784    0.000000000000     0.3053E-01   0.2716E-01
     2   0.365850787206    0.000000000000     0.3912E-01   0.1609E-01
  ------------------------------------------------------------------------

  Iteration:                  3
  Reduced space dimension:    6

   Root  Eigenvalue (Re)   Eigenvalue (Im)    |residual|   Delta E (Re)
  ------------------------------------------------------------------------
     1   0.249341860333    0.000000000000     0.6624E-02   0.7416E-03
     2   0.364122586135    0.000000000000     0.9756E-02   0.1728E-02
  ------------------------------------------------------------------------

  Iteration:                  4
  Reduced space dimension:    8

   Root  Eigenvalue (Re)   Eigenvalue (Im)    |residual|   Delta E (Re)
  ------------------------------------------------------------------------
     1   0.249285832572    0.000000000000     0.3758E-02   0.5603E-04
     2   0.364015606041    0.000000000000     0.2817E-02   0.1070E-03
  ------------------------------------------------------------------------

  Iteration:                  5
  Reduced space dimension:   10

   Root  Eigenvalue (Re)   Eigenvalue (Im)    |residual|   Delta E (Re)
  ------------------------------------------------------------------------
     1   0.249275559363    0.000000000000     0.6232E-03   0.1027E-04
     2   0.364009457397    0.000000000000     0.8639E-03   0.6149E-05
  ------------------------------------------------------------------------

  Iteration:                  6
  Reduced space dimension:   12

   Root  Eigenvalue (Re)   Eigenvalue (Im)    |residual|   Delta E (Re)
  ------------------------------------------------------------------------
     1   0.249275310377    0.000000000000     0.1027E-03   0.2490E-06
     2   0.364008833123    0.000000000000     0.2242E-03   0.6243E-06
  ------------------------------------------------------------------------

  Iteration:                  7
  Reduced space dimension:   14

   Root  Eigenvalue (Re)   Eigenvalue (Im)    |residual|   Delta E (Re)
  ------------------------------------------------------------------------
     1   0.249275305180    0.000000000000     0.1472E-04   0.5197E-08
     2   0.364008791838    0.000000000000     0.7826E-04   0.4129E-07
  ------------------------------------------------------------------------

  Iteration:                  8
  Reduced space dimension:   16

   Root  Eigenvalue (Re)   Eigenvalue (Im)    |residual|   Delta E (Re)
  ------------------------------------------------------------------------
     1   0.249275305066    0.000000000000     0.2121E-05   0.1139E-09
     2   0.364008785524    0.000000000000     0.2858E-04   0.6314E-08
  ------------------------------------------------------------------------

  Iteration:                  9
  Reduced space dimension:   18

   Root  Eigenvalue (Re)   Eigenvalue (Im)    |residual|   Delta E (Re)
  ------------------------------------------------------------------------
     1   0.249275305064    0.000000000000     0.3153E-06   0.2463E-11
     2   0.364008784887    0.000000000000     0.6943E-05   0.6369E-09
  ------------------------------------------------------------------------

  Iteration:                 10
  Reduced space dimension:   20

   Root  Eigenvalue (Re)   Eigenvalue (Im)    |residual|   Delta E (Re)
  ------------------------------------------------------------------------
     1   0.249275305064    0.000000000000     0.5667E-07   0.6969E-13
     2   0.364008784856    0.000000000000     0.1067E-05   0.3119E-10
  ------------------------------------------------------------------------

  Iteration:                 11
  Reduced space dimension:   22

   Root  Eigenvalue (Re)   Eigenvalue (Im)    |residual|   Delta E (Re)
  ------------------------------------------------------------------------
     1   0.249275305064    0.000000000000     0.9658E-08   0.1221E-14
     2   0.364008784855    0.000000000000     0.2036E-06   0.8315E-12
  ------------------------------------------------------------------------

  Iteration:                 12
  Reduced space dimension:   24

   Root  Eigenvalue (Re)   Eigenvalue (Im)    |residual|   Delta E (Re)
  ------------------------------------------------------------------------
     1   0.249275305064    0.000000000000     0.1192E-08   0.1166E-14
     2   0.364008784855    0.000000000000     0.3170E-07   0.2420E-13
  ------------------------------------------------------------------------

  Iteration:                 13
  Reduced space dimension:   26

   Root  Eigenvalue (Re)   Eigenvalue (Im)    |residual|   Delta E (Re)
  ------------------------------------------------------------------------
     1   0.249275305064    0.000000000000     0.1717E-09   0.1665E-14
     2   0.364008784855    0.000000000000     0.4884E-08   0.8327E-15
  ------------------------------------------------------------------------

  Iteration:                 14
  Reduced space dimension:   28

   Root  Eigenvalue (Re)   Eigenvalue (Im)    |residual|   Delta E (Re)
  ------------------------------------------------------------------------
     1   0.249275305064    0.000000000000     0.1748E-10   0.4718E-15
     2   0.364008784855    0.000000000000     0.7161E-09   0.4996E-15
  ------------------------------------------------------------------------

  Iteration:                 15
  Reduced space dimension:   30

   Root  Eigenvalue (Re)   Eigenvalue (Im)    |residual|   Delta E (Re)
  ------------------------------------------------------------------------
     1   0.249275305064    0.000000000000     0.1944E-11   0.1582E-14
     2   0.364008784855    0.000000000000     0.1435E-09   0.3331E-15
  ------------------------------------------------------------------------

  Iteration:                 16
  Reduced space dimension:   31

   Root  Eigenvalue (Re)   Eigenvalue (Im)    |residual|   Delta E (Re)
  ------------------------------------------------------------------------
     1   0.249275305064    0.000000000000     0.1202E-11   0.1665E-14
     2   0.364008784855    0.000000000000     0.2545E-10   0.1388E-14
  ------------------------------------------------------------------------

  Iteration:                 17
  Reduced space dimension:   32

   Root  Eigenvalue (Re)   Eigenvalue (Im)    |residual|   Delta E (Re)
  ------------------------------------------------------------------------
     1   0.249275305064    0.000000000000     0.1190E-11   0.4441E-15
     2   0.364008784855    0.000000000000     0.3584E-11   0.1388E-14
  ------------------------------------------------------------------------
  Convergence criterion met in 17 iterations!

  - Excitation vector amplitudes:

     Electronic state nr. 1

     Energy (Hartree):                  0.249275305064
     Fraction singles (|R1|/|R|):       1.000000000000

     Largest single amplitudes:
     -----------------------------------
        a       i         R(a,i)
     -----------------------------------
        1      8       -0.973161049387
        3      8       -0.168360951107
        1      5       -0.104191383191
        2      8       -0.067083693939
        3      5       -0.041662579700
        6      8        0.038173525778
       13      8        0.034129782880
       12      8        0.029064342320
        2      5       -0.026080904494
       14      8       -0.025797380778
     ------------------------------------

     Electronic state nr. 2

     Energy (Hartree):                  0.364008784855
     Fraction singles (|R1|/|R|):       1.000000000000

     Largest single amplitudes:
     -----------------------------------
        a       i         R(a,i)
     -----------------------------------
        1      7        0.988753435905
        1      6       -0.082837189230
        3      7        0.058534756706
        4      8       -0.055470705565
        5      6        0.037027936214
       13      7       -0.029326809802
        4      5       -0.028791301314
        3      6       -0.028248070431
        9      7        0.023169932300
       12      7       -0.022705598877
     ------------------------------------

     - Electronic excitation energies:

                                      Excitation energy
                          ------------------------------------------
      State                (Hartree)             (eV)
     ---------------------------------------------------------------
        1                  0.249275305064        6.783126551346
        2                  0.364008784855        9.905183559365
     ---------------------------------------------------------------
     eV/Hartree (CODATA 2014): 27.21138602

  - Finished solving the CCS excited state equations (right)

     Total wall time (sec):              0.21300
     Total cpu time (sec):               0.22996

  - Timings for the CCS excited state calculation

     Total wall time (sec):              1.84100
     Total cpu time (sec):               2.67174

  ------------------------------------------------------------

  Peak memory usage during the execution of eT: 25.503288 MB

  Total wall time in eT (sec):              5.94600
  Total cpu time in eT (sec):               8.73909

  Calculation ended: 2022-02-01 16:07:50 UTC +01:00

  - Implementation references:

     eT: https://doi.org/10.1063/5.0004713
     Cholesky decomposition of ERIs: https://doi.org/10.1063/1.5083802

  eT terminated successfully!
