


                     eT 1.6 - an electronic structure program

  ------------------------------------------------------------------------
   Author list in alphabetical order:
  ------------------------------------------------------------------------
   J. H. Andersen, A. Balbi, S. Coriani, S. D. Folkestad, T. Giovannini, 
   L. Goletto, T. S. Haugland, A. Hutcheson, I-M. Høyvik, E. F. Kjønstad, 
   H. Koch, R. Matveeva, T. Moitra, R. H. Myhre, A. C. Paul, S. Roet, 
   M. Scavino, A. K. Schnack-Petersen, A. S. Skeidsvoll, Å. H. Tveten
  ------------------------------------------------------------------------
   J. Chem. Phys. 152, 184103 (2020); https://doi.org/10.1063/5.0004713


   This is eT 1.6.0 Galaxy
  ------------------------------------------------------------
  Configuration date: 2022-02-01 15:59:21 UTC +01:00
  Git branch:         release-v1.6.0
  Git hash:           2abe95f42f8b4eabde880c038dd204ec81d587da
  Fortran compiler:   GNU 10.3.0
  C compiler:         GNU 10.3.0
  C++ compiler:       GNU 10.3.0
  LAPACK type:        SYSTEM_NATIVE
  BLAS type:          SYSTEM_NATIVE
  64-bit integers:    OFF
  OpenMP:             ON
  PCM:                OFF
  Forced batching:    OFF
  Runtime checks:     OFF
  ------------------------------------------------------------

  Calculation started: 2022-02-01 16:05:17 UTC +01:00


  :: Input file
  ================

     Note: geometry section is excluded from this print

     system
       name: HOF He
     end system

     do
       response
     end do

     cc response
       eom
       dipole length
       transition moments
     end cc response

     solver cholesky
       threshold: 1.0d-11
     end solver cholesky

     solver scf
       crop
       diis dimension: 3
       gradient threshold: 1.0d-10
     end solver scf

     solver cc multipliers
       crop
       algorithm:      diis
       diis dimension: 5
       threshold:      1.0d-9
     end solver cc multipliers

     solver cc gs
       crop
       diis dimension:   3
       omega threshold:  1.0d-9
     end solver cc gs

     solver cc es
       crop
       algorithm:          diis
       residual threshold: 1.0d-9
       singlet states:     2
     end solver cc es

     method
       hf
       ccsd
     end method


  Running on 2 OMP threads
  Memory available for calculation: 8.000000 GB


  :: RHF wavefunction
  ======================

     ==============================================================================
                                     Geometry (angstrom)
     ==============================================================================
        Atom           X                  Y                  Z         # in input
     ==============================================================================
        Basis: cc-pvdz
        1  H     0.866810000000     0.601440000000     5.000000000000        1
        2  F    -0.866810000000     0.601440000000     5.000000000000        2
        3  O     0.000000000000    -0.075790000000     5.000000000000        3
        4 He     0.100000000000     0.100000000000     7.500000000000        4
     ==============================================================================

     ==============================================================================
                                     Geometry (a.u.)
     ==============================================================================
        Atom           X                  Y                  Z         # in input
     ==============================================================================
        Basis: cc-pvdz
        1  H     1.638033502034     1.136556880358     9.448630622825        1
        2  F    -1.638033502034     1.136556880358     9.448630622825        2
        3  O     0.000000000000    -0.143222342981     9.448630622825        3
        4 He     0.188972612457     0.188972612457    14.172945934238        4
     ==============================================================================

  - Cholesky decomposition of AO overlap to get linearly independent AOs:

     Linear dependence threshold:             0.10E-05
     Number of atomic orbitals:               38
     Number of orthonormal atomic orbitals:   38

  - Molecular orbital details:

     Number of occupied orbitals:        10
     Number of virtual orbitals:         28
     Number of molecular orbitals:       38


  :: Hartree-Fock engine
  =========================

  Drives the calculation of the Hartree-Fock state.

  This is a RHF ground state calculation.
  The following tasks will be performed:

     1) Generate initial SAD density
     2) Calculation of reference state (SCF-DIIS algorithm)


  1) Generate initial SAD density


  2) Calculation of reference state (SCF-DIIS algorithm)

  - Setting initial AO density to sad

     Energy of initial guess:              -178.316435989366
     Number of electrons in guess:           20.000000000000

  - Screening and integral thresholds:

     Coulomb screening threshold:    0.1000E-15
     Exchange screening threshold:   0.1000E-13
     ERI cutoff:                     0.1000E-15
     One-electron integral  cutoff:  0.1000E-20
     Cumulative Fock threshold:      0.1000E+01

  - SCF solver settings:

     Maximum iterations:                   100
     Acceleration type:                   diis

  - Convergence thresholds

     Residual threshold:            0.1000E-09

  - DIIS tool settings:

     DIIS dimension:   3

     Enabled CROP in the DIIS algorithm.

     Storage (solver scf_errors): memory
     Storage (solver scf_parameters): memory

  Iteration       Energy (a.u.)      Max(grad.)    Delta E (a.u.)
  ---------------------------------------------------------------
     1          -177.452460025509     0.7565E-01     0.1775E+03
     2          -177.479057956534     0.1129E-01     0.2660E-01
     3          -177.480052448592     0.4142E-02     0.9945E-03
     4          -177.480180104062     0.1387E-02     0.1277E-03
     5          -177.480194099926     0.4317E-03     0.1400E-04
     6          -177.480195433217     0.7552E-04     0.1333E-05
     7          -177.480195516154     0.2127E-04     0.8294E-07
     8          -177.480195526844     0.4990E-05     0.1069E-07
     9          -177.480195527826     0.1544E-05     0.9820E-09
    10          -177.480195527872     0.5606E-06     0.4644E-10
    11          -177.480195527875     0.1718E-06     0.2899E-11
    12          -177.480195527875     0.2537E-07     0.1705E-12
    13          -177.480195527875     0.9499E-08     0.5684E-13
    14          -177.480195527875     0.3900E-08     0.0000E+00
    15          -177.480195527875     0.1805E-08     0.1137E-12
    16          -177.480195527875     0.4213E-09     0.1137E-12
    17          -177.480195527875     0.9108E-10     0.1705E-12
  ---------------------------------------------------------------
  Convergence criterion met in 17 iterations!

  - Summary of RHF wavefunction energetics (a.u.):

     HOMO-LUMO gap:                  0.600390988006
     Nuclear repulsion energy:      48.499011140892
     Electronic energy:           -225.979206668767
     Total energy:                -177.480195527875

  - Timings for the RHF ground state calculation

     Total wall time (sec):              3.56000
     Total cpu time (sec):               5.83092


  :: CCSD wavefunction
  =======================

     Bath orbital(s):         False

   - Number of orbitals:

     Occupied orbitals:    10
     Virtual orbitals:     28
     Molecular orbitals:   38
     Atomic orbitals:      38

   - Number of ground state amplitudes:

     Single excitation amplitudes:  280
     Double excitation amplitudes:  39340


  :: Coupled cluster response engine
  =====================================

  Calculates dipole transition moments and oscillator strengths between 

  the ground state and the excited states.

  This is a CCSD response calculation.
  The following tasks will be performed:

     1) Cholesky decomposition of the electron repulsion integrals
     2) Preparation of MO basis and integrals
     3) Calculation of the ground state (diis algorithm)
     4) Calculation of the multipliers (diis algorithm)
     5) Calculation of the excited states (diis algorithm)
     6) Calculation of excited state properties (EOM)


  1) Cholesky decomposition of the electron repulsion integrals

   - Cholesky decomposition of electronic repulsion integrals solver
  ---------------------------------------------------------------------

  Performs a Cholesky decomposition of the two-electron electronic repulsion 
  integrals in the atomic orbital basis,

  (ab|cd) = sum_J L_ab^J L_cd^J.

  Once the Cholesky basis has been determined, the vectors L^J are constructed 
  and stored to disk. These may either be used directly, or be transformed 
  to the MO basis for use in post-HF calculations. For more information, 
  see S. D. Folkestad, E. F. Kjønstad and H. Koch, JCP, 150(19), (2019)

  - Cholesky decomposition settings:

     Target threshold is:   0.10E-10
     Span factor:           0.10E-01
     Max qual:                  1000

  - Cholesky decomposition ao details:

     Total number of AOs:                    38
     Total number of shell pairs:           171
     Total number of AO pairs:              741

     Significant shell pairs:               161
     Significant AO pairs:                  697

     Construct shell pairs:                 171
     Construct AO pairs:                    741

  Iter.  #Sign. ao pairs / shell pairs   Max diagonal    #Qualified    #Cholesky    Cholesky array size
  -------------------------------------------------------------------------------------------------------
     1               671 /     150       0.53537E+01         194             49             32879
     2               524 /     128       0.52718E-01         398            155             81220
     3               484 /     114       0.52421E-03         303            243            117612
     4               362 /      92       0.51415E-05         311            362            131044
     5               232 /      54       0.50229E-07         225            475            110200
     6                 0 /       0       0.50128E-09         127            550                 0
  -------------------------------------------------------------------------------------------------------

  - Summary of Cholesky decomposition of electronic repulsion integrals:

     Final number of Cholesky vectors: 550

 - Testing the Cholesky decomposition decomposition electronic repulsion integrals:

     Maximal difference between approximate and actual diagonal:              0.9471E-11
     Minimal element of difference between approximate and actual diagonal:  -0.1128E-14

  - Settings for integral handling:

     Cholesky vectors in memory: True
     ERI matrix in memory:       True

  - Finished decomposing the ERIs.

     Total wall time (sec):              1.77600
     Total cpu time (sec):               2.60930


  2) Preparation of MO basis and integrals


  3) Calculation of the ground state (diis algorithm)

   - DIIS coupled cluster ground state solver
  ----------------------------------------------

  A DIIS CC ground state amplitude equations solver. It uses an extrapolation 
  of previous quasi-Newton perturbation theory estimates of the next amplitudes. 
  See Helgaker et al., Molecular Electronic Structure Theory, Chapter 
  13.

  - CC ground state solver settings:

  - Convergence thresholds

     Residual threshold:            0.1000E-08
     Max number of iterations:      100

  - DIIS tool settings:

     DIIS dimension:   3

     Enabled CROP in the DIIS algorithm.

     Storage (cc_gs_diis_errors): file
     Storage (cc_gs_diis_parameters): file

  Iteration    Energy (a.u.)        |omega|       Delta E (a.u.)
  ---------------------------------------------------------------
    1          -177.877001409673     0.1168E+00     0.1779E+03
    2          -177.886677470622     0.3120E-01     0.9676E-02
    3          -177.894835530802     0.8696E-02     0.8158E-02
    4          -177.896138458909     0.2772E-02     0.1303E-02
    5          -177.895894970644     0.9274E-03     0.2435E-03
    6          -177.895939855361     0.4302E-03     0.4488E-04
    7          -177.895997325385     0.1161E-03     0.5747E-04
    8          -177.895984484102     0.3848E-04     0.1284E-04
    9          -177.895979932644     0.8992E-05     0.4551E-05
   10          -177.895979980442     0.3978E-05     0.4780E-07
   11          -177.895980286898     0.1651E-05     0.3065E-06
   12          -177.895980347033     0.7421E-06     0.6013E-07
   13          -177.895980314333     0.3275E-06     0.3270E-07
   14          -177.895980295315     0.1161E-06     0.1902E-07
   15          -177.895980297775     0.4719E-07     0.2459E-08
   16          -177.895980298476     0.1501E-07     0.7010E-09
   17          -177.895980298862     0.4663E-08     0.3862E-09
   18          -177.895980298688     0.1417E-08     0.1737E-09
   19          -177.895980298595     0.4066E-09     0.9317E-10
  ---------------------------------------------------------------
  Convergence criterion met in 19 iterations!

  - Ground state summary:

     Final ground state energy (a.u.):  -177.895980298595

     Correlation energy (a.u.):           -0.415784770720

     Largest single amplitudes:
     -----------------------------------
        a       i         t(a,i)
     -----------------------------------
        1      9        0.020651636246
        3      9        0.009706732895
        4      7        0.006068718397
       14      9       -0.005941010459
        5      6        0.004942153772
       14      6       -0.004895171197
        4     10        0.004671533390
       10      7        0.004165868962
        6      9        0.004156331822
       22      8       -0.004124452256
     ------------------------------------

     Largest double amplitudes:
     --------------------------------------------------
        a      i       b      j         t(ai,bj)
     --------------------------------------------------
        1      9       1      9       -0.041651517441
        3      9       3      9       -0.038277257660
        1      9       3      9       -0.032355810253
        4     10       4     10       -0.031405794819
       16      5      16      5       -0.031169179221
       17      5      17      5       -0.031146442900
        2      8       2      8       -0.030330489564
        8      5       8      5       -0.027874803974
        1      6       1      9       -0.024542890147
        3      6       3      9       -0.021838950666
     --------------------------------------------------

  - Finished solving the CCSD ground state equations

     Total wall time (sec):              1.68700
     Total cpu time (sec):               3.36837


  4) Calculation of the multipliers (diis algorithm)

   - DIIS coupled cluster multipliers solver
  ---------------------------------------------

  A DIIS CC multiplier equations solver. It combines a quasi-Newton perturbation 
  theory estimate of the next multipliers, using least square fitting 
  to find an an optimal combination of previous estimates such that the 
  update is minimized.

  See Helgaker et al., Molecular Electronic Structure Theory, Chapter 
  13, for the more details on this algorithm.

  - DIIS CC multipliers solver settings:

     Residual threshold:        0.10E-08
     Max number of iterations:       100

  - DIIS tool settings:

     DIIS dimension:   5

     Enabled CROP in the DIIS algorithm.

     Storage (cc_multipliers_diis_errors): file
     Storage (cc_multipliers_diis_parameters): file

  Iteration    Norm residual
  ----------------------------
    1          0.1464E+01
    2          0.1635E+00
    3          0.4004E-01
    4          0.1035E-01
    5          0.3606E-02
    6          0.1002E-02
    7          0.4277E-03
    8          0.1550E-03
    9          0.3758E-04
   10          0.1147E-04
   11          0.3562E-05
   12          0.1669E-05
   13          0.7650E-06
   14          0.3526E-06
   15          0.1035E-06
   16          0.3316E-07
   17          0.7648E-08
   18          0.2200E-08
   19          0.6096E-09
  ----------------------------
  Convergence criterion met in 19 iterations!

  - Finished solving the ccsd multipliers equations

     Total wall time (sec):              2.55500
     Total cpu time (sec):               2.73779

  - Davidson CC multipliers solver summary:

     Largest single amplitudes:
     -----------------------------------
        a       i         tbar(a,i)
     -----------------------------------
        1      9        0.029646992099
        3      9        0.014755436668
       14      9       -0.010760413697
       14      6       -0.008752717996
        4      7        0.008523553482
        5      6        0.007827835788
       22      8       -0.007464592411
        6      9        0.007308533249
        4     10        0.007005592206
        9      8       -0.006942220616
     ------------------------------------

     Largest double amplitudes:
     --------------------------------------------------
        a      i       b      j         tbar(ai,bj)
     --------------------------------------------------
        1      9       1      9       -0.079106600907
        3      9       3      9       -0.073265261786
        4     10       4     10       -0.062400215000
       16      5      16      5       -0.061891347282
       17      5      17      5       -0.061846092498
        1      9       3      9       -0.061771798285
        2      8       2      8       -0.058800453507
        5      8       4     10        0.055766556904
        8      5       8      5       -0.055363216785
        6      9       4     10        0.052190751159
     --------------------------------------------------

  - Finished solving the CCSD multipliers equations

     Total wall time (sec):               2.55700
     Total cpu time (sec):                2.74019


  5) Calculation of the excited states (diis algorithm)
     Calculating right vectors

   - DIIS coupled cluster excited state solver
  -----------------------------------------------

  A DIIS solver that solves for the lowest eigenvalues and  the right 
  eigenvectors of the Jacobian matrix, A. The eigenvalue  problem is solved 
  by DIIS extrapolation of residuals for each  eigenvector until the convergence 
  criteria are met.

  More on the DIIS algorithm can be found in P. Pulay, Chemical Physics 
  Letters, 73(2), 393-398 (1980).

  - Settings for coupled cluster excited state solver (DIIS):

     Calculation type:    valence
     Excitation vectors:  right

  - Convergence thresholds

     Residual threshold:            0.1000E-08

     Number of singlet states:               2
     Max number of iterations:             100

  - DIIS tool settings:

     DIIS dimension:  20

     Enabled CROP in the DIIS algorithm.

     Storage (diis_cc_es_001_errors): file
     Storage (diis_cc_es_001_parameters): file

  - DIIS tool settings:

     DIIS dimension:  20

     Enabled CROP in the DIIS algorithm.

     Storage (diis_cc_es_002_errors): file
     Storage (diis_cc_es_002_parameters): file

  Iteration:                  1

   Root     Eigenvalue (Re)     Residual norm
  -----------------------------------------------
     1      0.361112312074       0.5140E+00
     2      0.464797533415       0.4965E+00
  -----------------------------------------------

  Iteration:                  2

   Root     Eigenvalue (Re)     Residual norm
  -----------------------------------------------
     1      0.209640034028       0.1122E+00
     2      0.329095845838       0.1108E+00
  -----------------------------------------------

  Iteration:                  3

   Root     Eigenvalue (Re)     Residual norm
  -----------------------------------------------
     1      0.206294596919       0.4056E-01
     2      0.325165689651       0.4774E-01
  -----------------------------------------------

  Iteration:                  4

   Root     Eigenvalue (Re)     Residual norm
  -----------------------------------------------
     1      0.204206496545       0.1836E-01
     2      0.321248210301       0.2270E-01
  -----------------------------------------------

  Iteration:                  5

   Root     Eigenvalue (Re)     Residual norm
  -----------------------------------------------
     1      0.204558582517       0.4910E-02
     2      0.321044440657       0.7883E-02
  -----------------------------------------------

  Iteration:                  6

   Root     Eigenvalue (Re)     Residual norm
  -----------------------------------------------
     1      0.204567722122       0.1523E-02
     2      0.320949137062       0.6178E-02
  -----------------------------------------------

  Iteration:                  7

   Root     Eigenvalue (Re)     Residual norm
  -----------------------------------------------
     1      0.204574330090       0.7140E-03
     2      0.321076582157       0.5740E-02
  -----------------------------------------------

  Iteration:                  8

   Root     Eigenvalue (Re)     Residual norm
  -----------------------------------------------
     1      0.204565114122       0.3384E-03
     2      0.321010661150       0.2391E-02
  -----------------------------------------------

  Iteration:                  9

   Root     Eigenvalue (Re)     Residual norm
  -----------------------------------------------
     1      0.204564649141       0.1292E-03
     2      0.321011149777       0.8038E-03
  -----------------------------------------------

  Iteration:                 10

   Root     Eigenvalue (Re)     Residual norm
  -----------------------------------------------
     1      0.204566167541       0.4745E-04
     2      0.321007440264       0.3217E-03
  -----------------------------------------------

  Iteration:                 11

   Root     Eigenvalue (Re)     Residual norm
  -----------------------------------------------
     1      0.204566008966       0.1900E-04
     2      0.321006989956       0.1324E-03
  -----------------------------------------------

  Iteration:                 12

   Root     Eigenvalue (Re)     Residual norm
  -----------------------------------------------
     1      0.204566026880       0.1322E-04
     2      0.321009100197       0.6615E-04
  -----------------------------------------------

  Iteration:                 13

   Root     Eigenvalue (Re)     Residual norm
  -----------------------------------------------
     1      0.204566014281       0.6736E-05
     2      0.321008170532       0.2650E-04
  -----------------------------------------------

  Iteration:                 14

   Root     Eigenvalue (Re)     Residual norm
  -----------------------------------------------
     1      0.204565971169       0.2971E-05
     2      0.321008218525       0.9370E-05
  -----------------------------------------------

  Iteration:                 15

   Root     Eigenvalue (Re)     Residual norm
  -----------------------------------------------
     1      0.204565991495       0.1150E-05
     2      0.321008293698       0.3364E-05
  -----------------------------------------------

  Iteration:                 16

   Root     Eigenvalue (Re)     Residual norm
  -----------------------------------------------
     1      0.204565997482       0.4220E-06
     2      0.321008263203       0.1158E-05
  -----------------------------------------------

  Iteration:                 17

   Root     Eigenvalue (Re)     Residual norm
  -----------------------------------------------
     1      0.204566001552       0.1280E-06
     2      0.321008275198       0.4354E-06
  -----------------------------------------------

  Iteration:                 18

   Root     Eigenvalue (Re)     Residual norm
  -----------------------------------------------
     1      0.204566000966       0.3561E-07
     2      0.321008277063       0.2099E-06
  -----------------------------------------------

  Iteration:                 19

   Root     Eigenvalue (Re)     Residual norm
  -----------------------------------------------
     1      0.204566001052       0.1038E-07
     2      0.321008275854       0.1116E-06
  -----------------------------------------------

  Iteration:                 20

   Root     Eigenvalue (Re)     Residual norm
  -----------------------------------------------
     1      0.204566001090       0.3748E-08
     2      0.321008275611       0.5297E-07
  -----------------------------------------------

  Iteration:                 21

   Root     Eigenvalue (Re)     Residual norm
  -----------------------------------------------
     1      0.204566001089       0.1308E-08
     2      0.321008275394       0.2681E-07
  -----------------------------------------------

  Iteration:                 22

   Root     Eigenvalue (Re)     Residual norm
  -----------------------------------------------
     1      0.204566001090       0.3935E-09
     2      0.321008275436       0.1492E-07
  -----------------------------------------------

  Iteration:                 23

   Root     Eigenvalue (Re)     Residual norm
  -----------------------------------------------
     1      0.204566001090       0.3935E-09
     2      0.321008275482       0.6374E-08
  -----------------------------------------------

  Iteration:                 24

   Root     Eigenvalue (Re)     Residual norm
  -----------------------------------------------
     1      0.204566001090       0.3935E-09
     2      0.321008275567       0.2408E-08
  -----------------------------------------------

  Iteration:                 25

   Root     Eigenvalue (Re)     Residual norm
  -----------------------------------------------
     1      0.204566001090       0.3935E-09
     2      0.321008275550       0.1048E-08
  -----------------------------------------------

  Iteration:                 26

   Root     Eigenvalue (Re)     Residual norm
  -----------------------------------------------
     1      0.204566001090       0.3935E-09
     2      0.321008275570       0.3218E-09
  -----------------------------------------------
  Convergence criterion met in 26 iterations!

  - Resorting roots according to excitation energy.

  - Stored converged states to file.

  - Excitation vector amplitudes:

     Electronic state nr. 1

     Energy (Hartree):                  0.204566001090
     Fraction singles (|R1|/|R|):       0.973748919566

     Largest single amplitudes:
     -----------------------------------
        a       i         R(a,i)
     -----------------------------------
        1     10        0.960302407238
        3     10        0.136219055683
        2     10        0.045809047315
        1      7        0.045498210684
       13     10       -0.024180057795
        6     10       -0.023627378770
       12     10       -0.022421109355
        3      7        0.017619844843
        2      7        0.012994462568
        1      5        0.011620781957
     ------------------------------------

     Largest double amplitudes:
     --------------------------------------------------
        a      i       b      j         R(ai,bj)
     --------------------------------------------------
        1      9       1     10       -0.112676520350
        3      9       1     10       -0.066312173340
        1      6       1     10       -0.064260638250
        1     10       4     10       -0.037629620086
        1      4       1     10       -0.036591326781
        3      6       1     10       -0.034417643955
        1      7       2      8       -0.033164233556
        1      8       1     10       -0.030712077730
        4      7       1     10       -0.028539418982
        1      7       4     10       -0.028106421130
     --------------------------------------------------

     Electronic state nr. 2

     Energy (Hartree):                  0.321008275570
     Fraction singles (|R1|/|R|):       0.978731448804

     Largest single amplitudes:
     -----------------------------------
        a       i         R(a,i)
     -----------------------------------
        1      9        0.967277565847
        1      6       -0.085328420906
        3      9        0.062157096423
        1      8       -0.054398800700
        4     10       -0.036661055674
        1      4       -0.030169724261
        3      6       -0.026448767162
       13      9       -0.024420537521
        5      8        0.023523446699
        9      9        0.021289982910
     ------------------------------------

     Largest double amplitudes:
     --------------------------------------------------
        a      i       b      j         R(ai,bj)
     --------------------------------------------------
        1      9       1      9       -0.093698585104
        1      9       3      9       -0.060461193582
        1      6       1      9       -0.041409217691
        1      9       2      9       -0.032826089095
        1      6       2      8       -0.031589599742
        7      8       1      9        0.026868588646
        2      8       1      9        0.025782030519
        1      9       9      9        0.025548702907
        1      8       2      8        0.023470151525
        2      3       1      6        0.021902199631
     --------------------------------------------------

     - Electronic excitation energies:

                                      Excitation energy
                          ------------------------------------------
      State                (Hartree)             (eV)
     ---------------------------------------------------------------
        1                  0.204566001090        5.566524422226
        2                  0.321008275570        8.735080102160
     ---------------------------------------------------------------
     eV/Hartree (CODATA 2014): 27.21138602

  - Finished solving the CCSD excited state equations (right)

     Total wall time (sec):              6.24000
     Total cpu time (sec):               6.54762


  5) Calculation of the excited states (diis algorithm)
     Calculating left vectors

   - DIIS coupled cluster excited state solver
  -----------------------------------------------

  A DIIS solver that solves for the lowest eigenvalues and  the right 
  eigenvectors of the Jacobian matrix, A. The eigenvalue  problem is solved 
  by DIIS extrapolation of residuals for each  eigenvector until the convergence 
  criteria are met.

  More on the DIIS algorithm can be found in P. Pulay, Chemical Physics 
  Letters, 73(2), 393-398 (1980).

  - Settings for coupled cluster excited state solver (DIIS):

     Calculation type:    valence
     Excitation vectors:  left

  - Convergence thresholds

     Residual threshold:            0.1000E-08

     Number of singlet states:               2
     Max number of iterations:             100

  - DIIS tool settings:

     DIIS dimension:  20

     Enabled CROP in the DIIS algorithm.

     Storage (diis_cc_es_001_errors): file
     Storage (diis_cc_es_001_parameters): file

  - DIIS tool settings:

     DIIS dimension:  20

     Enabled CROP in the DIIS algorithm.

     Storage (diis_cc_es_002_errors): file
     Storage (diis_cc_es_002_parameters): file
     Restarting left vector 1 from file r_001.
     Restarting left vector 2 from file r_002.

  Iteration:                  1

   Root     Eigenvalue (Re)     Residual norm
  -----------------------------------------------
     1      0.188025277723       0.1409E+00
     2      0.303537279187       0.1721E+00
  -----------------------------------------------

  Iteration:                  2

   Root     Eigenvalue (Re)     Residual norm
  -----------------------------------------------
     1      0.213679270828       0.6412E-01
     2      0.338002851884       0.9972E-01
  -----------------------------------------------

  Iteration:                  3

   Root     Eigenvalue (Re)     Residual norm
  -----------------------------------------------
     1      0.202986443428       0.1123E-01
     2      0.318684823448       0.1665E-01
  -----------------------------------------------

  Iteration:                  4

   Root     Eigenvalue (Re)     Residual norm
  -----------------------------------------------
     1      0.204400272306       0.3206E-02
     2      0.320640559382       0.5465E-02
  -----------------------------------------------

  Iteration:                  5

   Root     Eigenvalue (Re)     Residual norm
  -----------------------------------------------
     1      0.204568693257       0.1173E-02
     2      0.321039900745       0.1921E-02
  -----------------------------------------------

  Iteration:                  6

   Root     Eigenvalue (Re)     Residual norm
  -----------------------------------------------
     1      0.204573400948       0.3836E-03
     2      0.321029592444       0.7633E-03
  -----------------------------------------------

  Iteration:                  7

   Root     Eigenvalue (Re)     Residual norm
  -----------------------------------------------
     1      0.204564096797       0.1178E-03
     2      0.321014380273       0.7060E-03
  -----------------------------------------------

  Iteration:                  8

   Root     Eigenvalue (Re)     Residual norm
  -----------------------------------------------
     1      0.204565140000       0.4589E-04
     2      0.321013639063       0.5489E-03
  -----------------------------------------------

  Iteration:                  9

   Root     Eigenvalue (Re)     Residual norm
  -----------------------------------------------
     1      0.204565480917       0.2386E-04
     2      0.321005068352       0.2563E-03
  -----------------------------------------------

  Iteration:                 10

   Root     Eigenvalue (Re)     Residual norm
  -----------------------------------------------
     1      0.204566114418       0.1027E-04
     2      0.321005015675       0.1174E-03
  -----------------------------------------------

  Iteration:                 11

   Root     Eigenvalue (Re)     Residual norm
  -----------------------------------------------
     1      0.204566103365       0.5305E-05
     2      0.321006439439       0.5860E-04
  -----------------------------------------------

  Iteration:                 12

   Root     Eigenvalue (Re)     Residual norm
  -----------------------------------------------
     1      0.204566027797       0.2916E-05
     2      0.321008100027       0.1932E-04
  -----------------------------------------------

  Iteration:                 13

   Root     Eigenvalue (Re)     Residual norm
  -----------------------------------------------
     1      0.204565998495       0.1403E-05
     2      0.321008417692       0.6697E-05
  -----------------------------------------------

  Iteration:                 14

   Root     Eigenvalue (Re)     Residual norm
  -----------------------------------------------
     1      0.204565993290       0.7402E-06
     2      0.321008302077       0.3007E-05
  -----------------------------------------------

  Iteration:                 15

   Root     Eigenvalue (Re)     Residual norm
  -----------------------------------------------
     1      0.204565998741       0.3352E-06
     2      0.321008266479       0.1300E-05
  -----------------------------------------------

  Iteration:                 16

   Root     Eigenvalue (Re)     Residual norm
  -----------------------------------------------
     1      0.204565999589       0.9840E-07
     2      0.321008285203       0.5987E-06
  -----------------------------------------------

  Iteration:                 17

   Root     Eigenvalue (Re)     Residual norm
  -----------------------------------------------
     1      0.204566000595       0.3148E-07
     2      0.321008279868       0.2408E-06
  -----------------------------------------------

  Iteration:                 18

   Root     Eigenvalue (Re)     Residual norm
  -----------------------------------------------
     1      0.204566000998       0.9540E-08
     2      0.321008277212       0.1090E-06
  -----------------------------------------------

  Iteration:                 19

   Root     Eigenvalue (Re)     Residual norm
  -----------------------------------------------
     1      0.204566001058       0.2898E-08
     2      0.321008276019       0.5488E-07
  -----------------------------------------------

  Iteration:                 20

   Root     Eigenvalue (Re)     Residual norm
  -----------------------------------------------
     1      0.204566001089       0.8190E-09
     2      0.321008275332       0.3231E-07
  -----------------------------------------------

  Iteration:                 21

   Root     Eigenvalue (Re)     Residual norm
  -----------------------------------------------
     1      0.204566001089       0.8190E-09
     2      0.321008275407       0.1691E-07
  -----------------------------------------------

  Iteration:                 22

   Root     Eigenvalue (Re)     Residual norm
  -----------------------------------------------
     1      0.204566001089       0.8190E-09
     2      0.321008275347       0.6692E-08
  -----------------------------------------------

  Iteration:                 23

   Root     Eigenvalue (Re)     Residual norm
  -----------------------------------------------
     1      0.204566001089       0.8190E-09
     2      0.321008275735       0.2528E-08
  -----------------------------------------------

  Iteration:                 24

   Root     Eigenvalue (Re)     Residual norm
  -----------------------------------------------
     1      0.204566001089       0.8190E-09
     2      0.321008275506       0.1139E-08
  -----------------------------------------------

  Iteration:                 25

   Root     Eigenvalue (Re)     Residual norm
  -----------------------------------------------
     1      0.204566001089       0.8190E-09
     2      0.321008275574       0.4572E-09
  -----------------------------------------------
  Convergence criterion met in 25 iterations!

  - Resorting roots according to excitation energy.

  - Stored converged states to file.

  - Excitation vector amplitudes:

     Electronic state nr. 1

     Energy (Hartree):                  0.204566001089
     Fraction singles (|L1|/|L|):       0.941146411166

     Largest single amplitudes:
     -----------------------------------
        a       i         L(a,i)
     -----------------------------------
        1     10        0.928856378555
        3     10        0.127109170632
        1      7        0.044655054047
        2     10        0.044020600804
       13     10       -0.022765151148
        6     10       -0.021000167872
       12     10       -0.020684251994
        3      7        0.017525011626
        2      7        0.012533147717
        1      5        0.011466156435
     ------------------------------------

     Largest double amplitudes:
     --------------------------------------------------
        a      i       b      j         L(ai,bj)
     --------------------------------------------------
        3      9       1     10       -0.118873613155
        1      9       1     10       -0.110113615237
        1      7       2      8       -0.076829391688
        1      6       1     10       -0.066602965332
        3      6       1     10       -0.064648562801
        1      7       5      8        0.057297803025
        3      4       1     10       -0.044999920800
        2      9       1     10       -0.043842233041
        7      8       1     10        0.042266683152
        2      6       1      7       -0.041330749846
     --------------------------------------------------

     Electronic state nr. 2

     Energy (Hartree):                  0.321008275574
     Fraction singles (|L1|/|L|):       0.935259144367

     Largest single amplitudes:
     -----------------------------------
        a       i         L(a,i)
     -----------------------------------
        1      9        0.925209620357
        1      6       -0.081039357597
        3      9        0.054339524561
        1      8       -0.049039299929
        4     10       -0.031448942799
        1      4       -0.028110586916
        3      6       -0.025319429973
       13      9       -0.022353506052
        9      9        0.019885108859
        5      8        0.018948680136
     ------------------------------------

     Largest double amplitudes:
     --------------------------------------------------
        a      i       b      j         L(ai,bj)
     --------------------------------------------------
        1      9       1      9       -0.169701594410
        1      6       2      8       -0.088338379476
        2      6       1      8        0.065680790729
        1      9       3      9       -0.053538770040
        3      6       1      9       -0.052078038397
        2      8       1      9        0.051161732906
        1      6       5      8        0.051091780340
        1      6       3      9        0.047992935158
        1      4       3      9        0.046928112846
        1      6       7      8       -0.044652758861
     --------------------------------------------------

     - Electronic excitation energies:

                                      Excitation energy
                          ------------------------------------------
      State                (Hartree)             (eV)
     ---------------------------------------------------------------
        1                  0.204566001089        5.566524422210
        2                  0.321008275574        8.735080102262
     ---------------------------------------------------------------
     eV/Hartree (CODATA 2014): 27.21138602

  - Finished solving the CCSD excited state equations (left)

     Total wall time (sec):              6.22500
     Total cpu time (sec):               6.48859


  6) Calculation of excited state properties (EOM)

  :: EOM properties calculation

  - Summary of EOM transition properties calculation:

     States m = 0 and n = 1:
     -------------------------
     Calculation type:                             EOM
     Excitation energy [E_h]:           0.204566001090
     Excitation energy [eV]:            5.566524422226
     Hartree-to-eV (CODATA 2014):          27.21138602

                   Transition moments [a.u.]         Transition strength [a.u.]
     --------------------------------------------------------------------------
     Comp. q     < n |q| m >       < m |q| n >        < n |q| m > < m |q| n >
     --------------------------------------------------------------------------
     X           0.0049658036      0.0095695327            0.0000475204
     Y           0.0021940009      0.0042315606            0.0000092840
     Z          -0.1002975781     -0.1953886002            0.0195970034
     --------------------------------------------------------------------------
     Oscillator strength:      0.002680333921

     States m = 0 and n = 2:
     -------------------------
     Calculation type:                             EOM
     Excitation energy [E_h]:           0.321008275570
     Excitation energy [eV]:            8.735080102160
     Hartree-to-eV (CODATA 2014):          27.21138602

                   Transition moments [a.u.]         Transition strength [a.u.]
     --------------------------------------------------------------------------
     Comp. q     < n |q| m >       < m |q| n >        < n |q| m > < m |q| n >
     --------------------------------------------------------------------------
     X          -0.5484712383     -1.0654679791            0.5843785419
     Y          -0.2815255915     -0.5485433224            0.1544289833
     Z           0.0030235313      0.0058842026            0.0000177911
     --------------------------------------------------------------------------
     Oscillator strength:      0.158112693810

  - Timings for the CCSD response calculation

     Total wall time (sec):             18.55600
     Total cpu time (sec):              21.90028

  ------------------------------------------------------------

  Peak memory usage during the execution of eT: 40.964356 MB

  Total wall time in eT (sec):             22.20100
  Total cpu time in eT (sec):              27.80562

  Calculation ended: 2022-02-01 16:05:39 UTC +01:00

  - Implementation references:

     eT: https://doi.org/10.1063/5.0004713
     Cholesky decomposition of ERIs: https://doi.org/10.1063/1.5083802

  eT terminated successfully!
