


                     eT 1.6 - an electronic structure program

  ------------------------------------------------------------------------
   Author list in alphabetical order:
  ------------------------------------------------------------------------
   J. H. Andersen, A. Balbi, S. Coriani, S. D. Folkestad, T. Giovannini, 
   L. Goletto, T. S. Haugland, A. Hutcheson, I-M. Høyvik, E. F. Kjønstad, 
   H. Koch, R. Matveeva, T. Moitra, R. H. Myhre, A. C. Paul, S. Roet, 
   M. Scavino, A. K. Schnack-Petersen, A. S. Skeidsvoll, Å. H. Tveten
  ------------------------------------------------------------------------
   J. Chem. Phys. 152, 184103 (2020); https://doi.org/10.1063/5.0004713


   This is eT 1.6.0 Galaxy
  ------------------------------------------------------------
  Configuration date: 2022-02-01 15:59:21 UTC +01:00
  Git branch:         release-v1.6.0
  Git hash:           2abe95f42f8b4eabde880c038dd204ec81d587da
  Fortran compiler:   GNU 10.3.0
  C compiler:         GNU 10.3.0
  C++ compiler:       GNU 10.3.0
  LAPACK type:        SYSTEM_NATIVE
  BLAS type:          SYSTEM_NATIVE
  64-bit integers:    OFF
  OpenMP:             ON
  PCM:                OFF
  Forced batching:    OFF
  Runtime checks:     OFF
  ------------------------------------------------------------

  Calculation started: 2022-02-01 16:10:30 UTC +01:00


  :: Input file
  ================

     Note: geometry section is excluded from this print

     system
        name: H2O He
        charge: 0
     end system

     do
        excited state
     end do

     memory
        available: 8
     end memory

     solver cholesky
        threshold: 1.0d-12
     end solver cholesky

     solver scf
        restart
        algorithm:          scf-diis
        energy threshold:   1.0d-12
        gradient threshold: 1.0d-12
     end solver scf

     method
        hf
        mlccsd
     end method

     solver cc gs
        restart
        omega threshold:  1.0d-10
        energy threshold: 1.0d-10
     end solver cc gs

     solver cc es
        restart
        algorithm:          davidson
        singlet states:     4
        residual threshold: 1.0d-10
        energy threshold:   1.0d-10
        right eigenvectors
     end solver cc es

     active atoms
        selection type: list
        ccsd: {3}
     end active atoms

     mlcc
        levels: cc2, ccsd
        ccsd orbitals: cholesky-pao
        orbital restart
     end mlcc


  Running on 2 OMP threads
  Memory available for calculation: 8.000000 GB


  :: RHF wavefunction
  ======================

     ==============================================================================
                                     Geometry (angstrom)
     ==============================================================================
        Atom           X                  Y                  Z         # in input
     ==============================================================================
        Basis: cc-pvdz
        1  O     0.000000000000    -0.075790000000     5.000000000000        3
        2  H     0.866810000000     0.601440000000     5.000000000000        1
        3  H    -0.866810000000     0.601440000000     5.000000000000        2
        4 He     0.100000000000    -0.020000000000     7.530000000000        4
     ==============================================================================

     ==============================================================================
                                     Geometry (a.u.)
     ==============================================================================
        Atom           X                  Y                  Z         # in input
     ==============================================================================
        Basis: cc-pvdz
        1  O     0.000000000000    -0.143222342981     9.448630622825        3
        2  H     1.638033502034     1.136556880358     9.448630622825        1
        3  H    -1.638033502034     1.136556880358     9.448630622825        2
        4 He     0.188972612457    -0.037794522491    14.229637717975        4
     ==============================================================================

  - Cholesky decomposition of AO overlap to get linearly independent AOs:

     Linear dependence threshold:             0.10E-05
     Number of atomic orbitals:               29
     Number of orthonormal atomic orbitals:   29

  - Molecular orbital details:

     Number of occupied orbitals:         6
     Number of virtual orbitals:         23
     Number of molecular orbitals:       29


  :: Hartree-Fock engine
  =========================

  Drives the calculation of the Hartree-Fock state.

  This is a RHF ground state calculation.
  The following tasks will be performed:

     1) Calculation of reference state (SCF-DIIS algorithm)


  1) Calculation of reference state (SCF-DIIS algorithm)

  - Requested restart. Reading orbitals from file

  - Screening and integral thresholds:

     Coulomb screening threshold:    0.1000E-17
     Exchange screening threshold:   0.1000E-15
     ERI cutoff:                     0.1000E-17
     One-electron integral  cutoff:  0.1000E-22
     Cumulative Fock threshold:      0.1000E+01

  - SCF solver settings:

     Maximum iterations:                   100
     Acceleration type:                   diis

  - Convergence thresholds

     Residual threshold:            0.1000E-11
     Energy threshold:              0.1000E-11

  - DIIS tool settings:

     DIIS dimension:   8

     Storage (solver scf_errors): memory
     Storage (solver scf_parameters): memory

  Iteration       Energy (a.u.)      Max(grad.)    Delta E (a.u.)
  ---------------------------------------------------------------
     1           -78.843851693631     0.2368E-12     0.7884E+02
  ---------------------------------------------------------------
  Convergence criterion met in 1 iterations!

  - Summary of RHF wavefunction energetics (a.u.):

     HOMO-LUMO gap:                  0.645629080251
     Nuclear repulsion energy:      12.116100574587
     Electronic energy:            -90.959952268218
     Total energy:                 -78.843851693631

  - Timings for the RHF ground state calculation

     Total wall time (sec):              0.02700
     Total cpu time (sec):               0.05075


  :: MLCCSD wavefunction
  =========================

     Bath orbital(s):         False

   - Number of orbitals:

     Occupied orbitals:    6
     Virtual orbitals:     23
     Molecular orbitals:   29
     Atomic orbitals:      29


  :: Excited state coupled cluster engine
  ==========================================

  Calculates the coupled cluster excitation vectors and excitation energies

  This is a MLCCSD excited state calculation.
  The following tasks will be performed:

     1) Cholesky decomposition of the electron repulsion integrals
     2) Preparation of MO basis and integrals
     3) Calculation of the ground state (diis algorithm)
     4) Calculation of the excited state (davidson algorithm)


  1) Cholesky decomposition of the electron repulsion integrals

   - Cholesky decomposition of electronic repulsion integrals solver
  ---------------------------------------------------------------------

  Performs a Cholesky decomposition of the two-electron electronic repulsion 
  integrals in the atomic orbital basis,

  (ab|cd) = sum_J L_ab^J L_cd^J.

  Once the Cholesky basis has been determined, the vectors L^J are constructed 
  and stored to disk. These may either be used directly, or be transformed 
  to the MO basis for use in post-HF calculations. For more information, 
  see S. D. Folkestad, E. F. Kjønstad and H. Koch, JCP, 150(19), (2019)

  - Cholesky decomposition settings:

     Target threshold is:   0.10E-11
     Span factor:           0.10E-01
     Max qual:                  1000

  - Cholesky decomposition ao details:

     Total number of AOs:                    29
     Total number of shell pairs:           120
     Total number of AO pairs:              435

     Significant shell pairs:               118
     Significant AO pairs:                  431

     Construct shell pairs:                 120
     Construct AO pairs:                    435

  Iter.  #Sign. ao pairs / shell pairs   Max diagonal    #Qualified    #Cholesky    Cholesky array size
  -------------------------------------------------------------------------------------------------------
     1               406 /     108       0.47383E+01         147             42             17052
     2               319 /      93       0.47165E-01         234            111             35409
     3               250 /      76       0.46944E-03         178            183             45750
     4               187 /      55       0.38270E-05         145            265             49555
     5                87 /      25       0.38106E-07          78            324             28188
     6                21 /       3       0.37202E-09          43            349              7329
     7                 0 /       0       0.36652E-11           7            354                 0
  -------------------------------------------------------------------------------------------------------

  - Summary of Cholesky decomposition of electronic repulsion integrals:

     Final number of Cholesky vectors: 354

 - Testing the Cholesky decomposition decomposition electronic repulsion integrals:

     Maximal difference between approximate and actual diagonal:              0.7161E-12
     Minimal element of difference between approximate and actual diagonal:  -0.1238E-14

  - Settings for integral handling:

     Cholesky vectors in memory: True
     ERI matrix in memory:       False

  - Finished decomposing the ERIs.

     Total wall time (sec):              0.40800
     Total cpu time (sec):               0.62857


  2) Preparation of MO basis and integrals
  Requested orbital restart, reading orbitals and orbital energies

  Warning: Number of orbitals in active and inactive spaces read from 
           orbital_coefficients_mlcc. Make sure restarted calculation 
           and restart files are consistent!

  - MLCCSD orbital partitioning:

     Orbital type: cholesky-pao

     Number occupied ccsd orbitals:    5
     Number virtual ccsd orbitals:    13

     Number occupied cc2 orbitals:     1
     Number virtual cc2 orbitals:     10

     Number occupied ccs orbitals:     0
     Number virtual ccs orbitals:      0


  3) Calculation of the ground state (diis algorithm)

   - DIIS coupled cluster ground state solver
  ----------------------------------------------

  A DIIS CC ground state amplitude equations solver. It uses an extrapolation 
  of previous quasi-Newton perturbation theory estimates of the next amplitudes. 
  See Helgaker et al., Molecular Electronic Structure Theory, Chapter 
  13.

  - CC ground state solver settings:

  - Convergence thresholds

     Residual threshold:            0.1000E-09
     Energy threshold:              0.1000E-09
     Max number of iterations:      100

  Requested restart. Reading in solution from file.

  - DIIS tool settings:

     DIIS dimension:   8

     Storage (cc_gs_diis_errors): file
     Storage (cc_gs_diis_parameters): file

  Iteration    Energy (a.u.)        |omega|       Delta E (a.u.)
  ---------------------------------------------------------------
    1           -79.093161259465     0.7780E-12     0.7909E+02
  ---------------------------------------------------------------
  Convergence criterion met in 1 iterations!

  - Ground state summary:

     Final ground state energy (a.u.):   -79.093161259465

     Correlation energy (a.u.):           -0.249309565834

     Largest single amplitudes:
     -----------------------------------
        a       i         t(a,i)
     -----------------------------------
        1      4       -0.016127176452
        5      3        0.010020008333
       23      3       -0.006082097111
       12      3       -0.005932315868
        8      4       -0.005813016363
        2      3       -0.005063177613
        4      5        0.004870436137
        6      2        0.004562503304
        8      2       -0.003852475909
       14      3       -0.003741984247
     ------------------------------------

  - Finished solving the MLCCSD ground state equations

     Total wall time (sec):              0.02400
     Total cpu time (sec):               0.03282


  4) Calculation of the excited state (davidson algorithm)
     Calculating right vectors

   - Davidson coupled cluster excited state solver
  ---------------------------------------------------

  A Davidson solver that calculates the lowest eigenvalues and the right 
  or left eigenvectors of the Jacobian matrix, A. The eigenvalue problem 
  is solved in a reduced space, the dimension of which is expanded until 
  the convergence criteria are met.

  A complete description of the algorithm can be found in E. R. Davidson, 
  J. Comput. Phys. 17, 87 (1975).

  - Settings for coupled cluster excited state solver (Davidson):

     Calculation type:    valence
     Excitation vectors:  right

  - Convergence thresholds

     Residual threshold:            0.1000E-09
     Energy threshold:              0.1000E-09

     Number of singlet states:               4
     Max number of iterations:             100

   - Davidson tool settings:

     Number of parameters:                 9729
     Number of requested solutions:           4
     Max reduced space dimension:           100

     Storage (cc_es_davidson_trials): file
     Storage (cc_es_davidson_transforms): file
     Restarting right vector 1 from file r_001.
     Restarting right vector 2 from file r_002.
     Restarting right vector 3 from file r_003.
     Restarting right vector 4 from file r_004.

  Iteration:                  1
  Reduced space dimension:    4

   Root  Eigenvalue (Re)   Eigenvalue (Im)    |residual|   Delta E (Re)
  ------------------------------------------------------------------------
     1   0.245946715752    0.000000000000     0.5787E-12   0.5412E-13
     2   0.307084362658    0.000000000000     0.3506E-12   0.5235E-13
     3   0.355706692610    0.000000000000     0.5086E-12   0.9392E-13
     4   0.413866997258    0.000000000000     0.3442E-11   0.1521E-13
  ------------------------------------------------------------------------
  Convergence criterion met in 1 iterations!

  - Excitation vector amplitudes:

     Electronic state nr. 1

     Energy (Hartree):                  0.245946715752
     Fraction singles (|R1|/|R|):       0.973604848264

     MLCC diagnostics:

     |R1^internal|/|R| =       0.936474326297
     |R1^internal|/|R1| =      0.961862841960

     Largest single amplitudes:
     -----------------------------------
        a       i         R(a,i)
     -----------------------------------
        1      5       -0.932226011270
       16      5        0.237732531559
       15      5        0.117946196268
       10      5        0.054863584308
        6      5        0.046352217907
        3      5        0.036650631150
       13      5       -0.028805012546
        8      5        0.015706906502
       19      5       -0.015187083676
        1      6        0.012169378872
     ------------------------------------

     Electronic state nr. 2

     Energy (Hartree):                  0.307084362658
     Fraction singles (|R1|/|R|):       0.973845080669

     MLCC diagnostics:

     |R1^internal|/|R| =       0.818497937443
     |R1^internal|/|R1| =      0.840480640802

     Largest single amplitudes:
     -----------------------------------
        a       i         R(a,i)
     -----------------------------------
        2      5        0.794477010602
       14      5        0.504334666724
        5      5        0.173909686647
       23      5        0.148877399804
       12      5        0.091623750789
       18      5       -0.039440535575
       22      5        0.012299762365
        2      6       -0.009595744195
       14      6       -0.007785668538
        6      5       -0.005875384422
     ------------------------------------

     Electronic state nr. 3

     Energy (Hartree):                  0.355706692610
     Fraction singles (|R1|/|R|):       0.979431140493

     MLCC diagnostics:

     |R1^internal|/|R| =       0.936653883116
     |R1^internal|/|R1| =      0.956324385035

     Largest single amplitudes:
     -----------------------------------
        a       i         R(a,i)
     -----------------------------------
        1      4       -0.915147365098
       16      4        0.250877046660
        2      3        0.135834053786
       15      4        0.124221136911
        6      4        0.084933724931
        1      2        0.073374273461
       10      4        0.052860812467
       14      3        0.047488211984
       13      4       -0.043515417323
        4      5       -0.040237403984
     ------------------------------------

     Electronic state nr. 4

     Energy (Hartree):                  0.413866997258
     Fraction singles (|R1|/|R|):       0.974217540710

     MLCC diagnostics:

     |R1^internal|/|R| =       0.803940736892
     |R1^internal|/|R1| =      0.825216856910

     Largest single amplitudes:
     -----------------------------------
        a       i         R(a,i)
     -----------------------------------
        2      4        0.746723244613
       14      4        0.525164332637
        1      3       -0.208729119476
        5      4        0.179232324567
       23      4        0.149099781933
       12      4        0.105067617968
       16      3        0.048138913110
       18      4       -0.036350607706
       15      3        0.021569336842
       10      3        0.021105133701
     ------------------------------------

     - Electronic excitation energies:

                                      Excitation energy
                          ------------------------------------------
      State                (Hartree)             (eV)
     ---------------------------------------------------------------
        1                  0.245946715752        6.692551022681
        2                  0.307084362658        8.356191133002
        3                  0.355706692610        9.679272122496
        4                  0.413866997258       11.261894623328
     ---------------------------------------------------------------
     eV/Hartree (CODATA 2014): 27.21138602

  - Finished solving the MLCCSD excited state equations (right)

     Total wall time (sec):              0.10800
     Total cpu time (sec):               0.12852

  - Timings for the MLCCSD excited state calculation

     Total wall time (sec):              0.55300
     Total cpu time (sec):               0.80778

  ------------------------------------------------------------

  Peak memory usage during the execution of eT: 10.692872 MB

  :: There was 1 warning during the execution of eT. ::

  Total wall time in eT (sec):              0.64100
  Total cpu time in eT (sec):               0.91929

  Calculation ended: 2022-02-01 16:10:31 UTC +01:00

  - Implementation references:

     eT: https://doi.org/10.1063/5.0004713
     MLCC2 and MLCCSD: https://doi.org/10.1021/acs.jctc.9b00701
     Cholesky decomposition of ERIs: https://doi.org/10.1063/1.5083802

  eT terminated successfully!
