


                     eT 1.6 - an electronic structure program

  ------------------------------------------------------------------------
   Author list in alphabetical order:
  ------------------------------------------------------------------------
   J. H. Andersen, A. Balbi, S. Coriani, S. D. Folkestad, T. Giovannini, 
   L. Goletto, T. S. Haugland, A. Hutcheson, I-M. Høyvik, E. F. Kjønstad, 
   H. Koch, R. Matveeva, T. Moitra, R. H. Myhre, A. C. Paul, S. Roet, 
   M. Scavino, A. K. Schnack-Petersen, A. S. Skeidsvoll, Å. H. Tveten
  ------------------------------------------------------------------------
   J. Chem. Phys. 152, 184103 (2020); https://doi.org/10.1063/5.0004713


   This is eT 1.6.0 Galaxy
  ------------------------------------------------------------
  Configuration date: 2022-02-01 15:59:21 UTC +01:00
  Git branch:         release-v1.6.0
  Git hash:           2abe95f42f8b4eabde880c038dd204ec81d587da
  Fortran compiler:   GNU 10.3.0
  C compiler:         GNU 10.3.0
  C++ compiler:       GNU 10.3.0
  LAPACK type:        SYSTEM_NATIVE
  BLAS type:          SYSTEM_NATIVE
  64-bit integers:    OFF
  OpenMP:             ON
  PCM:                OFF
  Forced batching:    OFF
  Runtime checks:     OFF
  ------------------------------------------------------------

  Calculation started: 2022-02-01 16:07:36 UTC +01:00


  :: Input file
  ================

     Note: geometry section is excluded from this print

     system
        name: H2O He
        charge: 0
     end system

     do
        excited state
     end do

     memory
        available: 8
     end memory

     method
        hf
        cc3
     end method

     frozen orbitals
        core
     end frozen orbitals

     solver scf
        energy threshold:   1.0d-11
        gradient threshold: 1.0d-11
     end solver scf

     solver cholesky
        threshold: 1.0d-11
     end solver cholesky

     solver cc gs
        energy threshold: 1.0d-11
        omega threshold:  1.0d-11
     end solver cc gs

     solver cc es
        algorithm:          diis
        singlet states:     1
        residual threshold: 1.0d-11
        right eigenvectors
     end solver cc es


  Running on 2 OMP threads
  Memory available for calculation: 8.000000 GB


  :: RHF wavefunction
  ======================

     ==============================================================================
                                     Geometry (angstrom)
     ==============================================================================
        Atom           X                  Y                  Z         # in input
     ==============================================================================
        Basis: cc-pvdz
        1  H     0.866810000000     0.601440000000     5.000000000000        1
        2  H    -0.866810000000     0.601440000000     5.000000000000        2
        3  O     0.000000000000    -0.075790000000     5.000000000000        3
        4 He     0.000000000000     0.000000000000     7.500000000000        4
     ==============================================================================

     ==============================================================================
                                     Geometry (a.u.)
     ==============================================================================
        Atom           X                  Y                  Z         # in input
     ==============================================================================
        Basis: cc-pvdz
        1  H     1.638033502034     1.136556880358     9.448630622825        1
        2  H    -1.638033502034     1.136556880358     9.448630622825        2
        3  O     0.000000000000    -0.143222342981     9.448630622825        3
        4 He     0.000000000000     0.000000000000    14.172945934238        4
     ==============================================================================

  - Cholesky decomposition of AO overlap to get linearly independent AOs:

     Linear dependence threshold:             0.10E-05
     Number of atomic orbitals:               29
     Number of orthonormal atomic orbitals:   29

  - Molecular orbital details:

     Number of occupied orbitals:         6
     Number of virtual orbitals:         23
     Number of molecular orbitals:       29


  :: Hartree-Fock engine
  =========================

  Drives the calculation of the Hartree-Fock state.

  This is a RHF ground state calculation.
  The following tasks will be performed:

     1) Generate initial SAD density
     2) Calculation of reference state (SCF-DIIS algorithm)


  1) Generate initial SAD density


  2) Calculation of reference state (SCF-DIIS algorithm)

  - Setting initial AO density to sad

     Energy of initial guess:               -78.492359869026
     Number of electrons in guess:           12.000000000000

  - Screening and integral thresholds:

     Coulomb screening threshold:    0.1000E-16
     Exchange screening threshold:   0.1000E-14
     ERI cutoff:                     0.1000E-16
     One-electron integral  cutoff:  0.1000E-21
     Cumulative Fock threshold:      0.1000E+01

  - SCF solver settings:

     Maximum iterations:                   100
     Acceleration type:                   diis

  - Convergence thresholds

     Residual threshold:            0.1000E-10
     Energy threshold:              0.1000E-10

  - DIIS tool settings:

     DIIS dimension:   8

     Storage (solver scf_errors): memory
     Storage (solver scf_parameters): memory

  Iteration       Energy (a.u.)      Max(grad.)    Delta E (a.u.)
  ---------------------------------------------------------------
     1           -78.796357979401     0.9791E-01     0.7880E+02
     2           -78.828453237453     0.7078E-01     0.3210E-01
     3           -78.843281517241     0.6747E-02     0.1483E-01
     4           -78.843608975052     0.2753E-02     0.3275E-03
     5           -78.843645123311     0.3974E-03     0.3615E-04
     6           -78.843646182586     0.5223E-04     0.1059E-05
     7           -78.843646204409     0.6084E-05     0.2182E-07
     8           -78.843646205153     0.2132E-05     0.7440E-09
     9           -78.843646205256     0.3153E-06     0.1025E-09
    10           -78.843646205256     0.2623E-07     0.4121E-12
    11           -78.843646205256     0.5559E-08     0.0000E+00
    12           -78.843646205256     0.1724E-08     0.0000E+00
    13           -78.843646205256     0.7589E-09     0.2842E-13
    14           -78.843646205256     0.1286E-09     0.8527E-13
    15           -78.843646205256     0.2324E-10     0.5684E-13
    16           -78.843646205256     0.4593E-11     0.1421E-13
  ---------------------------------------------------------------
  Convergence criterion met in 16 iterations!

  - Summary of RHF wavefunction energetics (a.u.):

     HOMO-LUMO gap:                  0.645693538847
     Nuclear repulsion energy:      12.167611407170
     Electronic energy:            -91.011257612426
     Total energy:                 -78.843646205256

  - Timings for the RHF ground state calculation

     Total wall time (sec):              1.19700
     Total cpu time (sec):               1.81489

  - Preparation for frozen core approximation

     There are 1 frozen core orbitals.


  :: CC3 wavefunction
  ======================

     Bath orbital(s):         False

   - Number of orbitals:

     Occupied orbitals:    5
     Virtual orbitals:     23
     Molecular orbitals:   28
     Atomic orbitals:      29

   - Number of ground state amplitudes:

     Single excitation amplitudes:  115
     Double excitation amplitudes:  6670


  :: Excited state coupled cluster engine
  ==========================================

  Calculates the coupled cluster excitation vectors and excitation energies

  This is a CC3 excited state calculation.
  The following tasks will be performed:

     1) Cholesky decomposition of the electron repulsion integrals
     2) Preparation of MO basis and integrals
     3) Calculation of the ground state (newton-raphson algorithm)
     4) Calculation of the excited state (diis algorithm)


  1) Cholesky decomposition of the electron repulsion integrals

   - Cholesky decomposition of electronic repulsion integrals solver
  ---------------------------------------------------------------------

  Performs a Cholesky decomposition of the two-electron electronic repulsion 
  integrals in the atomic orbital basis,

  (ab|cd) = sum_J L_ab^J L_cd^J.

  Once the Cholesky basis has been determined, the vectors L^J are constructed 
  and stored to disk. These may either be used directly, or be transformed 
  to the MO basis for use in post-HF calculations. For more information, 
  see S. D. Folkestad, E. F. Kjønstad and H. Koch, JCP, 150(19), (2019)

  - Cholesky decomposition settings:

     Target threshold is:   0.10E-10
     Span factor:           0.10E-01
     Max qual:                  1000

  - Cholesky decomposition ao details:

     Total number of AOs:                    29
     Total number of shell pairs:           120
     Total number of AO pairs:              435

     Significant shell pairs:               118
     Significant AO pairs:                  431

     Construct shell pairs:                 120
     Construct AO pairs:                    435

  Iter.  #Sign. ao pairs / shell pairs   Max diagonal    #Qualified    #Cholesky    Cholesky array size
  -------------------------------------------------------------------------------------------------------
     1               405 /     107       0.47383E+01         147             42             17010
     2               318 /      92       0.47164E-01         234            111             35298
     3               247 /      75       0.46943E-03         178            183             45201
     4               181 /      53       0.38323E-05         146            267             48327
     5                72 /      20       0.38254E-07          73            324             23328
     6                 0 /       0       0.36899E-09          39            345                 0
  -------------------------------------------------------------------------------------------------------

  - Summary of Cholesky decomposition of electronic repulsion integrals:

     Final number of Cholesky vectors: 345

 - Testing the Cholesky decomposition decomposition electronic repulsion integrals:

     Maximal difference between approximate and actual diagonal:              0.9701E-11
     Minimal element of difference between approximate and actual diagonal:  -0.1238E-14

  - Settings for integral handling:

     Cholesky vectors in memory: True
     ERI matrix in memory:       True

  - Finished decomposing the ERIs.

     Total wall time (sec):              0.52700
     Total cpu time (sec):               0.64770


  2) Preparation of MO basis and integrals


  3) Calculation of the ground state (newton-raphson algorithm)

   - Davidson tool settings:

     Number of parameters:                 6785
     Number of requested solutions:           1
     Max reduced space dimension:            50

     Storage (newton_raphson_amplitude_updator_trials): file
     Storage (newton_raphson_amplitude_updator_transforms): file

   - DIIS coupled cluster ground state solver
  ----------------------------------------------

  A DIIS CC ground state amplitude equations solver. It uses an extrapolation 
  of previous quasi-Newton perturbation theory estimates of the next amplitudes. 
  See Helgaker et al., Molecular Electronic Structure Theory, Chapter 
  13.

  - CC ground state solver settings:

  - Convergence thresholds

     Residual threshold:            0.1000E-10
     Energy threshold:              0.1000E-10
     Max number of iterations:      100

  - DIIS tool settings:

     DIIS dimension:   8

     Storage (cc_gs_diis_errors): file
     Storage (cc_gs_diis_parameters): file

  Iteration    Energy (a.u.)        |omega|       Delta E (a.u.)
  ---------------------------------------------------------------
    1           -79.081926712775     0.9247E-01     0.7908E+02
    2           -79.101859251322     0.1758E-02     0.1993E-01
    3           -79.102272191678     0.1159E-03     0.4129E-03
    4           -79.102287846723     0.9292E-05     0.1566E-04
    5           -79.102288103565     0.7957E-06     0.2568E-06
    6           -79.102288109972     0.4958E-07     0.6406E-08
    7           -79.102288108746     0.2543E-08     0.1226E-08
    8           -79.102288108716     0.9307E-10     0.3001E-10
    9           -79.102288108716     0.3961E-11     0.4547E-12
  ---------------------------------------------------------------
  Convergence criterion met in 9 iterations!

  - Ground state summary:

     Final ground state energy (a.u.):   -79.102288108716

     Correlation energy (a.u.):           -0.258641903460

     Largest single amplitudes:
     -----------------------------------
        a       i         t(a,i)
     -----------------------------------
        1      4        0.015391622702
       14      3       -0.008974957048
        7      3        0.007313033882
        4      4        0.006900592150
        2      3        0.006051030604
       15      4       -0.005701174742
        6      1        0.005002521129
       13      4        0.004901170587
        5      5        0.004375869155
        3      3        0.004139258250
     ------------------------------------

     Largest double amplitudes:
     --------------------------------------------------
        a      i       b      j         t(ai,bj)
     --------------------------------------------------
        2      3       2      3       -0.049932189776
        5      5       5      5       -0.046521740178
        9      2       9      2       -0.042892203928
        3      3       3      3       -0.037787490446
        1      4       1      4       -0.037336309247
        6      4       6      4       -0.034968955069
       16      2      16      2       -0.032093113920
       17      2      17      2       -0.032032176368
        2      3       1      4       -0.031591635304
       18      2      18      2       -0.031194913083
     --------------------------------------------------

  - Finished solving the CC3 ground state equations

     Total wall time (sec):              2.12200
     Total cpu time (sec):               1.77030


  4) Calculation of the excited state (diis algorithm)
     Calculating right vectors

   - DIIS coupled cluster excited state solver
  -----------------------------------------------

  A DIIS solver that solves for the lowest eigenvalues and  the right 
  eigenvectors of the Jacobian matrix, A. The eigenvalue  problem is solved 
  by DIIS extrapolation of residuals for each  eigenvector until the convergence 
  criteria are met.

  More on the DIIS algorithm can be found in P. Pulay, Chemical Physics 
  Letters, 73(2), 393-398 (1980).

  - Settings for coupled cluster excited state solver (DIIS):

     Calculation type:    valence
     Excitation vectors:  right

  - Convergence thresholds

     Residual threshold:            0.1000E-10

     Number of singlet states:               1
     Max number of iterations:             100

  - DIIS tool settings:

     DIIS dimension:  20

     Storage (diis_cc_es_001_errors): file
     Storage (diis_cc_es_001_parameters): file

  Iteration:                  1

   Root     Eigenvalue (Re)     Residual norm
  -----------------------------------------------
     1      0.374053561727       0.4313E+00
  -----------------------------------------------

  Iteration:                  2

   Root     Eigenvalue (Re)     Residual norm
  -----------------------------------------------
     1      0.255732897786       0.9917E-01
  -----------------------------------------------

  Iteration:                  3

   Root     Eigenvalue (Re)     Residual norm
  -----------------------------------------------
     1      0.246911905945       0.3349E-01
  -----------------------------------------------

  Iteration:                  4

   Root     Eigenvalue (Re)     Residual norm
  -----------------------------------------------
     1      0.247109827713       0.1365E-01
  -----------------------------------------------

  Iteration:                  5

   Root     Eigenvalue (Re)     Residual norm
  -----------------------------------------------
     1      0.247229299611       0.3080E-02
  -----------------------------------------------

  Iteration:                  6

   Root     Eigenvalue (Re)     Residual norm
  -----------------------------------------------
     1      0.247290942104       0.8256E-03
  -----------------------------------------------

  Iteration:                  7

   Root     Eigenvalue (Re)     Residual norm
  -----------------------------------------------
     1      0.247300333975       0.3231E-03
  -----------------------------------------------

  Iteration:                  8

   Root     Eigenvalue (Re)     Residual norm
  -----------------------------------------------
     1      0.247300774941       0.1559E-03
  -----------------------------------------------

  Iteration:                  9

   Root     Eigenvalue (Re)     Residual norm
  -----------------------------------------------
     1      0.247302207417       0.9653E-04
  -----------------------------------------------

  Iteration:                 10

   Root     Eigenvalue (Re)     Residual norm
  -----------------------------------------------
     1      0.247302709606       0.5703E-04
  -----------------------------------------------

  Iteration:                 11

   Root     Eigenvalue (Re)     Residual norm
  -----------------------------------------------
     1      0.247302048497       0.2457E-04
  -----------------------------------------------

  Iteration:                 12

   Root     Eigenvalue (Re)     Residual norm
  -----------------------------------------------
     1      0.247301817976       0.9263E-05
  -----------------------------------------------

  Iteration:                 13

   Root     Eigenvalue (Re)     Residual norm
  -----------------------------------------------
     1      0.247301803769       0.3231E-05
  -----------------------------------------------

  Iteration:                 14

   Root     Eigenvalue (Re)     Residual norm
  -----------------------------------------------
     1      0.247301795051       0.7794E-06
  -----------------------------------------------

  Iteration:                 15

   Root     Eigenvalue (Re)     Residual norm
  -----------------------------------------------
     1      0.247301790680       0.1786E-06
  -----------------------------------------------

  Iteration:                 16

   Root     Eigenvalue (Re)     Residual norm
  -----------------------------------------------
     1      0.247301792030       0.4634E-07
  -----------------------------------------------

  Iteration:                 17

   Root     Eigenvalue (Re)     Residual norm
  -----------------------------------------------
     1      0.247301792259       0.1208E-07
  -----------------------------------------------

  Iteration:                 18

   Root     Eigenvalue (Re)     Residual norm
  -----------------------------------------------
     1      0.247301792038       0.3571E-08
  -----------------------------------------------

  Iteration:                 19

   Root     Eigenvalue (Re)     Residual norm
  -----------------------------------------------
     1      0.247301791936       0.1028E-08
  -----------------------------------------------

  Iteration:                 20

   Root     Eigenvalue (Re)     Residual norm
  -----------------------------------------------
     1      0.247301791915       0.2735E-09
  -----------------------------------------------

  Iteration:                 21

   Root     Eigenvalue (Re)     Residual norm
  -----------------------------------------------
     1      0.247301791911       0.8270E-10
  -----------------------------------------------

  Iteration:                 22

   Root     Eigenvalue (Re)     Residual norm
  -----------------------------------------------
     1      0.247301791911       0.3103E-10
  -----------------------------------------------

  Iteration:                 23

   Root     Eigenvalue (Re)     Residual norm
  -----------------------------------------------
     1      0.247301791911       0.1035E-10
  -----------------------------------------------

  Iteration:                 24

   Root     Eigenvalue (Re)     Residual norm
  -----------------------------------------------
     1      0.247301791911       0.3296E-11
  -----------------------------------------------
  Convergence criterion met in 24 iterations!

  - Resorting roots according to excitation energy.

  - Stored converged states to file.

  - Excitation vector amplitudes:

     Electronic state nr. 1

     Energy (Hartree):                  0.247301791911
     Fraction singles (|R1|/|R|):       0.967112972279

     Largest single amplitudes:
     -----------------------------------
        a       i         R(a,i)
     -----------------------------------
        1      5        0.956997747304
        4      5        0.128021283993
        6      5       -0.038014533874
       13      5       -0.030158920136
        1      2       -0.011703780446
       22      5        0.008611993054
        1      4        0.008541891366
       10      5        0.008517433097
        9      5       -0.007964736626
       19      4       -0.007842277242
     ------------------------------------

     Largest double amplitudes:
     --------------------------------------------------
        a      i       b      j         R(ai,bj)
     --------------------------------------------------
        2      3       1      5       -0.116913515694
        1      4       1      5       -0.106916299867
        1      3       2      5       -0.069962560396
        1      5       5      5       -0.069432283760
        1      1       1      5       -0.067963386702
        3      3       1      5       -0.060241529881
        6      4       1      5        0.048072957325
        4      4       1      5       -0.042383247931
        4      3       2      5       -0.036260876298
        2      4       2      5       -0.033658822195
     --------------------------------------------------

     - Electronic excitation energies:

                                      Excitation energy
                          ------------------------------------------
      State                (Hartree)             (eV)
     ---------------------------------------------------------------
        1                  0.247301791911        6.729424523129
     ---------------------------------------------------------------
     eV/Hartree (CODATA 2014): 27.21138602

  - Finished solving the CC3 excited state equations (right)

     Total wall time (sec):              4.12100
     Total cpu time (sec):               3.58004

  - Timings for the CC3 excited state calculation

     Total wall time (sec):              6.78500
     Total cpu time (sec):               6.02232

  ------------------------------------------------------------

  Peak memory usage during the execution of eT: 14.020980 MB

  Total wall time in eT (sec):              8.09800
  Total cpu time in eT (sec):               7.96531

  Calculation ended: 2022-02-01 16:07:44 UTC +01:00

  - Implementation references:

     eT: https://doi.org/10.1063/5.0004713
     CC3: https://doi.org/10.1021/acs.jctc.0c00686
     Cholesky decomposition of ERIs: https://doi.org/10.1063/1.5083802
     Multimodel Newton algorithm: https://doi.org/10.1063/5.0010989

  eT terminated successfully!
