


                     eT 1.6 - an electronic structure program

  ------------------------------------------------------------------------
   Author list in alphabetical order:
  ------------------------------------------------------------------------
   J. H. Andersen, A. Balbi, S. Coriani, S. D. Folkestad, T. Giovannini, 
   L. Goletto, T. S. Haugland, A. Hutcheson, I-M. Høyvik, E. F. Kjønstad, 
   H. Koch, R. Matveeva, T. Moitra, R. H. Myhre, A. C. Paul, S. Roet, 
   M. Scavino, A. K. Schnack-Petersen, A. S. Skeidsvoll, Å. H. Tveten
  ------------------------------------------------------------------------
   J. Chem. Phys. 152, 184103 (2020); https://doi.org/10.1063/5.0004713


   This is eT 1.6.0 Galaxy
  ------------------------------------------------------------
  Configuration date: 2022-02-01 15:59:21 UTC +01:00
  Git branch:         release-v1.6.0
  Git hash:           2abe95f42f8b4eabde880c038dd204ec81d587da
  Fortran compiler:   GNU 10.3.0
  C compiler:         GNU 10.3.0
  C++ compiler:       GNU 10.3.0
  LAPACK type:        SYSTEM_NATIVE
  BLAS type:          SYSTEM_NATIVE
  64-bit integers:    OFF
  OpenMP:             ON
  PCM:                OFF
  Forced batching:    OFF
  Runtime checks:     OFF
  ------------------------------------------------------------

  Calculation started: 2022-02-01 16:10:38 UTC +01:00


  :: Input file
  ================

     Note: geometry section is excluded from this print

     system
        name: H2O-He
        charge: 0
     end system

     do
        ground state
     end do

     memory
        available: 8
     end memory

     solver cholesky
        threshold: 1.0d-12
     end solver cholesky

     solver scf
        algorithm:          scf-diis
        energy threshold:   1.0d-10
        gradient threshold: 1.0d-10
     end solver scf

     method
        hf
        mlccsd
     end method

     solver cc gs
        omega threshold:  1.0d-10
        energy threshold: 1.0d-10
     end solver cc gs

     active atoms
        selection type: list
        ccsd: {3}
     end active atoms

     mlcc
        levels: ccs, ccsd
        ccsd orbitals: cholesky-pao
        cholesky threshold: 1.0d-1
     end mlcc


  Running on 2 OMP threads
  Memory available for calculation: 8.000000 GB


  :: RHF wavefunction
  ======================

     ==============================================================================
                                     Geometry (angstrom)
     ==============================================================================
        Atom           X                  Y                  Z         # in input
     ==============================================================================
        Basis: cc-pvdz
        1  O     0.000000000000    -0.075790000000     5.000000000000        3
        2  H     0.866810000000     0.601440000000     5.000000000000        1
        3  H    -0.866810000000     0.601440000000     5.000000000000        2
        4 He     0.100000000000    -0.020000000000     7.530000000000        4
     ==============================================================================

     ==============================================================================
                                     Geometry (a.u.)
     ==============================================================================
        Atom           X                  Y                  Z         # in input
     ==============================================================================
        Basis: cc-pvdz
        1  O     0.000000000000    -0.143222342981     9.448630622825        3
        2  H     1.638033502034     1.136556880358     9.448630622825        1
        3  H    -1.638033502034     1.136556880358     9.448630622825        2
        4 He     0.188972612457    -0.037794522491    14.229637717975        4
     ==============================================================================

  - Cholesky decomposition of AO overlap to get linearly independent AOs:

     Linear dependence threshold:             0.10E-05
     Number of atomic orbitals:               29
     Number of orthonormal atomic orbitals:   29

  - Molecular orbital details:

     Number of occupied orbitals:         6
     Number of virtual orbitals:         23
     Number of molecular orbitals:       29


  :: Hartree-Fock engine
  =========================

  Drives the calculation of the Hartree-Fock state.

  This is a RHF ground state calculation.
  The following tasks will be performed:

     1) Generate initial SAD density
     2) Calculation of reference state (SCF-DIIS algorithm)


  1) Generate initial SAD density


  2) Calculation of reference state (SCF-DIIS algorithm)

  - Setting initial AO density to sad

     Energy of initial guess:               -78.492022836361
     Number of electrons in guess:           12.000000000000

  - Screening and integral thresholds:

     Coulomb screening threshold:    0.1000E-15
     Exchange screening threshold:   0.1000E-13
     ERI cutoff:                     0.1000E-15
     One-electron integral  cutoff:  0.1000E-20
     Cumulative Fock threshold:      0.1000E+01

  - SCF solver settings:

     Maximum iterations:                   100
     Acceleration type:                   diis

  - Convergence thresholds

     Residual threshold:            0.1000E-09
     Energy threshold:              0.1000E-09

  - DIIS tool settings:

     DIIS dimension:   8

     Storage (solver scf_errors): memory
     Storage (solver scf_parameters): memory

  Iteration       Energy (a.u.)      Max(grad.)    Delta E (a.u.)
  ---------------------------------------------------------------
     1           -78.796606592568     0.9711E-01     0.7880E+02
     2           -78.828675852646     0.7077E-01     0.3207E-01
     3           -78.843487343819     0.6125E-02     0.1481E-01
     4           -78.843814479549     0.2753E-02     0.3271E-03
     5           -78.843850612079     0.3973E-03     0.3613E-04
     6           -78.843851670925     0.5220E-04     0.1059E-05
     7           -78.843851692779     0.6749E-05     0.2185E-07
     8           -78.843851693528     0.2204E-05     0.7487E-09
     9           -78.843851693630     0.3162E-06     0.1027E-09
    10           -78.843851693631     0.2573E-07     0.4405E-12
    11           -78.843851693631     0.5507E-08     0.5684E-13
    12           -78.843851693631     0.1348E-08     0.0000E+00
    13           -78.843851693631     0.6167E-09     0.0000E+00
    14           -78.843851693631     0.1382E-09     0.1421E-13
    15           -78.843851693631     0.2501E-10     0.4263E-13
  ---------------------------------------------------------------
  Convergence criterion met in 15 iterations!

  - Summary of RHF wavefunction energetics (a.u.):

     HOMO-LUMO gap:                  0.645629080219
     Nuclear repulsion energy:      12.116100574587
     Electronic energy:            -90.959952268218
     Total energy:                 -78.843851693631

  - Timings for the RHF ground state calculation

     Total wall time (sec):              0.83900
     Total cpu time (sec):               1.45622


  :: MLCCSD wavefunction
  =========================

     Bath orbital(s):         False

   - Number of orbitals:

     Occupied orbitals:    6
     Virtual orbitals:     23
     Molecular orbitals:   29
     Atomic orbitals:      29


  :: Ground state coupled cluster engine
  =========================================

  Calculates the ground state CC wavefunction | CC > = exp(T) | R >

  This is a MLCCSD ground state calculation.
  The following tasks will be performed:

     1) Cholesky decomposition of the electron repulsion integrals
     2) Preparation of MO basis and integrals
     3) Calculation of the ground state (diis algorithm)


  1) Cholesky decomposition of the electron repulsion integrals

   - Cholesky decomposition of electronic repulsion integrals solver
  ---------------------------------------------------------------------

  Performs a Cholesky decomposition of the two-electron electronic repulsion 
  integrals in the atomic orbital basis,

  (ab|cd) = sum_J L_ab^J L_cd^J.

  Once the Cholesky basis has been determined, the vectors L^J are constructed 
  and stored to disk. These may either be used directly, or be transformed 
  to the MO basis for use in post-HF calculations. For more information, 
  see S. D. Folkestad, E. F. Kjønstad and H. Koch, JCP, 150(19), (2019)

  - Cholesky decomposition settings:

     Target threshold is:   0.10E-11
     Span factor:           0.10E-01
     Max qual:                  1000

  - Cholesky decomposition ao details:

     Total number of AOs:                    29
     Total number of shell pairs:           120
     Total number of AO pairs:              435

     Significant shell pairs:               118
     Significant AO pairs:                  431

     Construct shell pairs:                 120
     Construct AO pairs:                    435

  Iter.  #Sign. ao pairs / shell pairs   Max diagonal    #Qualified    #Cholesky    Cholesky array size
  -------------------------------------------------------------------------------------------------------
     1               406 /     108       0.47383E+01         147             42             17052
     2               319 /      93       0.47165E-01         234            111             35409
     3               250 /      76       0.46944E-03         178            183             45750
     4               187 /      55       0.38270E-05         145            265             49555
     5                87 /      25       0.38106E-07          78            324             28188
     6                21 /       3       0.37202E-09          43            349              7329
     7                 0 /       0       0.36652E-11           7            354                 0
  -------------------------------------------------------------------------------------------------------

  - Summary of Cholesky decomposition of electronic repulsion integrals:

     Final number of Cholesky vectors: 354

 - Testing the Cholesky decomposition decomposition electronic repulsion integrals:

     Maximal difference between approximate and actual diagonal:              0.7161E-12
     Minimal element of difference between approximate and actual diagonal:  -0.1238E-14

  - Settings for integral handling:

     Cholesky vectors in memory: True
     ERI matrix in memory:       False

  - Finished decomposing the ERIs.

     Total wall time (sec):              0.46200
     Total cpu time (sec):               0.67280


  2) Preparation of MO basis and integrals

     The smallest diagonal after decomposition is:  -0.1357E-15

  - MLCCSD orbital partitioning:

     Orbital type: cholesky-pao

     Number occupied ccsd orbitals:    5
     Number virtual ccsd orbitals:    13

     Number occupied cc2 orbitals:     0
     Number virtual cc2 orbitals:      0

     Number occupied ccs orbitals:     1
     Number virtual ccs orbitals:     10


  3) Calculation of the ground state (diis algorithm)

   - DIIS coupled cluster ground state solver
  ----------------------------------------------

  A DIIS CC ground state amplitude equations solver. It uses an extrapolation 
  of previous quasi-Newton perturbation theory estimates of the next amplitudes. 
  See Helgaker et al., Molecular Electronic Structure Theory, Chapter 
  13.

  - CC ground state solver settings:

  - Convergence thresholds

     Residual threshold:            0.1000E-09
     Energy threshold:              0.1000E-09
     Max number of iterations:      100

  - DIIS tool settings:

     DIIS dimension:   8

     Storage (cc_gs_diis_errors): file
     Storage (cc_gs_diis_parameters): file

  Iteration    Energy (a.u.)        |omega|       Delta E (a.u.)
  ---------------------------------------------------------------
    1           -79.044160688177     0.7984E-01     0.7904E+02
    2           -79.048084138476     0.2642E-01     0.3923E-02
    3           -79.053442934921     0.8503E-02     0.5359E-02
    4           -79.054587871610     0.2277E-02     0.1145E-02
    5           -79.054560413514     0.7812E-03     0.2746E-04
    6           -79.054607772130     0.3314E-03     0.4736E-04
    7           -79.054606049427     0.1193E-03     0.1723E-05
    8           -79.054600210232     0.4802E-04     0.5839E-05
    9           -79.054599449048     0.1421E-04     0.7612E-06
   10           -79.054598958575     0.4396E-05     0.4905E-06
   11           -79.054599039880     0.1820E-05     0.8130E-07
   12           -79.054599099958     0.8952E-06     0.6008E-07
   13           -79.054599135911     0.3653E-06     0.3595E-07
   14           -79.054599136993     0.1403E-06     0.1082E-08
   15           -79.054599133583     0.4410E-07     0.3410E-08
   16           -79.054599132424     0.1566E-07     0.1160E-08
   17           -79.054599132674     0.4060E-08     0.2509E-09
   18           -79.054599132671     0.1382E-08     0.3510E-11
   19           -79.054599132620     0.5214E-09     0.5136E-10
   20           -79.054599132612     0.1664E-09     0.7873E-11
   21           -79.054599132609     0.5738E-10     0.2899E-11
  ---------------------------------------------------------------
  Convergence criterion met in 21 iterations!

  - Ground state summary:

     Final ground state energy (a.u.):   -79.054599132609

     Correlation energy (a.u.):           -0.210747438978

     Largest single amplitudes:
     -----------------------------------
        a       i         t(a,i)
     -----------------------------------
        1      4       -0.013231738445
        5      3        0.012538085351
        8      4       -0.006327515317
        6      2        0.005258843919
        4      5        0.004821055082
        6      4        0.004749918902
       12      3       -0.004360820325
        8      2       -0.003751919894
        2      3        0.003424627419
       23      3       -0.003380814327
     ------------------------------------

  - Finished solving the MLCCSD ground state equations

     Total wall time (sec):              0.39600
     Total cpu time (sec):               0.45754

  - Timings for the MLCCSD ground state calculation

     Total wall time (sec):              0.88500
     Total cpu time (sec):               1.15969

  ------------------------------------------------------------

  Peak memory usage during the execution of eT: 10.665728 MB

  Total wall time in eT (sec):              1.78600
  Total cpu time in eT (sec):               2.67857

  Calculation ended: 2022-02-01 16:10:39 UTC +01:00

  - Implementation references:

     eT: https://doi.org/10.1063/5.0004713
     MLCC2 and MLCCSD: https://doi.org/10.1021/acs.jctc.9b00701
     Cholesky decomposition of ERIs: https://doi.org/10.1063/1.5083802

  eT terminated successfully!
