
  - Molecular orbital energies

  --------------------------------------------------------------------------
   1     -26.334215397274  14       1.106561921987  27       2.531186114996
   2     -20.644676143389  15       1.130678945458  28       2.601426569328
   3      -1.894514195254  16       1.195125644611  29       2.725832254828
   4      -1.204323614975  17       1.332305214034  30       2.888293377046
   5      -0.910581317586  18       1.423088812977  31       3.061115047177
   6      -0.866359982103  19       1.453320735156  32       3.534199119700
   7      -0.832531025283  20       1.486906665107  33       3.762918741751
   8      -0.790125272755  21       1.561381025902  34       3.962288761007
   9      -0.497921814678  22       1.686298886863  35       4.000546434588
  10      -0.439636463058  23       1.771732504107  36       4.553973954972
  11       0.160499885369  24       2.108007790822  37       4.580623650064
  12       0.548524783437  25       2.501253825857  38       5.083709277076
  13       0.716123096556  26       2.530943514173
  --------------------------------------------------------------------------


  - Molecular orbital coefficients

    AO    Center  l m_l           1           2           3           4           5
  ---------------------------------------------------------------------------------------
     1    1 H     s          -0.000260    0.000489    0.035525    0.136826    0.005401
     2    1 H     s           0.000305    0.000637   -0.007019    0.001800    0.009765
     3    1 H     p x        -0.000000    0.000008   -0.008974   -0.019571   -0.001270
     4    1 H     p y         0.000017    0.000151   -0.005704   -0.016722   -0.001142
     5    1 H     p z        -0.000001    0.000002    0.000012    0.000036    0.002599
     6    2 F     s           1.001049   -0.000029   -0.002982    0.000567   -0.000787
     7    2 F     s           0.001521    0.000118    0.393331   -0.295138    0.004821
     8    2 F     s          -0.004892    0.000104    0.370069   -0.423250    0.013113
     9    2 F     p x         0.001399   -0.000075    0.125216    0.182965   -0.017052
    10    2 F     p y        -0.001020    0.000038   -0.091242   -0.117621    0.022303
    11    2 F     p z         0.000001    0.000001    0.000035    0.000132    0.068277
    12    2 F     p x        -0.001567   -0.000237    0.047239    0.081754   -0.009621
    13    2 F     p y         0.001140    0.000349   -0.030449   -0.052164    0.012637
    14    2 F     p z        -0.000001    0.000002    0.000053    0.000049    0.041842
    15    2 F     d -2        0.000095    0.000481   -0.016521   -0.013914    0.001511
    16    2 F     d -1        0.000000   -0.000001   -0.000009   -0.000009   -0.002102
    17    2 F     d  0        0.000072    0.000284   -0.010769   -0.008734    0.001171
    18    2 F     d  1       -0.000000    0.000001    0.000007    0.000014    0.002993
    19    2 F     d  2       -0.000036   -0.000129    0.005355    0.006195   -0.000007
    20    3 O     s          -0.000019    1.000965   -0.002192    0.004148   -0.001282
    21    3 O     s          -0.000189    0.001420    0.258595    0.378011   -0.007244
    22    3 O     s           0.002151   -0.003397    0.145581    0.404380    0.001139
    23    3 O     p x        -0.000000   -0.000941   -0.127390    0.073492    0.019024
    24    3 O     p y         0.000029    0.002207    0.114249    0.011948   -0.007287
    25    3 O     p z        -0.000002    0.000000    0.000091    0.000444    0.057278
    26    3 O     p x        -0.001008   -0.000041   -0.012829    0.031880    0.004161
    27    3 O     p y         0.000840   -0.001164    0.013090   -0.003882   -0.002653
    28    3 O     p z         0.000005   -0.000010   -0.000032    0.000132    0.033976
    29    3 O     d -2        0.000308   -0.000281   -0.027216    0.006655    0.001750
    30    3 O     d -1        0.000000   -0.000000    0.000002    0.000013    0.003582
    31    3 O     d  0        0.000142    0.000077   -0.016635   -0.000226    0.002067
    32    3 O     d  1       -0.000000    0.000001   -0.000001    0.000001   -0.002785
    33    3 O     d  2       -0.000071    0.000002    0.003565   -0.001935   -0.000641
    34    4 He    s           0.000009   -0.000052    0.000762    0.006337    0.583730
    35    4 He    s          -0.000030    0.000077    0.001270    0.006137    0.505295
    36    4 He    p x        -0.000001   -0.000004   -0.000034    0.000119    0.000356
    37    4 He    p y        -0.000002   -0.000000    0.000047   -0.000063    0.000743
    38    4 He    p z         0.000011   -0.000009   -0.000317   -0.000628    0.000229
  ---------------------------------------------------------------------------------------

    AO    Center  l m_l           6           7           8           9          10
  ---------------------------------------------------------------------------------------
     1    1 H     s           0.203607    0.000931    0.079547    0.318481   -0.000386
     2    1 H     s           0.049948   -0.002797    0.053414    0.107880   -0.003508
     3    1 H     p x        -0.028023    0.000033   -0.006115   -0.027652    0.000193
     4    1 H     p y        -0.017041    0.000226   -0.015757   -0.016118    0.000159
     5    1 H     p z        -0.000138    0.009987    0.000089    0.000029    0.023301
     6    2 F     s          -0.003255    0.000087   -0.004922    0.003040   -0.000000
     7    2 F     s           0.048353   -0.000689    0.059271    0.009502    0.000178
     8    2 F     s           0.101371   -0.001555    0.133136   -0.009637    0.000717
     9    2 F     p x         0.091503    0.008360   -0.486841   -0.241513    0.000200
    10    2 F     p y         0.482269    0.001848    0.030774   -0.393279    0.000616
    11    2 F     p z        -0.005786    0.542069    0.006112   -0.000918   -0.439480
    12    2 F     p x         0.061555    0.005263   -0.306382   -0.193928    0.000306
    13    2 F     p y         0.288861    0.001166    0.016325   -0.313409    0.000446
    14    2 F     p z        -0.003542    0.327570    0.003710   -0.000853   -0.374475
    15    2 F     d -2        0.017373   -0.000176    0.015044   -0.001292   -0.000013
    16    2 F     d -1        0.000176   -0.014594   -0.000157   -0.000016   -0.004602
    17    2 F     d  0        0.005576   -0.000215    0.011416   -0.001295   -0.000036
    18    2 F     d  1       -0.000229    0.020737    0.000214    0.000003    0.005131
    19    2 F     d  2        0.019035    0.000382   -0.016686    0.000918    0.000006
    20    3 O     s          -0.006830    0.000193   -0.008998    0.002118    0.000016
    21    3 O     s          -0.022810   -0.000633    0.125365   -0.103246    0.000657
    22    3 O     s           0.015721   -0.002924    0.302672   -0.256226    0.001815
    23    3 O     p x         0.325821   -0.001352    0.240303    0.169829    0.000188
    24    3 O     p y         0.154432    0.006410   -0.336527    0.399149   -0.000525
    25    3 O     p z        -0.003986    0.354900    0.003541    0.001198    0.583509
    26    3 O     p x         0.123051    0.000564    0.066307    0.123187    0.000946
    27    3 O     p y         0.093387    0.003244   -0.159965    0.290070   -0.000314
    28    3 O     p z        -0.002365    0.193122    0.001485    0.001067    0.473382
    29    3 O     d -2        0.017076   -0.000370    0.033545    0.010545    0.000034
    30    3 O     d -1       -0.000281    0.025790    0.000265    0.000032    0.009008
    31    3 O     d  0        0.002771   -0.000497    0.018277   -0.012453   -0.000065
    32    3 O     d  1        0.000241   -0.021879   -0.000240    0.000008    0.007103
    33    3 O     d  2       -0.030328   -0.000405    0.015935    0.005607   -0.000008
    34    4 He    s          -0.023058   -0.095392   -0.027146    0.002012   -0.022051
    35    4 He    s          -0.020282   -0.080199   -0.020542   -0.004279   -0.020068
    36    4 He    p x         0.000158   -0.000422    0.000026    0.000191    0.000575
    37    4 He    p y         0.000144    0.000114   -0.000277    0.000387   -0.000577
    38    4 He    p z        -0.000001   -0.001885   -0.000560    0.000485   -0.002788
  ---------------------------------------------------------------------------------------

    AO    Center  l m_l          11          12          13          14          15
  ---------------------------------------------------------------------------------------
     1    1 H     s           0.137554    0.172551    1.219107    0.038665   -0.002783
     2    1 H     s           1.259472   -0.080945   -1.087950   -0.057679    0.082831
     3    1 H     p x        -0.005408   -0.006803    0.174347   -0.014094   -0.128746
     4    1 H     p y        -0.001608    0.052594    0.128859    0.015878    0.076406
     5    1 H     p z         0.000236    0.000037   -0.000467    0.151096   -0.038309
     6    2 F     s           0.005805    0.025241    0.007783    0.000527    0.010087
     7    2 F     s          -0.006615   -0.168172    0.088806    0.006510    0.039930
     8    2 F     s          -0.100585   -1.402986    0.300799   -0.133971   -0.690242
     9    2 F     p x         0.084113   -0.269657    0.098168    0.043609    0.172029
    10    2 F     p y         0.004541    0.213525    0.051444   -0.037730   -0.249019
    11    2 F     p z        -0.000005   -0.000360    0.001069   -0.154734    0.031208
    12    2 F     p x         0.097089   -0.803606    0.226287   -0.016809   -0.083261
    13    2 F     p y         0.016549    0.672909   -0.074349    0.026965    0.189663
    14    2 F     p z        -0.000820    0.000238   -0.001434   -0.030649    0.010093
    15    2 F     d -2        0.001957   -0.000023   -0.001169    0.019770    0.091005
    16    2 F     d -1       -0.000100    0.000018    0.000002    0.018061   -0.003962
    17    2 F     d  0        0.000327   -0.000539   -0.002321    0.011813    0.049701
    18    2 F     d  1        0.000133   -0.000019   -0.000009   -0.020565    0.004404
    19    2 F     d  2       -0.009532   -0.004186   -0.020336   -0.004279   -0.019284
    20    3 O     s           0.031898   -0.039367   -0.051983   -0.054389   -0.132759
    21    3 O     s          -0.072135    0.092940   -0.192449   -0.132593   -0.317248
    22    3 O     s          -0.687931    1.318622    0.040508    0.195121    0.568404
    23    3 O     p x        -0.230023   -0.315226   -0.212742    0.140784    0.714582
    24    3 O     p y        -0.186052    0.150283   -0.335126   -0.103985   -0.567091
    25    3 O     p z         0.004543   -0.000412   -0.000681   -0.824153    0.181633
    26    3 O     p x        -0.390515   -1.168828    0.153651   -0.189419   -0.984880
    27    3 O     p y        -0.287912    0.827256   -0.163167    0.126894    0.681100
    28    3 O     p z         0.000503    0.000229    0.002037    0.904075   -0.202069
    29    3 O     d -2       -0.005318    0.020072    0.065230   -0.003641   -0.031155
    30    3 O     d -1        0.000109   -0.000025    0.000059   -0.016687    0.003291
    31    3 O     d  0        0.001113   -0.001332   -0.055880   -0.002099   -0.017788
    32    3 O     d  1       -0.000099    0.000027   -0.000089    0.039221   -0.009062
    33    3 O     d  2        0.009624   -0.007561    0.029191    0.001201    0.004130
    34    4 He    s          -0.029028   -0.011702    0.084115   -0.376975    0.014149
    35    4 He    s          -0.040809    0.005193   -0.023245    0.328163   -0.013334
    36    4 He    p x         0.001604   -0.002826   -0.004511   -0.001186   -0.004548
    37    4 He    p y         0.001176    0.001438   -0.003738   -0.001037    0.004331
    38    4 He    p z        -0.003610   -0.003634    0.012410   -0.039946    0.001517
  ---------------------------------------------------------------------------------------

    AO    Center  l m_l          16          17          18          19          20
  ---------------------------------------------------------------------------------------
     1    1 H     s           0.696078    0.032207    0.071719    0.165598    0.031540
     2    1 H     s           0.080568   -0.030516    0.201422   -0.269685    0.197235
     3    1 H     p x        -0.320992   -0.368576   -0.052647   -0.105586   -0.021184
     4    1 H     p y        -0.104743    0.371909   -0.036556    0.165800   -0.055929
     5    1 H     p z        -0.011069    0.032214    0.514693   -0.113357    0.055126
     6    2 F     s          -0.046204   -0.005247   -0.003933   -0.058543    0.013759
     7    2 F     s          -0.085269    0.073304   -0.026873   -0.200083    0.037641
     8    2 F     s           0.312955    0.777943   -0.072040   -0.068956   -0.004008
     9    2 F     p x         0.010832   -0.731430    0.107521    0.144718    0.017790
    10    2 F     p y         0.174994   -0.103421   -0.152065   -0.781137    0.062217
    11    2 F     p z         0.004467    0.005491    0.344872   -0.137740   -0.809647
    12    2 F     p x         0.371928    1.242399   -0.142402   -0.362736    0.028700
    13    2 F     p y        -0.064665   -0.197966    0.260645    1.191206   -0.085497
    14    2 F     p z         0.003882   -0.015637   -0.455336    0.173289    1.065494
    15    2 F     d -2        0.025154   -0.006701   -0.003462   -0.014075   -0.001850
    16    2 F     d -1       -0.000780    0.000974    0.006338   -0.000032    0.016706
    17    2 F     d  0       -0.001847   -0.016862   -0.007729   -0.012187   -0.004650
    18    2 F     d  1        0.000786   -0.000522    0.005079   -0.002995   -0.019842
    19    2 F     d  2        0.014122    0.003966   -0.000279   -0.005833    0.000755
    20    3 O     s          -0.119995    0.055067    0.093571   -0.094472    0.104001
    21    3 O     s          -0.383016    0.120398    0.202286   -0.262139    0.239205
    22    3 O     s          -0.331506   -1.005565   -0.181170    0.869242   -0.401286
    23    3 O     p x         0.361537   -0.122090    0.094927   -0.134551    0.089551
    24    3 O     p y         0.615873   -0.047636    0.052346    0.161346    0.000325
    25    3 O     p z         0.035667   -0.038946   -0.201003    0.018046   -0.025577
    26    3 O     p x        -0.759412    0.546456   -0.271062   -0.087742   -0.151642
    27    3 O     p y        -1.253726   -0.588503   -0.139086   -0.297100   -0.063513
    28    3 O     p z        -0.040934    0.045310    0.249453   -0.040639   -0.281506
    29    3 O     d -2        0.045667    0.090445   -0.026621   -0.079907    0.002207
    30    3 O     d -1        0.000363    0.001515    0.048065   -0.013057   -0.008823
    31    3 O     d  0       -0.004948    0.043197   -0.035975   -0.077247   -0.009592
    32    3 O     d  1       -0.002108    0.004307    0.056235   -0.010715    0.024001
    33    3 O     d  2       -0.051255   -0.055214    0.006006    0.019612   -0.000098
    34    4 He    s          -0.029487    0.099141    0.778403   -0.068892    0.500367
    35    4 He    s           0.029554   -0.097105   -0.819472    0.080099   -0.527543
    36    4 He    p x        -0.004462    0.002304    0.003898   -0.003191   -0.006766
    37    4 He    p y        -0.006571   -0.002129   -0.002294   -0.004324    0.007381
    38    4 He    p z         0.002436    0.004768   -0.009910    0.003006   -0.001181
  ---------------------------------------------------------------------------------------

    AO    Center  l m_l          21          22          23          24          25
  ---------------------------------------------------------------------------------------
     1    1 H     s           0.084043    0.552392    0.310878    0.348221    0.112088
     2    1 H     s           0.204273    0.314602    0.290908    0.403686   -0.077752
     3    1 H     p x        -0.033296    0.162506   -0.327415   -1.016310    0.107994
     4    1 H     p y        -0.057540   -0.646855    0.499663   -0.596641    0.090836
     5    1 H     p z        -0.834458    0.065468    0.045680    0.000568   -0.022089
     6    2 F     s           0.019748    0.123539    0.128331   -0.121788   -0.550762
     7    2 F     s           0.050323    0.302335    0.323580   -0.256916   -1.210160
     8    2 F     s          -0.002540   -0.327753    0.153491    0.827026    2.426694
     9    2 F     p x         0.013423   -0.295526    0.312727    0.167812   -0.060981
    10    2 F     p y        -0.002516   -0.274311    0.078029    0.062061    0.032653
    11    2 F     p z         0.152085    0.014260    0.014198    0.000965    0.004691
    12    2 F     p x         0.042240    0.572296   -0.278103    0.111182    0.780314
    13    2 F     p y         0.012921    0.568814   -0.191314   -0.291188   -0.574262
    14    2 F     p z        -0.411639    0.008748    0.004575   -0.000692   -0.022700
    15    2 F     d -2       -0.006924   -0.039540   -0.047563    0.015603    0.062411
    16    2 F     d -1       -0.021034    0.001377    0.001117    0.000027   -0.002387
    17    2 F     d  0       -0.008806   -0.013877   -0.061639   -0.045473    0.031660
    18    2 F     d  1        0.000592    0.000767    0.000610    0.000023   -0.002523
    19    2 F     d  2       -0.000980   -0.059554    0.053850   -0.028877   -0.011401
    20    3 O     s           0.139267    0.384444    0.525372    0.148023    0.205263
    21    3 O     s           0.315088    0.863750    1.179084    0.201034    0.437181
    22    3 O     s          -0.487436   -1.305947   -1.544014   -1.481294   -1.667770
    23    3 O     p x         0.093712    0.231063    0.167088   -0.410705    0.123173
    24    3 O     p y         0.016121    0.040004    0.103624   -0.363012   -0.011266
    25    3 O     p z        -0.327700    0.058626    0.052779    0.001712   -0.043410
    26    3 O     p x        -0.192461   -0.964152    0.059146    0.186110    0.713356
    27    3 O     p y        -0.133124   -0.418628   -0.536377   -0.405804   -0.626363
    28    3 O     p z         0.816934   -0.107210   -0.093671   -0.002952    0.078864
    29    3 O     d -2       -0.002283    0.025618   -0.064247    0.096057    0.104214
    30    3 O     d -1       -0.109967    0.012445    0.010547    0.000303   -0.031784
    31    3 O     d  0       -0.022728   -0.059471   -0.143501   -0.168355    0.006473
    32    3 O     d  1       -0.099878    0.007450    0.005387    0.000126   -0.003372
    33    3 O     d  2        0.004679    0.132988   -0.091591    0.045352   -0.047675
    34    4 He    s           0.446635   -0.226514   -0.242689   -0.028316   -0.022231
    35    4 He    s          -0.507488    0.246533    0.270134    0.025416    0.033725
    36    4 He    p x         0.004015   -0.004015    0.006939    0.019559    0.067063
    37    4 He    p y        -0.003701    0.002335   -0.001700    0.006581   -0.165667
    38    4 He    p z        -0.053150    0.025780    0.038498    0.018233    0.703469
  ---------------------------------------------------------------------------------------

    AO    Center  l m_l          26          27          28          29          30
  ---------------------------------------------------------------------------------------
     1    1 H     s           0.013448    0.010247    0.178844   -0.005268    0.059395
     2    1 H     s          -0.042107    0.002897   -0.178313    0.006973    0.069740
     3    1 H     p x         0.027170    0.000560    0.118928   -0.003364    0.142775
     4    1 H     p y         0.013094    0.008800    0.112250   -0.002662   -0.404665
     5    1 H     p z        -0.003338   -0.007992    0.023465    0.034306    0.000442
     6    2 F     s          -0.008091   -0.063291   -0.583092    0.012141    0.076759
     7    2 F     s          -0.017993   -0.138878   -1.275698    0.026455    0.164642
     8    2 F     s           0.023869    0.289634    2.625340   -0.055531   -0.461138
     9    2 F     p x        -0.004194   -0.007369   -0.079923    0.002251   -0.078012
    10    2 F     p y        -0.005334    0.006148    0.037504   -0.000771   -0.109560
    11    2 F     p z        -0.001232    0.013471   -0.003531   -0.079960   -0.000255
    12    2 F     p x         0.012688    0.090074    0.857027   -0.018513   -0.147160
    13    2 F     p y         0.007661   -0.072898   -0.616165    0.012883    0.060407
    14    2 F     p z        -0.000742   -0.022870    0.020363   -0.179311   -0.000788
    15    2 F     d -2        0.001075    0.007366    0.073257   -0.001806    0.107986
    16    2 F     d -1       -0.000532    0.000289    0.000778   -0.213490   -0.001000
    17    2 F     d  0        0.002454    0.001926    0.027502   -0.000442   -0.019261
    18    2 F     d  1       -0.000207   -0.002623    0.008440    0.295704    0.000290
    19    2 F     d  2       -0.000482    0.001623   -0.009426   -0.000107    0.356107
    20    3 O     s          -0.007765    0.024221    0.241798   -0.005542   -0.029063
    21    3 O     s          -0.015259    0.049972    0.518842   -0.012040   -0.066011
    22    3 O     s           0.035498   -0.207389   -1.837060    0.038986    0.201958
    23    3 O     p x         0.012107    0.005625    0.117676   -0.002255   -0.070810
    24    3 O     p y         0.011311    0.001407   -0.008584    0.000212   -0.116051
    25    3 O     p z        -0.006359   -0.013416    0.054703   -0.107437   -0.002058
    26    3 O     p x         0.000455    0.095650    0.804630   -0.017747   -0.297345
    27    3 O     p y        -0.008662   -0.086441   -0.701452    0.014752    0.243114
    28    3 O     p z         0.010822    0.030810   -0.101418    0.108771    0.003351
    29    3 O     d -2        0.004064    0.007355    0.110164   -0.002243   -0.046880
    30    3 O     d -1       -0.004037   -0.017794    0.056453    0.596026   -0.002323
    31    3 O     d  0        0.004717   -0.006587   -0.070858    0.003794   -0.197128
    32    3 O     d  1       -0.001604    0.005555   -0.002146   -0.622941   -0.003107
    33    3 O     d  2       -0.004497   -0.012101   -0.066216    0.002356   -0.829185
    34    4 He    s          -0.000123    0.000629   -0.074653    0.006470    0.002790
    35    4 He    s           0.000257   -0.001239    0.108079   -0.010912   -0.007017
    36    4 He    p x         0.737037   -0.672053   -0.004363   -0.009115    0.003873
    37    4 He    p y         0.671184    0.718841    0.070735    0.007228   -0.010069
    38    4 He    p z         0.075469    0.158088   -0.681226    0.042361    0.021137
  ---------------------------------------------------------------------------------------

    AO    Center  l m_l          31          32          33          34          35
  ---------------------------------------------------------------------------------------
     1    1 H     s          -0.003522    0.583800    0.900425   -0.000289    0.525715
     2    1 H     s           0.010751    0.151026    0.206653   -0.001044    0.083818
     3    1 H     p x        -0.003717   -0.417882   -0.622416    0.000544   -0.315755
     4    1 H     p y        -0.005521   -0.212561   -0.455823    0.000710   -0.254369
     5    1 H     p z        -0.428415    0.004648    0.000682    0.069331    0.001346
     6    2 F     s           0.007686   -0.021558   -0.146270   -0.000173   -0.065298
     7    2 F     s           0.016811    0.045373   -0.352653   -0.000281   -0.143855
     8    2 F     s          -0.034993    1.094640    0.403240    0.001834    0.319734
     9    2 F     p x         0.002504    0.337403   -0.211487    0.000280   -0.049009
    10    2 F     p y        -0.001790   -0.257255    0.155859   -0.000229    0.026285
    11    2 F     p z         0.014374    0.000584    0.000063   -0.002148    0.000214
    12    2 F     p x        -0.012170    0.286267    0.316540    0.000347    0.189016
    13    2 F     p y         0.007846   -0.145552   -0.090800   -0.000357   -0.041122
    14    2 F     p z        -0.048093    0.001631    0.000279    0.007557    0.000247
    15    2 F     d -2       -0.000667    0.068551   -0.322013   -0.001200    0.405318
    16    2 F     d -1        0.163445    0.000049   -0.000028    0.775861    0.003372
    17    2 F     d  0        0.000131    0.243227    0.309316    0.003020   -0.778588
    18    2 F     d  1        0.098975   -0.002767   -0.000716    0.603220    0.000762
    19    2 F     d  2        0.001892    0.019593    0.187666    0.000069   -0.036445
    20    3 O     s          -0.003435    0.345861    0.115908    0.000314    0.098970
    21    3 O     s          -0.007918    0.660171    0.175589    0.000744    0.167911
    22    3 O     s           0.020837   -1.830389   -1.159841   -0.000855   -0.761177
    23    3 O     p x        -0.001651   -0.109733   -0.042833   -0.000060   -0.031532
    24    3 O     p y        -0.000781   -0.019064   -0.150601    0.000218   -0.064986
    25    3 O     p z        -0.044866    0.005807    0.000957    0.007507    0.001752
    26    3 O     p x        -0.014058    0.295682   -0.578754    0.001637   -0.242673
    27    3 O     p y         0.008389   -0.863645   -0.521256   -0.000360   -0.360783
    28    3 O     p z         0.192299   -0.011419   -0.001816   -0.029511   -0.003268
    29    3 O     d -2       -0.000830    0.326578   -0.936264    0.001363   -0.440094
    30    3 O     d -1        0.718367   -0.002329   -0.000161   -0.189275   -0.000623
    31    3 O     d  0        0.007001    0.924907    0.293077   -0.000671    0.405958
    32    3 O     d  1        0.674085   -0.003493   -0.000515   -0.156184   -0.001666
    33    3 O     d  2       -0.002944   -0.223869    0.011454   -0.000162    0.000640
    34    4 He    s           0.022918   -0.026070   -0.005159   -0.002669   -0.009589
    35    4 He    s          -0.034967    0.038110    0.005097    0.004387    0.013469
    36    4 He    p x        -0.001059   -0.007061    0.003244    0.000071    0.001356
    37    4 He    p y         0.001869    0.006610    0.000975   -0.000127    0.001608
    38    4 He    p z         0.042305   -0.037955   -0.010881   -0.002893   -0.009717
  ---------------------------------------------------------------------------------------

    AO    Center  l m_l          36          37          38
  ---------------------------------------------------------------------------------------
     1    1 H     s           0.006133    0.014987    0.000337
     2    1 H     s          -0.004771   -0.013045    0.040812
     3    1 H     p x        -0.001559    0.003250   -0.041090
     4    1 H     p y        -0.001822    0.148045   -0.055021
     5    1 H     p z         0.029941    0.000644   -0.001678
     6    2 F     s          -0.001037   -0.004484    0.291619
     7    2 F     s          -0.002187   -0.007173    0.511892
     8    2 F     s           0.007163    0.081356   -1.965264
     9    2 F     p x        -0.000130   -0.000998   -0.156570
    10    2 F     p y         0.000081   -0.019435    0.122414
    11    2 F     p z        -0.027282   -0.000249   -0.000184
    12    2 F     p x         0.000550    0.174249   -0.844387
    13    2 F     p y        -0.002757    0.194480    0.651487
    14    2 F     p z         0.274844    0.003257   -0.001865
    15    2 F     d -2        0.000841    0.252136    0.951425
    16    2 F     d -1       -0.602785   -0.006758    0.001945
    17    2 F     d  0        0.001013    0.024941    0.569552
    18    2 F     d  1        0.774723    0.008719   -0.002652
    19    2 F     d  2       -0.011379    0.937399   -0.256183
    20    3 O     s           0.002265    0.023614   -0.023077
    21    3 O     s           0.004874    0.054778    0.089584
    22    3 O     s          -0.009372   -0.057087    1.422152
    23    3 O     p x        -0.001422   -0.016124   -0.431904
    24    3 O     p y         0.000735    0.003381    0.317907
    25    3 O     p z        -0.038252    0.000053   -0.002417
    26    3 O     p x         0.003286   -0.067845   -0.717975
    27    3 O     p y        -0.002261   -0.245425    0.541644
    28    3 O     p z        -0.245323   -0.003792    0.006357
    29    3 O     d -2       -0.003968    0.181087   -0.646435
    30    3 O     d -1       -0.398980   -0.004613    0.001922
    31    3 O     d  0        0.001241    0.001218   -0.363438
    32    3 O     d  1        0.484723    0.005357   -0.001214
    33    3 O     d  2       -0.007240    0.645967    0.133215
    34    4 He    s          -0.015078   -0.002857    0.012688
    35    4 He    s           0.026338    0.004800   -0.023586
    36    4 He    p x         0.001891    0.000793    0.002261
    37    4 He    p y        -0.001895    0.001994   -0.002175
    38    4 He    p z        -0.015476   -0.002172    0.014154
  ---------------------------------------------------------------------------------------
