


                     eT 1.6 - an electronic structure program

  ------------------------------------------------------------------------
   Author list in alphabetical order:
  ------------------------------------------------------------------------
   J. H. Andersen, A. Balbi, S. Coriani, S. D. Folkestad, T. Giovannini, 
   L. Goletto, T. S. Haugland, A. Hutcheson, I-M. Høyvik, E. F. Kjønstad, 
   H. Koch, R. Matveeva, T. Moitra, R. H. Myhre, A. C. Paul, S. Roet, 
   M. Scavino, A. K. Schnack-Petersen, A. S. Skeidsvoll, Å. H. Tveten
  ------------------------------------------------------------------------
   J. Chem. Phys. 152, 184103 (2020); https://doi.org/10.1063/5.0004713


   This is eT 1.6.0 Galaxy
  ------------------------------------------------------------
  Configuration date: 2022-02-01 15:59:21 UTC +01:00
  Git branch:         release-v1.6.0
  Git hash:           2abe95f42f8b4eabde880c038dd204ec81d587da
  Fortran compiler:   GNU 10.3.0
  C compiler:         GNU 10.3.0
  C++ compiler:       GNU 10.3.0
  LAPACK type:        SYSTEM_NATIVE
  BLAS type:          SYSTEM_NATIVE
  64-bit integers:    OFF
  OpenMP:             ON
  PCM:                OFF
  Forced batching:    OFF
  Runtime checks:     OFF
  ------------------------------------------------------------

  Calculation started: 2022-02-01 16:06:07 UTC +01:00


  :: Input file
  ================

     Note: geometry section is excluded from this print

     system
       name: H2O
     end system

     do
       excited state
     end do

     method
       hf
       lowmem-cc2
     end method

     solver cholesky
       threshold: 1.0d-11
     end solver cholesky

     solver scf
       energy threshold:   1.0d-11
       gradient threshold: 1.0d-11
     end solver scf

     solver cc gs
       omega threshold:  1.0d-11
       energy threshold: 1.0d-11
     end solver cc gs

     solver cc es
       algorithm:          non-linear davidson
       singlet states:     8
       residual threshold: 1.0d-10
       energy threshold:   1.0d-10
     end solver cc es


  Running on 2 OMP threads
  Memory available for calculation: 8.000000 GB


  :: RHF wavefunction
  ======================

     ==============================================================================
                                     Geometry (angstrom)
     ==============================================================================
        Atom           X                  Y                  Z         # in input
     ==============================================================================
        Basis: cc-pvdz
        1  O     1.405913559800     1.572886779400     0.000000000000        1
        2  H     2.375913559800     1.572886779400     0.000000000000        2
        3  H     1.082583748100     2.018536686100    -0.798595012200        3
     ==============================================================================

     ==============================================================================
                                     Geometry (a.u.)
     ==============================================================================
        Atom           X                  Y                  Z         # in input
     ==============================================================================
        Basis: cc-pvdz
        1  O     2.656791582834     2.972325238015     0.000000000000        1
        2  H     4.489825923662     2.972325238015     0.000000000000        2
        3  H     2.045786790814     3.814481509116    -1.509125857502        3
     ==============================================================================

  - Cholesky decomposition of AO overlap to get linearly independent AOs:

     Linear dependence threshold:             0.10E-05
     Number of atomic orbitals:               24
     Number of orthonormal atomic orbitals:   24

  - Molecular orbital details:

     Number of occupied orbitals:         5
     Number of virtual orbitals:         19
     Number of molecular orbitals:       24


  :: Hartree-Fock engine
  =========================

  Drives the calculation of the Hartree-Fock state.

  This is a RHF ground state calculation.
  The following tasks will be performed:

     1) Generate initial SAD density
     2) Calculation of reference state (SCF-DIIS algorithm)


  1) Generate initial SAD density


  2) Calculation of reference state (SCF-DIIS algorithm)

  - Setting initial AO density to sad

     Energy of initial guess:               -75.866198362986
     Number of electrons in guess:           10.000000000000

  - Screening and integral thresholds:

     Coulomb screening threshold:    0.1000E-16
     Exchange screening threshold:   0.1000E-14
     ERI cutoff:                     0.1000E-16
     One-electron integral  cutoff:  0.1000E-21
     Cumulative Fock threshold:      0.1000E+01

  - SCF solver settings:

     Maximum iterations:                   100
     Acceleration type:                   diis

  - Convergence thresholds

     Residual threshold:            0.1000E-10
     Energy threshold:              0.1000E-10

  - DIIS tool settings:

     DIIS dimension:   8

     Storage (solver scf_errors): memory
     Storage (solver scf_parameters): memory

  Iteration       Energy (a.u.)      Max(grad.)    Delta E (a.u.)
  ---------------------------------------------------------------
     1           -75.985777418040     0.8287E-01     0.7599E+02
     2           -76.015347578130     0.6105E-01     0.2957E-01
     3           -76.024828749725     0.3930E-02     0.9481E-02
     4           -76.025021279947     0.1385E-02     0.1925E-03
     5           -76.025035736432     0.2488E-03     0.1446E-04
     6           -76.025036230731     0.3574E-04     0.4943E-06
     7           -76.025036241546     0.2056E-05     0.1082E-07
     8           -76.025036241596     0.2503E-06     0.4967E-10
     9           -76.025036241597     0.4551E-07     0.9237E-12
    10           -76.025036241597     0.1172E-07     0.7105E-13
    11           -76.025036241597     0.1875E-08     0.4263E-13
    12           -76.025036241597     0.7853E-09     0.8527E-13
    13           -76.025036241597     0.8530E-10     0.4263E-13
    14           -76.025036241597     0.6065E-11     0.0000E+00
  ---------------------------------------------------------------
  Convergence criterion met in 14 iterations!

  - Summary of RHF wavefunction energetics (a.u.):

     HOMO-LUMO gap:                  0.674454972616
     Nuclear repulsion energy:       9.062772529384
     Electronic energy:            -85.087808770981
     Total energy:                 -76.025036241597

  - Timings for the RHF ground state calculation

     Total wall time (sec):              0.84000
     Total cpu time (sec):               1.34042


  :: LOW MEMORY CC2 wavefunction
  =================================

     Bath orbital(s):         False

   - Number of orbitals:

     Occupied orbitals:    5
     Virtual orbitals:     19
     Molecular orbitals:   24
     Atomic orbitals:      24

   - Number of ground state amplitudes:

     Single excitation amplitudes:  95


  :: Excited state coupled cluster engine
  ==========================================

  Calculates the coupled cluster excitation vectors and excitation energies

  This is a LOW MEMORY CC2 excited state calculation.
  The following tasks will be performed:

     1) Cholesky decomposition of the electron repulsion integrals
     2) Preparation of MO basis and integrals
     3) Calculation of the ground state (diis algorithm)
     4) Calculation of the excited state (non-linear davidson algorithm)


  1) Cholesky decomposition of the electron repulsion integrals

   - Cholesky decomposition of electronic repulsion integrals solver
  ---------------------------------------------------------------------

  Performs a Cholesky decomposition of the two-electron electronic repulsion 
  integrals in the atomic orbital basis,

  (ab|cd) = sum_J L_ab^J L_cd^J.

  Once the Cholesky basis has been determined, the vectors L^J are constructed 
  and stored to disk. These may either be used directly, or be transformed 
  to the MO basis for use in post-HF calculations. For more information, 
  see S. D. Folkestad, E. F. Kjønstad and H. Koch, JCP, 150(19), (2019)

  - Cholesky decomposition settings:

     Target threshold is:   0.10E-10
     Span factor:           0.10E-01
     Max qual:                  1000

  - Cholesky decomposition ao details:

     Total number of AOs:                    24
     Total number of shell pairs:            78
     Total number of AO pairs:              300

     Significant shell pairs:                78
     Significant AO pairs:                  300

     Construct shell pairs:                  78
     Construct AO pairs:                    300

  Iter.  #Sign. ao pairs / shell pairs   Max diagonal    #Qualified    #Cholesky    Cholesky array size
  -------------------------------------------------------------------------------------------------------
     1               285 /      71       0.47383E+01         151             30              8550
     2               217 /      59       0.47048E-01         236             99             21483
     3               140 /      46       0.43027E-03         164            159             22260
     4                97 /      31       0.36747E-05         120            229             22213
     5                12 /       8       0.35637E-07          53            271              3252
     6                 0 /       0       0.24142E-09           9            279                 0
  -------------------------------------------------------------------------------------------------------

  - Summary of Cholesky decomposition of electronic repulsion integrals:

     Final number of Cholesky vectors: 279

 - Testing the Cholesky decomposition decomposition electronic repulsion integrals:

     Maximal difference between approximate and actual diagonal:              0.2122E-12
     Minimal element of difference between approximate and actual diagonal:  -0.1238E-14

  - Settings for integral handling:

     Cholesky vectors in memory: True
     ERI matrix in memory:       False

  - Finished decomposing the ERIs.

     Total wall time (sec):              0.38600
     Total cpu time (sec):               0.49908


  2) Preparation of MO basis and integrals


  3) Calculation of the ground state (diis algorithm)

   - DIIS coupled cluster ground state solver
  ----------------------------------------------

  A DIIS CC ground state amplitude equations solver. It uses an extrapolation 
  of previous quasi-Newton perturbation theory estimates of the next amplitudes. 
  See Helgaker et al., Molecular Electronic Structure Theory, Chapter 
  13.

  - CC ground state solver settings:

  - Convergence thresholds

     Residual threshold:            0.1000E-10
     Energy threshold:              0.1000E-10
     Max number of iterations:      100

  - DIIS tool settings:

     DIIS dimension:   8

     Storage (cc_gs_diis_errors): file
     Storage (cc_gs_diis_parameters): file

  Iteration    Energy (a.u.)        |omega|       Delta E (a.u.)
  ---------------------------------------------------------------
    1           -76.229433606709     0.3031E-01     0.7623E+02
    2           -76.230121048150     0.5769E-02     0.6874E-03
    3           -76.230295143570     0.5543E-03     0.1741E-03
    4           -76.230296910712     0.9652E-04     0.1767E-05
    5           -76.230297148319     0.1089E-04     0.2376E-06
    6           -76.230297133764     0.1209E-05     0.1455E-07
    7           -76.230297138100     0.9970E-07     0.4336E-08
    8           -76.230297137548     0.1100E-07     0.5524E-09
    9           -76.230297137514     0.1408E-08     0.3388E-10
   10           -76.230297137525     0.1401E-09     0.1060E-10
   11           -76.230297137525     0.2253E-10     0.5684E-12
   12           -76.230297137525     0.2285E-11     0.1847E-12
  ---------------------------------------------------------------
  Convergence criterion met in 12 iterations!

  - Ground state summary:

     Final ground state energy (a.u.):   -76.230297137525

     Correlation energy (a.u.):           -0.205260895928

     Largest single amplitudes:
     -----------------------------------
        a       i         t(a,i)
     -----------------------------------
        1      4       -0.008717979725
       13      3        0.007398311090
        2      3       -0.006036511991
       14      4       -0.005035157294
        7      3        0.004665111824
        5      2       -0.004082727105
        6      5       -0.003544674857
       10      5       -0.003292616646
        1      2        0.003193347564
        9      4        0.002808643042
     ------------------------------------

  - Finished solving the LOW MEMORY CC2 ground state equations

     Total wall time (sec):              0.14600
     Total cpu time (sec):               0.13456


  4) Calculation of the excited state (non-linear davidson algorithm)
     Calculating right vectors

   - Non-linear Davidson coupled cluster excited state solver
  --------------------------------------------------------------

  A non-linear Davidson solver that calculates the lowest eigenvalues 
  and the right or left eigenvectors of the Jacobian matrix A. The eigenvalue 
  problem is solved in a reduced space for fixed energies, before the 
  energies are updated and a new reduced space built.

  See C. Hättig and F. Weigend, J. Chem. Phys. 113, 5154 (2000).

  - Settings for coupled cluster excited state solver (Davidson):

     Calculation type:    valence
     Excitation vectors:  right

  - Convergence thresholds

     Residual threshold:            0.1000E-09
     Energy threshold:              0.1000E-09

     Number of singlet states:               8
     Max number of iterations:             100
     Max micro iterations:                 100
     Relative micro threshold:        0.10E+00


   - Davidson tool settings:

     Number of parameters:                   95
     Number of requested solutions:           8
     Max reduced space dimension:            95

     Storage (nonlin_cc_es_davidson_trials): file
     Storage (nonlin_cc_es_davidson_transforms): file

  Macro iteration: 1

  Root     Eigenvalue (Re)     Residual norm     Delta E
  ------------------------------------------------------------
   1       0.314424926555      0.9078E-01        0.3144E+00
   2       0.408687598546      0.1144E+00        0.4087E+00
   3       0.397359274712      0.9814E-01        0.3974E+00
   4       0.486090449029      0.9851E-01        0.4861E+00
   5       0.571185737093      0.8108E-01        0.5712E+00
   6       0.697936424025      0.1501E+00        0.6979E+00
   7       0.830678258407      0.1054E+00        0.8307E+00
   8       0.872243522524      0.1305E+00        0.8722E+00
  ------------------------------------------------------------

     Starting on microiterations

     Number of micro iterations: 3
     Number of transformations:  12


  Macro iteration: 2

  Root     Eigenvalue (Re)     Residual norm     Delta E
  ------------------------------------------------------------
   1       0.292215857100      0.6225E-02        0.2221E-01
   2       0.365605658512      0.9110E-02        0.4308E-01
   3       0.380511528329      0.7379E-02        0.1685E-01
   4       0.455570973167      0.1021E-01        0.3052E-01
   5       0.548029891441      0.1461E-01        0.2316E-01
   6       0.655965690886      0.1089E-01        0.4197E-01
   7       0.804281312412      0.1506E-01        0.2640E-01
   8       0.834451666885      0.2096E-01        0.3779E-01
  ------------------------------------------------------------

     Starting on microiterations

     Number of micro iterations: 3
     Number of transformations:  11


  Macro iteration: 3

  Root     Eigenvalue (Re)     Residual norm     Delta E
  ------------------------------------------------------------
   1       0.293268666992      0.5244E-03        0.1053E-02
   2       0.367560437545      0.1321E-02        0.1955E-02
   3       0.381281310721      0.1592E-02        0.7698E-03
   4       0.456855408282      0.7397E-03        0.1284E-02
   5       0.548706874709      0.1748E-02        0.6770E-03
   6       0.657616072091      0.1134E-02        0.1650E-02
   7       0.805846965625      0.1855E-02        0.1566E-02
   8       0.836598995075      0.2274E-02        0.2147E-02
  ------------------------------------------------------------

     Starting on microiterations

     Number of micro iterations: 3
     Number of transformations:  12


  Macro iteration: 4

  Root     Eigenvalue (Re)     Residual norm     Delta E
  ------------------------------------------------------------
   1       0.293218767402      0.5115E-04        0.4990E-04
   2       0.367470664562      0.1264E-03        0.8977E-04
   3       0.381242134410      0.4881E-04        0.3918E-04
   4       0.456798564695      0.1576E-03        0.5684E-04
   5       0.548683696892      0.7805E-04        0.2318E-04
   6       0.657550054910      0.7676E-04        0.6602E-04
   7       0.805776148645      0.2608E-03        0.7082E-04
   8       0.836493357993      0.2123E-03        0.1056E-03
  ------------------------------------------------------------

     Starting on microiterations

     Number of micro iterations: 3
     Number of transformations:  11


  Macro iteration: 5

  Root     Eigenvalue (Re)     Residual norm     Delta E
  ------------------------------------------------------------
   1       0.293221069482      0.7988E-05        0.2302E-05
   2       0.367474675898      0.5968E-05        0.4011E-05
   3       0.381243843317      0.1007E-04        0.1709E-05
   4       0.456801194699      0.2071E-04        0.2630E-05
   5       0.548684487488      0.4234E-05        0.7906E-06
   6       0.657552896563      0.2498E-04        0.2842E-05
   7       0.805779343539      0.1448E-04        0.3195E-05
   8       0.836498476780      0.2171E-04        0.5119E-05
  ------------------------------------------------------------

     Starting on microiterations

     Number of micro iterations: 3
     Number of transformations:  12


  Macro iteration: 6

  Root     Eigenvalue (Re)     Residual norm     Delta E
  ------------------------------------------------------------
   1       0.293220965448      0.1348E-05        0.1040E-06
   2       0.367474504960      0.7843E-06        0.1709E-06
   3       0.381243765486      0.4100E-06        0.7783E-07
   4       0.456801080093      0.2427E-05        0.1146E-06
   5       0.548684464624      0.1315E-05        0.2286E-07
   6       0.657552689851      0.1080E-05        0.2067E-06
   7       0.805779225065      0.7761E-06        0.1185E-06
   8       0.836498250722      0.2090E-05        0.2261E-06
  ------------------------------------------------------------

     Starting on microiterations

     Number of micro iterations: 3
     Number of transformations:  14


  Macro iteration: 7

  Root     Eigenvalue (Re)     Residual norm     Delta E
  ------------------------------------------------------------
   1       0.293220969538      0.1309E-07        0.4090E-08
   2       0.367474512801      0.5170E-07        0.7841E-08
   3       0.381243769112      0.7068E-07        0.3626E-08
   4       0.456801087285      0.2662E-07        0.7191E-08
   5       0.548684465895      0.3318E-07        0.1271E-08
   6       0.657552698498      0.8290E-07        0.8646E-08
   7       0.805779228462      0.5015E-07        0.3397E-08
   8       0.836498258034      0.1863E-06        0.7312E-08
  ------------------------------------------------------------

     Starting on microiterations

     Number of micro iterations: 4
     Number of transformations:  10


  Macro iteration: 8

  Root     Eigenvalue (Re)     Residual norm     Delta E
  ------------------------------------------------------------
   1       0.293220969366      0.1127E-07        0.1721E-09
   2       0.367474512509      0.9489E-08        0.2917E-09
   3       0.381243768921      0.1568E-07        0.1911E-09
   4       0.456801086989      0.6259E-08        0.2954E-09
   5       0.548684465852      0.8561E-08        0.4309E-10
   6       0.657552697747      0.7129E-08        0.7507E-09
   7       0.805779228472      0.1090E-07        0.1058E-10
   8       0.836498257881      0.6837E-08        0.1526E-09
  ------------------------------------------------------------

     Starting on microiterations

     Number of micro iterations: 3
     Number of transformations:  12


  Macro iteration: 9

  Root     Eigenvalue (Re)     Residual norm     Delta E
  ------------------------------------------------------------
   1       0.293220969371      0.9140E-09        0.5109E-11
   2       0.367474512523      0.1389E-08        0.1376E-10
   3       0.381243768931      0.1055E-09        0.9794E-11
   4       0.456801087009      0.1003E-08        0.1936E-10
   5       0.548684465851      0.3054E-09        0.1385E-11
   6       0.657552697769      0.7600E-09        0.2209E-10
   7       0.805779228456      0.4823E-09        0.1587E-10
   8       0.836498257865      0.9612E-09        0.1663E-10
  ------------------------------------------------------------

     Starting on microiterations

     Number of micro iterations: 3
     Number of transformations:  13


  Macro iteration: 10

  Root     Eigenvalue (Re)     Residual norm     Delta E
  ------------------------------------------------------------
   1       0.293220969370      0.6558E-11        0.9076E-12
   2       0.367474512523      0.7089E-11        0.3432E-12
   3       0.381243768930      0.9703E-10        0.4752E-12
   4       0.456801087009      0.7405E-11        0.1151E-12
   5       0.548684465851      0.1013E-09        0.3720E-12
   6       0.657552697765      0.7393E-10        0.4420E-11
   7       0.805779228458      0.6423E-10        0.1373E-11
   8       0.836498257868      0.6756E-10        0.2862E-11
  ------------------------------------------------------------

     Starting on microiterations

     Number of micro iterations: 2
     Number of transformations:  5


  Macro iteration: 11

  Root     Eigenvalue (Re)     Residual norm     Delta E
  ------------------------------------------------------------
   1       0.293220969370      0.6542E-11        0.4180E-13
   2       0.367474512523      0.8288E-11        0.1749E-13
   3       0.381243768930      0.8820E-11        0.4169E-13
   4       0.456801087009      0.6137E-11        0.5995E-14
   5       0.548684465851      0.2858E-10        0.2598E-13
   6       0.657552697765      0.2419E-10        0.8127E-13
   7       0.805779228458      0.2893E-10        0.1374E-12
   8       0.836498257867      0.2527E-10        0.2532E-12
  ------------------------------------------------------------
  Convergence criterion met in 11 iterations!

  - Excitation vector amplitudes:

     Electronic state nr. 1

     Energy (Hartree):                  0.293220969370
     Fraction singles (|R1|/|R|):       1.000000000000

     Largest single amplitudes:
     -----------------------------------
        a       i         R(a,i)
     -----------------------------------
        1      5        0.994016987609
        4      5       -0.096374767023
        5      5        0.036359242964
       11      5       -0.028679142458
        9      5       -0.014236017135
       15      4        0.007389583978
       14      5       -0.007376774756
       18      5        0.007313247174
        8      3        0.006338812512
       16      3        0.006257918125
     ------------------------------------

     Electronic state nr. 2

     Energy (Hartree):                  0.367474512523
     Fraction singles (|R1|/|R|):       1.000000000000

     Largest single amplitudes:
     -----------------------------------
        a       i         R(a,i)
     -----------------------------------
        2      5        0.986966342358
        3      5        0.138968335866
        7      5        0.078834691721
       13      5        0.017299182745
        8      2       -0.005087289820
        6      3       -0.004455971468
       12      5        0.003375580154
       10      3        0.002517879652
       19      5        0.002003967571
       16      2        0.001632882574
     ------------------------------------

     Electronic state nr. 3

     Energy (Hartree):                  0.381243768930
     Fraction singles (|R1|/|R|):       1.000000000000

     Largest single amplitudes:
     -----------------------------------
        a       i         R(a,i)
     -----------------------------------
        1      4        0.991896061065
        4      4       -0.079110826958
        2      3       -0.058701125591
        1      2        0.047291566521
        6      5       -0.034531692721
        3      3       -0.029292274594
       11      4       -0.028714351225
        7      3       -0.019787949874
        9      4       -0.019183459014
        4      2       -0.015059230603
     ------------------------------------

     Electronic state nr. 4

     Energy (Hartree):                  0.456801087009
     Fraction singles (|R1|/|R|):       1.000000000000

     Largest single amplitudes:
     -----------------------------------
        a       i         R(a,i)
     -----------------------------------
        2      4        0.990263296480
        3      4        0.095338970348
        7      4        0.080240284523
        1      3       -0.040934780062
        4      3        0.035537146374
        8      5       -0.016279669446
        2      2        0.014817889747
        9      3       -0.009125916183
       13      4        0.009071766081
       14      3        0.008438425790
     ------------------------------------

     Electronic state nr. 5

     Energy (Hartree):                  0.548684465851
     Fraction singles (|R1|/|R|):       1.000000000000

     Largest single amplitudes:
     -----------------------------------
        a       i         R(a,i)
     -----------------------------------
        1      3       -0.993932269056
        4      3        0.070773365637
        2      4       -0.049668991349
        5      3       -0.039994510463
        3      4        0.035581319550
        2      2        0.024493487210
       11      3        0.021940977108
        9      3        0.017062459945
       14      3        0.010650498611
        8      5        0.010032841047
     ------------------------------------

     Electronic state nr. 6

     Energy (Hartree):                  0.657552697765
     Fraction singles (|R1|/|R|):       1.000000000000

     Largest single amplitudes:
     -----------------------------------
        a       i         R(a,i)
     -----------------------------------
        2      3        0.983997885368
        6      5       -0.105728556560
        5      4       -0.086620296371
        4      4        0.067111983445
        1      4        0.056017669343
        3      3        0.054108835474
        7      3        0.027948302875
       11      2       -0.018681955765
        1      2        0.018540992305
        9      2       -0.016582719601
     ------------------------------------

     Electronic state nr. 7

     Energy (Hartree):                  0.805779228458
     Fraction singles (|R1|/|R|):       1.000000000000

     Largest single amplitudes:
     -----------------------------------
        a       i         R(a,i)
     -----------------------------------
        3      5        0.990902208574
        2      5       -0.121749945457
       13      5        0.046825499113
        7      5        0.030126942623
        8      2       -0.008467297025
        6      3       -0.008393425198
       12      5        0.004644963941
       10      3        0.004613958694
        8      4        0.001408331816
       16      2        0.001040317003
     ------------------------------------

     Electronic state nr. 8

     Energy (Hartree):                  0.836498257867
     Fraction singles (|R1|/|R|):       1.000000000000

     Largest single amplitudes:
     -----------------------------------
        a       i         R(a,i)
     -----------------------------------
        4      5       -0.992743049174
        1      5       -0.080535631549
        5      5        0.063578870260
       14      5       -0.029980213068
        8      3        0.029942108125
        9      5        0.023120855645
       10      4        0.018232146164
       18      5        0.017730877004
       17      5        0.015939720868
       15      4        0.014992140081
     ------------------------------------

     - Electronic excitation energies:

                                      Excitation energy
                          ------------------------------------------
      State                (Hartree)             (eV)
     ---------------------------------------------------------------
        1                  0.293220969370        7.978948986697
        2                  0.367474512523        9.999490812784
        3                  0.381243768930       10.374171364076
        4                  0.456801087009       12.430190712956
        5                  0.548684465851       14.930464803449
        6                  0.657552697765       17.892920287366
        7                  0.805779228458       21.926369632456
        8                  0.836498257867       22.762276999886
     ---------------------------------------------------------------
     eV/Hartree (CODATA 2014): 27.21138602

  - Finished solving the LOW MEMORY CC2 excited state equations (right)

     Total wall time (sec):              4.63800
     Total cpu time (sec):               3.57878

  - Timings for the LOW MEMORY CC2 excited state calculation

     Total wall time (sec):              5.17300
     Total cpu time (sec):               4.21512

  ------------------------------------------------------------

  Peak memory usage during the execution of eT: 5.860024 MB

  Total wall time in eT (sec):              6.08900
  Total cpu time in eT (sec):               5.62416

  Calculation ended: 2022-02-01 16:06:13 UTC +01:00

  - Implementation references:

     eT: https://doi.org/10.1063/5.0004713
     Cholesky decomposition of ERIs: https://doi.org/10.1063/1.5083802

  eT terminated successfully!
